Abraàm,1
Anassagora,1
Andiam,1
Averoìs,1
Avicenna,1
Bruto,1
Cammilla,1
Cesare,1
Colà,1
Come,1
Corniglia,1
Così,3
Da,1
Davìd,1
Democrito,1
Di,1
Dimmi,1
Dio,1
Dïascoride,1
Dïogenès,1
E,5
Ed,1
Eletra,1
Empedoclès,1
Enea,1
Eraclito,1
Ettòr,1
Euclide,1
Galïeno,1
Genti,1
Gran,1
Intanto,1
Io,3
Ipocràte,1
Israèl,1
Iulia,1
I’,1
La,1
Latino,1
Lavina,1
Lino,1
Lo,2
Lucano,1
Lucrezia,1
L’angoscia,1
L’onrata,1
Marzïa,1
Mira,1
Moïsè,1
Non,2
Noè,1
O,1
Omero,1
Onorate,1
Or,2
Orazio,1
Orfeo,1
Oscura,1
Ovidio,1
Pantasilea,1
Per,1
Però,1
Platone,1
Poi,2
Questo,1
Quivi,1
Rachele,1
Ruppemi,1
Saladino,1
Seneca,1
Socrate,1
Tale,1
Tarquino,1
Tolomeo,1
Traemmoci,1
Trasseci,1
Tu,1
Tulïo,1
Tutti,1
Venimmo,1
Vero,1
Vidi,2
Zenone,1
a,12
accoglie,1
accoglitor,1
accorto,1
acquista,1
ad,1
adorar,1
adunar,1
ai,1
al,5
alcuna,1
alcuno,1
alquanto,1
alto,1
altra,1
altri,4
altro,1
altrui,1
ancor,1
ancora,2
andammo,1
andi,1
aperto,1
aquila,1
armato,1
arte,1
ascoltare,1
assai,1
aura,1
autorità,1
avanza,1
avea,1
avevan,1
avvenia,1
basta,1
battesmo,1
beati,1
beato,1
bel,1
bella,1
bello,1
bene,1
buon,2
buono,1
caccia,1
cacciò,1
canti,1
canto,1
caso,1
castello,1
cenno,1
cerchiato,1
cerchio,1
certo,1
che,46
chi,1
ché,1
ch’avean,1
ch’ebber,1
ch’ei,1
ch’emisperio,1
ch’era,1
ch’eran,1
ch’e’,1
ch’innalzai,1
ch’io,3
ch’onori,1
ch’orrevol,1
ch’è,2
ci,1
ciascun,1
cieco,1
ciel,1
ciglia,1
cigne,1
ciò,2
color,2
colui,1
colà,1
come,3
comento,1
comincia’,1
cominciò,2
compagni,1
compagnia,1
com’,2
con,11
conforto,1
conobbi,2
conoscer,1
convene,1
cor,1
coronato,1
cosa,1
cose,1
così,2
cotai,1
cotanta,1
cotanto,1
coverto,1
co’,1
credi,1
cristianesmo,1
cui,1
c’hanno,1
da,2
dal,2
de,7
debitamente,1
del,4
desta,1
de’,1
di,22
dicessi,1
dico,2
difeso,1
difetti,1
dimandi,1
dimmi,1
dinanzi,3
diparte,1
dipartita,1
dipigne,1
dir,1
dire,1
diritto,1
discendiam,1
discernea,1
discernessi,1
disio,1
dissi,1
dolorosa,1
dov’,2
dritto,1
dubbiare,1
duca,1
due,1
duol,2
dura,1
d’Abèl,1
d’abisso,1
d’alte,1
d’infanti,1
d’infiniti,1
d’onore,1
d’un,2
e,40
ebber,1
ed,1
ei,1
elli,1
era,5
eran,2
errore,1
esser,2
essi,1
etterna,1
facevan,1
famiglia,1
fanno,2
fannomi,1
fatto,1
feceli,1
fecer,1
fede,2
femmine,1
fenno,1
feo,1
ficcar,1
figlia,1
figlio,1
filosofica,1
fiso,1
fiumicello,1
foco,1
fondo,1
forza,1
fosse,1
fossi,1
fresca,1
fu,2
fui,2
fuor,2
furon,1
fé,2
gente,2
genti,1
geomètra,1
giugnemmo,1
giù,2
gran,1
grande,1
grandi,1
grand’,1
gravi,1
grazïa,1
greve,1
grifagni,1
guai,1
hanno,1
il,6
in,11
infino,1
innanzi,1
insieme,1
intorno,2
intrai,1
intrare,1
io,6
i’,1
la,16
lasciavam,1
le,3
legista,1
levato,1
li,9
lieta,1
limbo,1
lo,5
loco,3
lor,2
loro,1
luca,1
lumera,1
luminoso,1
lunga,2
lungi,1
lungo,1
l’,1
l’abisso,1
l’altissimo,2
l’alto,1
l’altra,1
l’altro,1
l’andar,1
l’aura,1
l’occhio,1
l’ombra,2
l’ultimo,1
l’un,1
ma,2
maestro,5
magni,1
mai,2
mano,1
martìri,1
me,6
meco,1
medesmo,1
mena,1
meno,1
mercedi,1
merto,1
mi,11
mio,4
miran,1
mise,1
modo,1
molte,2
molti,2
molto,1
mondo,2
morale,1
mossi,1
mostrati,1
mura,1
m’essalto,1
nati,1
ne,4
nebulosa,1
nel,4
ne’,1
nobile,1
noi,1
nome,1
nominanza,1
non,13
nostra,1
nuovo,1
né,2
n’eravamo,1
o,2
occhi,2
offesi,1
ogne,1
ombre,1
onor,1
onore,1
onranza,1
ove,1
padre,1
parente,1
parlando,1
parlar,2
parlavan,1
parte,4
passammo,1
passavam,1
patrïarca,1
paventi,1
peccaro,1
per,13
perché,1
perch’,1
perduti,1
persona,1
però,2
pianto,1
pieno,1
pietà,1
piè,1
più,4
poco,2
poeta,3
poi,1
pone,1
porta,1
porte,1
possedea,1
possente,1
posso,1
potien,1
prato,1
prese,1
presso,1
primo,3
proda,1
profonda,1
qua,3
quai,1
quale,1
quando,2
quand’,1
quanti,1
quattro,1
quei,1
quel,4
quella,4
quelli,2
questi,4
questo,1
queta,2
quivi,1
rado,1
ragionato,1
re,2
restata,1
riguardai,1
rio,1
riposato,1
riscossi,1
rispuose,1
ritrar,1
salutevol,1
salvati,1
sanno,1
sanza,1
sappi,2
sarai,1
sarò,1
satiro,1
savi,1
savio,1
scema,1
schiera,1
scola,1
scïenzïa,1
se,1
secondo,2
sedea,1
seder,1
segno,1
segnor,1
segnore,1
selva,2
sembianti,1
sembianz’,1
semo,1
senno,1
senti,1
senza,1
sesta,1
sesto,1
sette,2
si,4
sire,1
smalto,1
smorto,1
soavi,1
sol,1
sola,1
solo,1
son,4
sonno,2
sonò,1
sorrise,1
sospesi,1
sospigne,1
sospiri,1
sovra,2
sovrano,1
spada,1
speme,1
spessi,1
spiriti,4
stanno,1
stato,1
stesso,1
su,1
sua,2
suo,2
suoi,1
suoli,1
suona,1
sì,9
sù,1
s’elli,1
s’e’,1
tacere,1
tai,1
tanto,4
tardi,1
tema,2
tenebre,1
terra,1
terzo,1
testa,1
torna,1
tra,3
tre,1
trema,1
tremare,1
trista,1
trovai,1
truono,1
tu,6
tua,1
turbe,1
tuttavia,1
tutti,3
tutto,1
ubidente,1
udita,1
umani,1
un,5
uscicci,1
valle,1
valore,1
veder,1
vedere,1
vedi,1
vegno,1
vene,1
venire,2
verde,1
verdura,1
verrò,1
vi,1
via,3
vidi,9
vid’,2
vien,2
vince,1
vincia,1
viri,1
viso,2
vita,1
vittoria,1
vivemo,1
voce,3
voci,1
vola,1
voler,1
volsersi,1
volte,2
vo’,2
v’eran,1
è,6
ïo,1
’,1
’l,10
’n,2
’nnanzi,1
’ntese,1
’ntesi,1
’ntrono,1
