A,1
Alcun,1
Ancora,1
Caorsa,1
Carro,1
Coro,1
Così,1
Da,1
Di,1
Dio,6
Dite,1
D’ogne,1
E,1
Ed,2
Etica,1
Figliuol,1
Filosofia,1
Fisica,1
Fotin,1
Genesì,1
In,1
La,1
Lo,1
Ma,3
Maestro,1
Morte,1
Non,1
O,1
Per,1
Perché,1
Pesci,1
Puossi,1
Puote,1
Questo,1
Se,1
Soddoma,1
Tutti,1
Vedi,1
a,10
abisso,1
accatta,1
acquista,1
ad,1
affattura,1
aggiunto,1
al,2
altra,1
altro,1
altrove,1
altrui,1
amor,1
aperta,1
arte,2
aspre,1
assai,2
assale,1
avanzar,1
avello,1
avere,2
balzo,1
baratti,1
baràtro,1
basti,1
batte,1
ben,4
beni,1
bestemmiando,1
bestialitade,1
biasimo,1
biscazza,1
bontade,2
carte,1
cerchietti,1
cerchio,4
che,26
chi,4
chiara,1
ché,1
ch’a,1
ch’e’,1
ch’in,1
ch’incida,1
ch’odio,1
ch’usura,1
ch’è,1
ci,1
ciascun,1
ciel,1
cielo,1
città,1
ciò,1
col,2
colui,1
come,6
cominciò,1
compenso,1
con,5
consunto,1
contenti,1
contrista,1
convene,1
convien,1
conviene,1
coperchio,1
cor,2
corso,1
coscïenza,1
cose,1
costretti,1
costrutto,1
cotale,1
cotesti,1
cria,1
crucciata,1
crudele,1
da,5
dal,2
danno,1
dannose,1
de,4
del,3
delira,1
dentro,2
deïtade,1
de’,1
di,7
dicea,1
dico,1
dietro,2
dimmi,1
dipartiti,1
dir,1
discente,1
dismonta,1
disposizion,1
dispregia,1
disse,2
dissi,1
diss’,1
distingue,1
distinto,1
diverse,1
divina,2
divino,1
di’,1
dogliose,1
dolor,1
dopo,1
dove,2
dov’,1
dritta’,1
dubbiar,1
due,1
d’amor,1
d’un,1
d’un’alta,1
e,47
ed,1
ei,1
elli,2
esser,2
etterno,1
fa,4
facevan,1
facultade,1
falsità,1
far,2
favella,1
fede,1
felli,1
ferute,1
fia,1
fiato,1
fida,1
fidanza,1
fiere,1
fin,1
fine,1
foggia,1
fonde,1
forza,5
frode,3
frodolenti,1
fuor,1
gente,1
giace,1
giocondo,1
gir,1
giron,3
gironi,1
gitta,1
grado,2
gran,1
grand’,1
groppo,1
guardo,1
guastatori,1
guizzan,1
ha,2
i,2
il,3
imborsa,1
in,16
incendi,1
incontenenza,2
ingiuria,1
intendi,1
io,4
ipocresia,1
ira,1
la,19
ladroneccio,1
lassi,1
le,2
li,5
lingue,1
lo,7
lor,1
lordura,1
loro,1
lui,2
lusinghe,1
là,3
l’altro,1
l’arte,1
l’estremità,1
l’omo,1
l’orizzonta,1
l’orribile,1
l’universo,1
l’uom,1
l’usuriere,1
ma,2
maestro,2
mal,1
maladetti,1
male,1
malizia,2
man,1
martelli,1
matta,1
me,1
men,4
mena,1
mente,3
mi,3
minor,1
minore,1
mio,1
mira,1
modo,2
molte,1
mondo,1
morsa,1
m’aggrata,1
natura,5
negando,1
nel,5
nella,1
nepote,1
ne’,1
no,1
non,8
nostro,1
nota,1
note,1
o,3
offende,2
ogne,2
ogni,1
oltra,1
omicide,1
omo,1
onde,3
ond’,1
oramai,1
ov’,2
palude,1
papa,1
par,1
parole,1
parte,1
passi,1
penitenza,1
penso,1
penta,1
per,6
perché,9
perduto,1
persone,1
pertratta,1
però,3
piace,1
piange,1
pien,1
pietre,1
pingue,1
pioggia,1
più,3
poco,2
poi,5
pon,1
popol,1
possiede,1
pote,1
predon,1
prende,1
prender,1
prima,1
primo,2
principio,1
priva,1
pro,1
procede,1
profondo,1
proprio,1
prossimo,2
puniti,1
punto,1
pur,2
pure,1
puzzo,1
può,1
pòne,1
quai,1
qual,1
qualunque,2
quando,1
quanto,1
quasi,1
quei,1
quel,3
quella,2
quelle,1
quelli,1
quell’,1
questa,1
queste,1
questi,1
questo,1
que’,1
quivi,1
raccostammo,1
ragione,2
rechi,1
rechiti,1
retro,1
riguardi,1
riguardo,1
rimembra,1
ripa,1
rivolvi,1
roggia,1
rotte,1
ruffian,1
ruine,1
sani,1
sanza,1
sassi,1
saver,1
scender,1
schiere,1
scritta,1
se,4
secondo,2
segno,1
seguace,1
segue,1
seguimi,1
senso,1
sentenza,1
si,6
siede,1
sien,1
simile,1
simonia,1
sol,1
sola,1
solvi,2
son,4
sono,2
soperchio,1
sopra,1
sostegnon,1
sotto,1
sovra,1
spene,1
spezïal,1
spiace,1
spirti,1
spregiando,2
stan,1
stipa,1
su,3
sua,5
suggella,1
suo,3
suoi,1
sé,4
sì,4
sòle,1
sù,1
s’annida,1
s’ausi,1
s’incontran,1
s’oblia,1
tal,1
tanto,1
tardo,1
tempo,1
tene,1
ti,4
tollette,1
tormenta,1
trade,1
trasse,1
tre,4
tristo,1
trova,1
troverai,1
tu,7
tua,3
tuo,1
turbata,1
tutti,1
tutto,2
udirai,1
un,3
una,2
usare,1
vedrai,1
vendetta,1
venimmo,1
vento,1
ver,1
via,3
vidi,1
vinco,1
vista,2
vita,1
vole,1
vostra,1
vostro,1
vostr’,1
vïolenta,1
vïolenti,1
è,8
‘Anastasio,1
’l,14
’n,1
’ngegno,1
’ntelletto,1
’ntende,1
