Ali,1
Allor,2
Andrea,1
Arpie,1
Augusto,1
Batista,1
Brievemente,1
Cade,1
Cecina,1
Cesare,1
Chi,1
Come,2
Corneto,1
Cred’,1
Da,2
Di,1
Domandal,1
E,5
Ed,2
Federigo,1
Iacopo,1
In,1
Io,3
I’,1
La,1
Lano,1
L’animo,1
Ma,1
Minòs,1
Nesso,1
Noi,1
Non,3
O,2
Ond’,1
Or,1
Per,1
Perché,2
Perciò,1
Però,2
Presemi,1
Prima,1
Quando,2
Quel,1
Qui,1
Quivi,1
Santo,1
Se,2
Strofade,1
Surge,1
Sì,1
S’elli,1
Toppo,1
Troiani,1
Un,1
Uomini,1
a,17
accorri,2
accorte,1
ad,1
al,8
alberi,1
alcun,1
alcuna,1
alcuno,1
allor,1
ambo,1
ammenda,1
ancor,4
ancora,2
anima,1
anime,2
animi,1
annunzio,1
appesi,1
arrivato,1
artigli,1
aspri,1
attese,1
attesi,1
avante,1
aver,1
averebbe,1
avesse,1
avrebber,1
balestra,1
ben,2
bestie,1
bosco,1
bramose,1
brano,2
bronchi,1
bruno,1
brutte,1
buon,1
caccia,1
cacciar,1
cadere,1
cagne,1
capi,1
case,1
catena,1
cener,1
cespuglio,2
cesto,1
che,39
chi,1
chiavi,1
chiedi,1
ché,1
ch’a,2
ch’alcuna,1
ch’altro,1
ch’arso,1
ch’ei,1
ch’el,1
ch’io,2
ch’i’,3
ch’ode,1
ch’om,1
ch’uscisser,1
ci,1
ciascuno,1
cigola,1
cima,1
cittadin,1
città,1
ciò,3
col,2
colli,1
color,1
colpa,1
colpo,1
colsi,1
colui,2
come,4
cominciò,1
comune,1
con,6
conforti,1
contra,2
convertì,1
cor,1
corpi,1
corpo,1
correnti,1
corti,1
cosa,1
cose,1
costa,1
cotal,1
credendo,2
creder,1
credesse,1
credette,1
credi,1
cui,1
cólti,1
c’ha,2
c’hai,1
da,9
dal,3
danno,1
de,9
degno,1
del,3
denti,1
de’,1
di,18
dicea,1
diede,1
dilaceraro,1
dilli,1
dinanzi,1
dinne,1
dir,3
dire,2
dirne,1
disdegno,1
disdegnoso,1
diserrando,1
disgiunte,1
disonesto,1
disse,3
distesa,1
disvelta,1
dolce,1
dolenti,1
dolor,1
dolore,1
doloroso,1
dove,2
dovrebb’,1
due,1
d’Arno,1
d’Attila,1
d’alcun’,1
d’este,1
d’esto,1
d’ogne,1
d’onor,1
d’un,3
d’una,1
e,35
ecco,1
ei,1
ella,1
elli,1
entre,1
era,3
eravamo,1
esser,1
esso,1
faccia,1
facesse,1
fallia,1
fama,1
fanno,3
faran,1
fare,1
farà,1
fatti,1
fatto,2
fece,3
fede,3
fei,1
fenestra,1
fermo,1
feroce,1
fiere,1
foce,1
foglie,1
folti,1
forse,1
forte,2
fortuna,1
fosco,1
fosse,1
fossimo,1
fosti,2
frasche,1
fraschetta,1
fronda,1
fronde,1
fu,3
fuggendo,1
fuggir,1
fui,1
fummo,2
furo,1
futuro,1
gambe,1
geme,1
gente,1
germoglia,1
giace,1
gibetto,1
giostre,1
giovato,1
girone,1
giunte,1
giuro,1
giusto,2
già,1
glorïoso,1
graffiati,1
gran,3
gravi,1
gridava,1
gridò,1
groppo,1
guai,1
gusto,1
hai,1
han,1
hanno,2
ho,1
i,3
il,1
in,9
incarcerato,1
incredibile,1
indarno,1
indurlo,1
infiammar,1
infiammò,1
ingiusto,1
insieme,1
io,2
la,24
lamenti,1
lasciai,1
late,1
lavorare,1
le,16
lece,1
lega,1
legno,1
lena,1
lesa,1
li,9
liberamente,1
lieti,1
lo,1
lor,1
loro,1
lui,3
luoghi,1
lutti,1
là,2
l’Arpie,1
l’altre,1
l’altro,2
l’anima,2
l’arte,1
l’om,1
l’ombra,1
l’ora,1
l’orribil,1
l’ospizio,1
l’un,1
l’uom,1
l’è,1
ma,7
maestro,3
mai,3
man,2
manda,1
mano,2
me,9
membra,2
memoria,1
menommi,1
mentre,1
meretrice,1
mesta,1
mettemmo,1
mi,4
mia,3
mie,2
mio,4
miser,1
molesta,1
monchi,1
mondo,2
morir,1
morte,2
mutò,1
m’accora,1
m’adeschi,1
m’arrestai,1
m’inveschi,1
nascondesse,1
ne,3
nel,4
nere,1
neun,1
nidi,1
nocchi,1
nodosi,1
noi,4
non,16
nostre,1
nostri,1
nove,1
nudi,1
né,1
occhi,1
odio,1
offizio,1
ogne,1
ogn’,1
ond’,3
onor,1
or,1
ovra,1
padrone,1
pareva,1
parla,1
parole,1
parte,3
pascendo,1
passo,1
pennuto,1
pensier,1
per,11
perch’,1
perder,1
perde’,1
persona,1
però,1
pesa,1
pia,1
piaccia,1
piace,1
piangea,1
pianta,1
piante,1
piena,1
pietade,1
pietà,1
piè,2
più,3
poco,3
poeta,1
poi,7
polsi,1
pomi,1
porco,1
porsi,1
portai,1
portar,1
posso,1
posta,1
potrei,1
potuto,1
priega,1
prima,1
primo,1
prun,1
pruno,1
punte,1
puoi,1
pur,1
putti,1
qualche,1
quando,2
quasi,1
quei,1
quel,4
quelle,2
questi,1
questo,1
que’,1
quivi,1
raccoglietele,1
radici,1
ragionar,1
rami,1
ramicel,1
rea,1
ricominciò,2
riede,1
rietro,1
rifondarno,1
riguarda,1
rima,1
rimane,1
rimase,1
rinfreschi,1
risposto,1
rispuose,1
rivesta,1
romor,1
rompieno,1
rosta,1
rotta,1
rotture,1
ruppi,1
sabbione,1
sangue,3
sanguinenti,1
sappi,1
sarai,1
saranno,1
sarà,1
satisfaccia,1
savio,1
scelta,1
scerpi,1
scheggia,1
schermo,1
schiante,1
schietti,1
scorta,1
se,5
secondo,1
secreto,1
segnato,1
segnor,1
selva,4
selvagge,1
sempre,1
sen,2
sente,1
sentia,1
sentiero,1
sermo,1
sermone,1
serpi,1
serrando,1
settima,1
se’,1
si,8
sia,1
siam,1
siete,1
silvestra,1
similemente,1
sinistra,1
smarrito,1
soavi,1
soffi,1
soffiò,1
son,1
sonni,1
sorpresi,1
sovra,1
sovr’,1
spelta,1
spiega,1
spirito,1
spirto,1
spoglie,1
state,1
stecchi,1
sterpi,2
stessa,1
stesso,1
stetti,1
stizzo,1
stormire,1
strani,1
strascineremo,1
strazio,1
su,1
sua,3
sue,1
sul,1
suo,2
sé,1
sì,11
sù,1
s’alcuna,1
s’appiattò,1
s’è,1
tace,1
tacere,1
tai,1
tanta,1
tante,2
tanto,1
tardar,1
te,1
teme,1
tenni,1
ti,3
toglie,1
tolsi,1
tornar,1
tornaro,1
torrien,1
torse,1
tra,2
trarre,1
trista,1
tristi,1
tristo,2
tronchi,1
tronco,4
troppo,1
tu,6
tua,3
tue,1
tuo,1
tutti,2
tutto,1
tòsco,1
t’è,1
umani,1
un,6
uom,1
uscisser,1
usciva,1
va,1
vano,1
vece,1
vedea,1
veder,1
vederai,1
veduto,1
veltri,1
venire,1
vento,2
ventre,1
verde,2
vermena,1
verrai,1
verrem,1
vi,1
via,1
visi,1
vista,1
vita,1
vizio,1
voce,1
voci,1
voi,3
volesse,1
volsi,1
v’eran,1
è,1
ïo,3
’,2
’l,13
’n,3
’nfiammati,1
’nvidia,1
’nvolti,1
