43I’,1
44tutte,1
45ch’a,1
A,1
Acheronte,1
Alessandro,1
Allora,1
Bulicame,1
Buon,1
Capaneo,1
Caton,1
Ciascuna,1
Cocito,1
Creta,1
Dammiata,1
Dentro,1
Dio,2
D’anime,1
E,3
Ed,1
Flegetonta,2
Flegra,1
Giove,1
Ida,1
In,2
Indi,1
La,2
Letè,2
Lo,2
Lor,1
Maestro,2
Mongibello,1
O,2
Omai,1
Or,1
Poi,3
Qual,1
Quale,1
Quali,1
Quei,1
Quella,1
Queste,1
Roma,1
Rëa,1
Sanza,1
Se,2
Sovra,1
Stige,1
Supin,1
Tacendo,1
Tebe,1
Tra,1
Tu,1
Una,1
Vulcano,1
a,20
abbia,1
acciò,1
accolte,1
accorto,1
ad,2
addur,1
aguta,1
aiuta,2
al,8
alcuna,2
allegra,1
allora,1
alpe,1
altra,1
altri,1
ambo,1
ammorta,1
ancor,4
andava,1
appar,1
ardore,1
argento,1
arida,1
arrivammo,1
arsi,1
arsiccia,1
arte,1
assai,2
avea,1
aver,1
ben,2
bollor,1
bosco,2
braccia,1
cader,1
cadere,1
calando,1
calde,1
carità,1
casto,1
celarlo,1
cerchio,1
certo,1
che,42
chi,1
chiamando,1
chiamò,1
ché,1
ch’assiser,1
ch’ei,1
ch’elli,1
ch’era,2
ch’io,3
ch’i’,2
ci,1
ciascun,1
ciò,2
colei,1
colpa,1
colui,1
come,4
cominciai,1
compito,1
com’,4
con,3
conta,1
continüamente,1
corso,1
cosa,3
cose,2
così,1
cotta,1
crucciato,1
cui,5
cuna,1
curi,1
da,6
dal,5
dallato,1
da’,1
de,5
debiti,1
dei,1
del,4
demon,1
destro,1
de’,1
di,14
dicendo,1
dico,1
dietro,1
dilatate,1
dimostrato,1
diriva,1
diroccia,1
disdegno,1
diserta,1
disio,1
dismonta,1
dispetti,1
dispettoso,1
disse,1
dissi,1
diss’,1
divenimmo,1
diversa,1
di’,1
doccia,1
dolor,1
dolore,1
dolorosa,1
domandava,1
doppiar,1
dove,2
dovea,1
dritto,1
duca,3
duolo,1
duri,1
dì,1
d’Indïa,1
d’acqua,1
d’altra,1
d’esta,1
d’i,1
d’un,1
d’una,1
e,26
ebbe,1
ed,1
el,1
eletto,1
elli,2
era,5
eretto,1
esca,1
esce,1
escotendo,1
essa,1
esser,1
fa,2
fabbro,1
facea,1
faci,1
falde,1
fan,1
fanno,2
far,1
fatta,1
fatt’,1
fece,1
fermammo,1
ferro,1
fessura,1
fiamme,1
fiammelle,1
fida,1
figliuolo,1
fin,1
fine,1
fioco,1
fiumicello,1
focile,1
focina,1
foco,1
foggia,1
folgore,1
fondo,2
forcata,1
formata,1
forte,1
forza,2
fossa,1
fosso,1
fregi,1
fresca,1
fronde,2
fu,7
fui,2
fuor,6
furor,1
fóran,1
gente,1
ghirlanda,1
giace,1
giacea,1
giacëa,1
giron,1
giuso,1
giustizia,1
giva,2
già,5
giù,3
goccia,1
gran,1
grande,1
gregge,1
grida,1
gridò,1
grotta,1
guarda,2
guasto,1
i,1
il,3
in,8
incontra,1
indi,1
infin,1
infino,2
intorno,1
intrammo,1
inver’,1
io,4
la,18
labbia,1
lagrime,1
landa,1
largisse,1
largito,1
lavarsi,1
le,11
legge,2
lento,1
letto,1
li,7
lici,1
lieta,1
lingua,1
lo,8
loco,2
lor,2
loro,1
lui,3
là,3
l’acqua,1
l’altro,3
l’anime,1
l’arsura,1
l’avea,1
l’etternale,1
l’intrar,1
l’oro,1
l’ultimo,1
l’un,2
l’una,1
l’è,1
ma,5
mai,1
mani,1
manifestar,1
manifesto,1
mar,1
maraviglia,1
margini,2
martiro,1
marturi,1
me,4
medesmo,1
meglio,1
mei,2
men,1
mentre,1
metti,1
mezzo,1
mi,5
miglior,1
mio,3
miseramente,1
misere,1
molta,1
molte,1
molto,1
mondo,2
montagna,1
monte,1
morto,1
muta,2
m’accorsi,1
m’avëa,1
natio,1
ne,2
negato,1
negra,1
nessuno,1
neve,1
noi,1
non,13
nostro,1
notabile,1
nova,1
nove,1
nude,1
nullo,1
n’apparisce,1
o,1
occhi,2
ogne,2
onde,2
or,3
oro,1
orribil,1
ove,3
paese,1
par,4
parea,1
parlò,1
parole,1
parte,2
parti,1
parton,1
passi,1
passo,1
pasto,1
peccatrici,1
pendici,1
pentuta,1
per,10
perché,1
percosso,1
però,1
petto,2
piaci,1
piangea,1
piangean,1
pianta,1
picciol,1
piede,1
piedi,2
pietra,1
pioggia,1
piova,1
piovean,1
piè,1
più,5
poco,1
poi,3
porta,2
poscia,1
posta,1
potrebbe,1
pregai,1
pregi,1
prese,1
presente,2
provide,1
pugna,1
punito,1
pur,2
puro,1
qual,1
quali,1
quando,2
quanto,1
quel,3
quella,2
quelle,1
quello,2
questa,3
question,1
questo,1
qui,1
quinci,1
quindi,1
quivi,1
rabbia,1
raccapriccia,1
raccolta,1
rame,1
randa,2
raunai,1
rege,1
regi,1
rena,4
rende’le,1
retro,1
rigagno,1
rimossa,1
rimove,1
rio,1
riposo,1
rispuose,1
rivolse,1
rossa,1
rossore,1
rotta,1
ruscello,1
sabbion,1
saetti,1
sai,1
salde,1
salvo,1
sanza,1
sarebbe,1
scalpitar,1
scelse,1
scendeva,1
schiere,1
sciolta,1
scorta,1
scostarsi,1
se,1
secondo,1
sedea,1
selva,2
sempre,1
sen,2
sette,1
se’,2
si,14
sia,1
sie,1
siede,1
sinistra,1
sogliare,1
solo,1
solver,1
son,3
sono,1
soppressa,1
sopra,2
sotto,2
sovra,1
spalle,1
sparte,1
spazzo,1
speglio,1
spegne,1
spessa,1
spiccia,1
sta,2
stagno,1
stanchi,2
stingueva,1
stretta,1
stretti,1
strinse,1
stuolo,1
su,2
sua,2
sue,1
suo,5
suoi,1
suolo,1
superbia,1
sé,2
sì,3
süo,2
s’accendea,1
s’ammorza,1
s’appella,1
s’elli,1
taci,1
tal,2
tale,1
tanto,1
tempo,1
temuta,1
terra,3
terzo,1
testa,1
tien,2
tondo,1
tormento,1
torto,1
tra,1
tresca,1
tristo,1
trova,1
tu,6
tua,2
tue,1
tuo,2
tuoi,1
tutta,2
tutte,3
tutto,5
t’ho,1
udito,1
un,3
una,2
uscinci,1
valle,1
van,1
vanno,1
vapor,1
vapore,1
vede,1
vedrai,2
veglio,1
vegne,1
vendetta,2
venimmo,1
vento,1
venuto,1
vi,1
via,1
vide,1
vidi,1
vien,1
vieta,1
vinci,1
vivagno,1
vivo,1
volte,1
volto,1
vòlto,1
v’è,1
è,12
’,2
’l,18
’n,3
’ncendio,1
’ntorno,1
’ve,1
