A,1
Acquacheta,1
Ahi,1
Ahimè,1
Aldobrandi,1
Ancor,1
Benedetto,1
Borsiere,1
Come,1
Così,1
Di,1
E,3
El,1
E’,1
Fiorenza,1
Forlì,1
Già,1
Gualdrada,1
Guerra,1
Guido,1
Guiglielmo,1
Iacopo,1
Indi,1
Io,2
I’,1
La,1
Lascio,1
L’altro,1
Monte,1
Non,1
Ond’,1
Or,1
Però,1
Poi,1
Poscia,1
Qual,1
Questi,1
Ricominciar,1
Rusticucci,1
San,1
Se,3
Sempre,1
Sòstati,1
S’i’,1
Tegghiaio,1
Tosto,1
Un,1
Venian,1
Viso,1
a,20
abbracciar,1
ad,2
aere,1
affezion,1
aggroppata,1
ai,1
al,2
alcun,1
alcuna,1
ali,1
alquanto,1
alto,1
altro,1
altrui,1
amen,1
ancora,1
animo,1
ascoltai,1
aspetta,1
aspetto,1
assai,2
attendo,1
avante,1
avea,1
avria,1
avvisando,1
basso,1
battuti,1
belle,1
brollo,1
brusciato,1
bui,1
buona,2
burrato,1
cadea,1
cadere,1
cammino,1
campi,1
campion,1
cauti,1
cenno,1
centro,1
certo,1
che,34
chi,1
chiama,1
chiuder,1
chiuso,1
ché,1
ch’a,1
ch’aggrappa,1
ch’al,2
ch’altro,1
ch’appresso,1
ch’el,1
ch’io,2
ch’i’,3
ciascuna,1
ciascuno,1
cinta,1
città,1
ciò,2
coi,1
col,2
collo,1
color,1
colpa,1
colui,1
comandato,1
come,4
comedìa,1
cominciai,1
cominciò,1
compagni,1
com’,2
con,8
condizion,1
conduca,1
continüo,1
contraro,1
convien,3
coperto,1
cor,1
corda,1
correndo,1
cortese,1
cortesia,1
costa,2
costor,1
così,4
cotto,1
credi,1
credo,1
croce,1
cruccia,1
cui,2
c’ha,2
da,5
dal,2
de,5
del,2
dentro,1
destro,1
de’,1
di,15
dicea,1
dicere,1
dicerei,1
dienno,1
dimora,1
dipelato,1
dipinta,1
dirne,1
dirsi,1
discoscesa,1
dismisura,1
dispetto,2
dispoglia,1
disse,3
divalli,1
doglia,1
dolci,1
dopo,1
dottor,2
dovea,1
dovrìa,1
drizzava,1
duca,2
duol,1
duole,1
dì,1
d’Apennino,1
d’esti,1
d’esto,1
d’una,2
e,38
ebbe,1
ei,2
entro,1
era,1
eravam,1
essa,1
esser,5
e’,1
fa,2
faccia,2
facea,1
faceva,1
fama,2
fanno,1
far,1
favelle,1
fece,1
fele,1
felice,1
fenno,1
fiamme,1
fiera,1
figura,1
fin,1
fisse,1
fiume,1
foco,2
fora,1
fosse,1
fossi,1
fra,1
freghi,1
fretta,1
fu,2
fuggirsi,1
fui,2
fuor,1
fuoro,1
gambe,1
generata,1
gente,3
ghiotto,1
gioverà,1
giro,1
gita,1
gittato,1
gittò,1
giunti,1
giuro,1
giuso,2
già,1
giù,2
gradita,1
grado,1
grazia,1
grida,1
gridai,1
gridava,1
grosso,1
guadagni,1
guardar,1
guata,1
han,1
i,5
il,8
in,7
incese,1
insieme,1
inteser,1
intorno,1
inver’,1
io,2
isnelle,1
iti,1
i’,2
la,21
labbra,1
lato,1
le,9
letto,1
lettor,1
levante,1
levata,1
li,2
lo,5
loco,3
lonza,1
lor,7
loro,3
luca,1
lui,1
lunga,1
lungamente,1
lunge,1
luoghi,1
là,2
l’Alpe,1
l’abito,1
l’acqua,2
l’altre,1
l’altro,2
l’anima,1
l’antico,1
l’arnie,1
l’aspro,1
l’avrìa,1
l’ebbi,1
l’occhio,1
l’orecchia,1
l’orme,1
l’ovra,2
l’un,1
l’uno,1
l’uom,1
l’àncora,1
ma,5
maestro,2
maggior,1
mai,1
maravigliosa,1
mare,1
martiro,1
me,8
medesmo,1
meglio,1
membra,1
membri,1
men,1
menzogna,1
mi,8
mia,1
mille,1
mio,2
miran,1
miseria,1
moglie,1
mondo,1
m’avea,1
natura,1
ne,5
nel,3
nepote,1
ne’,1
noi,6
nol,1
nome,2
nomi,1
non,5
nostra,3
nostri,1
notando,1
note,1
novità,1
novo,1
nudi,1
nudo,1
nuoce,1
nuova,1
n’era,1
n’è,1
o,3
offesa,1
ogne,1
ombre,1
onde,1
onorati,1
ora,1
orgoglio,1
ove,1
parlar,1
parli,1
parole,2
partiro,1
partirsi,1
parve,1
passava,1
paura,1
pelle,1
pena,1
pensai,2
pensier,2
per,13
perch’,1
però,1
pestar,1
piaghe,1
piagni,1
piedi,1
pieghi,1
pioggia,1
piè,2
più,1
poco,3
poc’,1
pomi,1
porsila,1
posso,1
posta,1
posto,1
potuto,1
prava,1
prender,1
presa,1
presso,1
pria,1
prieghi,1
prima,2
promessi,1
proprio,1
punti,1
puote,1
pur,3
qual,2
quali,1
quando,3
quanto,1
quel,4
quelli,1
quell’,2
quell’acqua,1
questa,1
questo,1
qui,1
rattrappa,1
ravvolta,1
recetto,1
rena,1
rende,1
restammo,1
ricenti,1
rimbomba,1
rimbombo,1
rimembri,1
ripa,1
risonar,1
risponda’,1
risposta,1
rispuose,1
rispuoser,1
ritrassi,1
riveder,1
rombo,1
rota,2
rotando,1
rupper,1
saetta,1
sanza,1
sarei,2
saremmo,1
saria,1
satisfare,1
scesa,1
sciolta,1
scoglio,1
scovra,1
scuro,1
se,7
seconda’,1
segnor,1
seguiva,1
sembiar,1
sembri,1
sempre,1
senno,2
se’,1
si,11
sicuro,2
sien,2
siete,1
simile,1
sinistra,1
sofferto,1
sogliono,1
sogna,1
sollo,1
solver,1
son,1
sono,1
sotto,2
sovra,2
spada,1
spariti,1
sponda,1
stato,1
stelle,1
stende,1
stesse,1
sua,1
sue,1
suole,1
suon,1
suso,2
sé,1
sì,10
sù,2
sùbiti,1
s’attese,1
s’elle,1
s’udìa,1
tacer,1
tal,1
talora,1
tanta,1
tardi,1
te,4
ten,1
terra,2
ti,3
tinta,1
tinto,1
tomi,1
torma,1
torna,1
torni,1
tosto,3
tra,2
tre,2
trei,1
trita,1
trovammo,1
tu,4
tua,2
tue,1
tuo,3
tutta,2
tutti,2
tutto,2
uditi,1
una,4
unti,1
uomini,1
va,2
vacante,1
vada,1
valor,1
vantaggio,1
vecchie,1
vedi,1
veggion,1
venir,1
venisse,1
ver,4
verace,1
vergogna,1
verrà,1
verso,1
vicino,1
vidi,2
vinse,1
visaggio,1
viso,2
vita,1
vivi,1
vo,1
voce,1
voglia,1
voi,2
volse,2
volta,1
volte,1
vostra,2
vuole,1
vïaggio,1
vòte,1
è,3
‘,1
‘al,1
’l,7
’n,3
’nferno,1
’nfino,1
’nver’,1
