A,1
Ahi,1
Alessio,1
Anzi,1
Appresso,1
Assai,1
Attienti,1
Caccianemico,1
Colchi,1
Con,1
Così,1
Del,1
Di,1
E,6
Ed,2
Ello,1
Fa,1
Gerïon,1
Ghisolabella,1
Già,2
Guarda,1
Ho,1
Iasón,1
In,1
Interminei,1
Isifile,1
Ivi,1
I’,2
Lasciolla,1
Le,1
Lenno,1
Lo,1
Lucca,1
Luogo,1
Ma,1
Mal,1
Malebolge,1
Medea,1
Mentr’,1
Nel,2
O,1
Per,1
Perché,2
Pietro,1
Qua,1
Quale,1
Quando,1
Quei,1
Quel,1
Quelli,1
Quindi,1
Quivi,1
Reno,1
Roman,1
Santo,1
Sàvena,1
Taïde,1
Venedico,1
Via,1
a,19
ad,1
adunque,1
affissi,1
ai,1
al,3
allor,1
altra,1
altre,1
altri,3
altr’,1
anche,1
ancor,2
andati,1
andava,1
antico,1
anzi,1
apo,1
apprese,1
arco,1
argine,1
argini,1
asciutti,1
aspettava,1
aspetto,1
assai,1
assanna,1
assentio,1
attinghe,1
attuffata,1
avante,1
avaro,1
avea,1
banda,1
bassando,1
basta,1
basti,1
battendosi,1
battien,1
ben,2
berze,1
bolgia,2
bolognese,1
brutti,1
buon,1
calle,1
campo,1
capelli,1
capo,1
castelli,1
castello,1
celar,1
cerchia,1
cerchie,1
cerco,1
che,36
cherco,1
chi,1
chiara,1
ch’alquanto,1
ch’io,2
ch’ïo,1
ci,3
cinghio,1
cingon,1
ciò,2
coi,1
col,3
color,2
colpa,1
colto,1
colui,1
come,5
con,14
condanna,1
condussi,1
conio,1
cornuti,1
costui,1
così,1
credette,1
crudelmente,1
cui,1
cuore,1
cupo,1
da,9
dal,1
dar,1
da’,1
de,8
del,5
demon,1
demonio,1
destra,2
detto,1
di,21
dicer,1
dicerò,1
dico,1
dieci,1
dienno,1
dietro,2
digiuno,1
dimanda,1
dintorno,1
disse,5
dissi,2
distinto,1
divenimmo,1
dolce,1
dolor,1
dosso,1
dove,2
dov’,1
dritto,1
drudo,1
duca,3
dura,1
d’una,1
e,35
ebbi,1
el,1
elli,2
era,1
eran,1
erano,1
eravam,1
etterne,1
fa,4
faccia,2
facea,1
facean,2
false,1
fante,1
far,1
favella,1
fazion,1
fede,1
feggia,1
femmine,2
ferrigno,1
ferza,1
ferze,1
figura,1
figurarlo,1
fondo,3
fortezze,1
fossi,2
fosso,1
fronte,1
frustato,1
frustatori,1
fui,1
fummo,1
fuor,1
furo,1
féne,1
gente,3
gette,1
giovinetta,1
gissi,1
giubileo,1
già,2
giù,4
gordo,1
graffia,1
gran,1
grande,1
grandi,1
gravida,1
grazie,1
grommate,1
guardavam,1
guardia,1
ha,1
hanno,2
i,4
ignudi,1
il,5
imagine,1
imo,1
in,8
inferno,1
infino,1
inganna,1
ingannate,1
ingannò,1
insieme,1
io,6
la,26
lagrime,1
laico,1
largo,1
lato,1
le,9
leggeramente,1
levar,1
li,12
lingua,1
lingue,1
lo,8
loco,2
lor,2
lordo,1
loro,1
lui,3
luogo,2
lusinghe,1
là,7
l’,3
l’alito,1
l’alta,1
l’altra,2
l’anno,1
l’arco,1
l’ardite,1
l’essercito,1
l’isola,1
l’occhio,3
l’ordigno,1
l’un,1
l’unghie,1
ma,3
maestro,1
maggiori,1
mai,1
mal,1
maligno,1
man,1
maravigliose,1
marchese,1
martiro,1
maschi,1
me,2
meco,1
medesma,1
mena,1
mente,1
mentre,1
merda,1
merdose,1
mezzo,2
mi,6
mia,2
miei,1
modo,1
molto,1
mondo,1
montare,1
monte,1
monton,1
morte,1
mossi,1
mosso,1
movien,1
muffa,1
mura,1
muso,1
m’hanno,1
naso,1
nati,1
ne,1
nel,1
nessuno,1
nicchia,1
noi,4
non,10
nostre,1
nostro,1
nova,1
novella,1
novi,1
novo,1
né,1
n’è,1
o,2
occhi,2
ond’io,1
or,1
ora,2
ornate,1
ove,1
palme,1
par,1
parea,1
parlando,1
parole,1
parte,2
partimmo,1
parëa,1
passar,1
passi,2
passo,1
passò,1
peccatori,1
per,11
percosse,2
però,2
piango,1
picchia,1
piedi,2
pieno,1
pieta,1
pietra,1
pinghe,1
piè,1
più,6
pochi,1
poco,2
poeta,1
poi,1
ponte,2
ponticelli,1
porti,1
poscia,1
pozzo,3
prima,3
prime,1
privadi,1
privati,1
profondo,1
pungenti,1
pur,1
puttana,1
qua,2
quali,1
quando,1
quanto,1
quel,3
quella,1
quelle,1
quelli,1
quello,1
questo,3
quest’,1
qui,2
quinci,1
quindi,1
quivi,2
raccogli,1
raggiunsi,1
reale,1
rende,1
repleta,1
retro,1
ricidien,1
ricordo,1
riguardar,1
rimane,1
ripa,3
ripe,1
rispuose,1
ristette,1
ritene,1
roccia,1
ruffian,1
rècati,1
salimmo,1
salse,1
sanza,2
sapere,1
sasso,1
sazie,1
scaccia,1
scapigliata,1
scheggia,1
schiena,1
scogli,1
scoglio,2
sconcia,1
scontrati,1
scorta,1
scossi,1
scuffa,1
scurïada,1
se,3
seconde,1
secondo,1
segni,1
sen,1
senno,1
seno,1
sentimmo,1
se’,3
sferzati,1
sforzami,1
sgridò,1
si,5
sien,1
similmente,1
sinistra,1
sogli,1
soletta,1
sommerso,1
son,7
sotto,1
sovrasta,1
sovvenir,1
sozza,1
spalle,1
spanda,1
spietate,1
sponda,1
stante,1
sterco,1
stretto,1
stucca,1
su,3
sua,2
suo,2
suoni,1
sé,2
sì,6
s’accoscia,1
s’appasta,1
s’era,1
s’incrocicchia,1
tai,1
tal,3
tale,1
tante,1
tanto,1
te,2
tenne,1
terra,1
terze,1
testimonio,1
tetro,1
ti,1
tondo,1
tormento,1
tosto,1
tra,2
traccia,1
tronca,1
trovammoci,1
tu,3
tua,1
tutte,1
tutti,3
tutto,1
t’adocchio,1
t’ho,1
uman,1
un,5
uno,3
uscia,1
va,1
valle,1
valli,1
valse,1
vaneggia,2
vanno,2
vecchio,1
veder,2
vedesti,1
veduto,1
vendetta,1
vene,1
venien,1
venimmo,1
venìa,1
verso,4
vi,1
vidi,4
viso,3
viste,1
voglia,1
volentier,1
volge,1
volto,1
vuoi,1
vòlti,1
zucca,1
zuffa,1
è,6
‘sipa’,1
’,1
’l,9
’n,1
’ve,1
’v’,1
