e,36
che,32
in,16
di,16
a,14
non,14
per,14
come,14
la,13
si,12
da,11
lo,11
li,9
sì,8
corpo,8
più,8
ne,7
nel,7
il,6
de,6
del,6
sé,6
mi,5
’l,5
un,5
luce,5
esser,5
dal,5
raro,5
così,5
al,4
ciel,4
com’,4
se,4
lui,4
questo,4
tu,4
te,4
sua,4
suo,4
è,4
voi,3
me,3
ch’io,3
io,3
tanto,3
quanto,3
cui,3
sol,3
raggio,3
convien,3
ciò,3
qual,3
poi,3
ti,3
omai,3
ai,3
fanno,3
i,3
virtù,3
diverse,3
l’altro,3
dietro,2
mio,2
vi,2
forse,2
già,2
mai,2
quale,2
qui,2
ma,2
vien,2
La,2
quasi,2
però,2
quella,2
lieta,2
mente,2
Dio,2
disse,2
Per,2
una,2
ch’esser,2
natura,2
fia,2
primo,2
mondo,2
Ma,2
S’elli,2
d’i,2
vedi,2
quel,2
E,2
sù,2
vedrai,2
tuo,2
bene,2
dimostra,2
lumi,2
Se,2
denso,2
tutti,2
Virtù,2
fosse,2
o,2
parte,2
fora,2
lume,2
onde,2
retro,2
Or,2
lì,2
Da,2
specchi,2
fa,2
Lo,2
le,2
dentro,2
lor,2
grado,2
diversa,2
lega,2
essa,2
O,1
siete,1
piccioletta,1
barca,1
desiderosi,1
d’ascoltar,1
seguiti,1
legno,1
cantando,1
varca,1
tornate,1
riveder,1
vostri,1
liti,1
mettete,1
pelago,1
ché,1
perdendo,1
rimarreste,1
smarriti,1
L’acqua,1
prendo,1
corse,1
Minerva,1
spira,1
conducemi,1
Appollo,1
nove,1
Muse,1
dimostran,1
l’Orse,1
Voialtri,1
pochi,1
drizzaste,1
collo,1
tempo,1
pan,1
angeli,1
vivesi,1
sen,1
satollo,1
metter,1
potete,1
ben,1
l’alto,1
sale,1
vostro,1
navigio,1
servando,1
solco,1
dinanzi,1
l’acqua,1
ritorna,1
equale,1
Que’,1
glorïosi,1
passaro,1
Colco,1
s’ammiraron,1
farete,1
quando,1
Iasón,1
vider,1
fatto,1
bifolco,1
concreata,1
perpetüa,1
sete,1
deïforme,1
regno,1
cen,1
portava,1
veloci,1
vedete,1
Beatrice,1
suso,1
lei,1
guardava,1
quadrel,1
posa,1
vola,1
noce,1
dischiava,1
giunto,1
vidi,1
ove,1
mirabil,1
cosa,1
torse,1
viso,1
potea,1
mia,1
cura,1
essere,1
ascosa,1
volta,1
ver’,1
bella,1
Drizza,1
grata,1
n’ha,1
congiunti,1
con,1
prima,1
stella,1
Parev’,1
nube,1
coprisse,1
lucida,1
spessa,1
solida,1
pulita,1
adamante,1
ferisse,1
entro,1
l’etterna,1
margarita,1
ricevette,1
acqua,1
recepe,1
permanendo,1
unita,1
S’io,1
era,1
concepe,1
dimensione,1
altra,1
patio,1
repe,1
accender,1
dovria,1
disio,1
veder,1
essenza,1
vede,1
nostra,1
s’unio,1
Lì,1
vedrà,1
tenem,1
fede,1
dimostrato,1
noto,1
guisa,1
ver,1
l’uom,1
crede,1
Io,1
rispuosi,1
Madonna,1
devoto,1
posso,1
ringrazio,1
mortal,1
m’ha,1
remoto,1
ditemi,1
son,1
segni,1
bui,1
là,1
giuso,1
terra,1
fan,1
Cain,1
favoleggiare,1
altrui,1
Ella,1
sorrise,1
alquanto,1
erra,1
l’oppinïon,1
mortali,1
dove,1
chiave,1
senso,1
diserra,1
certo,1
dovrien,1
punger,1
strali,1
d’ammirazione,1
sensi,1
ragione,1
ha,1
corte,1
l’ali,1
dimmi,1
pensi,1
Ciò,1
n’appar,1
qua,1
diverso,1
credo,1
corpi,1
rari,1
densi,1
Ed,1
ella,1
Certo,1
assai,1
sommerso,1
falso,1
creder,1
ascolti,1
l’argomentar,1
farò,1
avverso,1
spera,1
ottava,1
molti,1
quali,1
notar,1
posson,1
diversi,1
volti,1
facesser,1
sola,1
sarebbe,1
men,1
distributa,1
altrettanto,1
convegnon,1
frutti,1
princìpi,1
formali,1
quei,1
for,1
ch’uno,1
seguiterieno,1
tua,1
ragion,1
distrutti,1
Ancor,1
bruno,1
cagion,1
dimandi,1
d’oltre,1
materia,1
digiuno,1
esto,1
pianeto,1
comparte,1
grasso,1
magro,1
volume,1
cangerebbe,1
carte,1
manifesto,1
l’eclissi,1
trasparere,1
altro,1
ingesto,1
Questo,1
vedere,1
s’elli,1
avvien,1
cassi,1
falsificato,1
parere,1
trapassi,1
conviene,1
termine,1
contrario,1
passar,1
lassi,1
indi,1
l’altrui,1
rifonde,1
color,1
torna,1
vetro,1
piombo,1
nasconde,1
dirai,1
ch’el,1
tetro,1
ivi,1
altre,1
parti,1
refratto,1
questa,1
instanza,1
può,1
deliberarti,1
esperïenza,1
provi,1
suol,1
fonte,1
rivi,1
vostr’,1
arti,1
Tre,1
prenderai,1
due,1
rimovi,1
d’un,1
modo,1
rimosso,1
tr’ambo,1
primi,1
occhi,1
tuoi,1
ritrovi,1
Rivolto,1
ad,1
essi,1
dopo,1
dosso,1
stea,1
tre,1
accenda,1
torni,1
ripercosso,1
Ben,1
stenda,1
vista,1
lontana,1
ch’igualmente,1
risplenda,1
colpi,1
caldi,1
rai,1
neve,1
riman,1
nudo,1
suggetto,1
colore,1
freddo,1
primai,1
rimaso,1
l’intelletto,1
voglio,1
informar,1
vivace,1
tremolerà,1
aspetto,1
Dentro,1
divina,1
pace,1
gira,1
virtute,1
l’esser,1
tutto,1
contento,1
giace,1
seguente,1
c’ha,1
tante,1
vedute,1
quell’,1
essenze,1
distratte,1
contenute,1
Li,1
altri,1
giron,1
varie,1
differenze,1
distinzion,1
hanno,1
dispongono,1
fini,1
semenze,1
Questi,1
organi,1
vanno,1
prendono,1
sotto,1
Riguarda,1
vado,1
loco,1
vero,1
disiri,1
sappi,1
tener,1
guado,1
moto,1
santi,1
giri,1
fabbro,1
l’arte,1
martello,1
da’,1
beati,1
motor,1
spiri,1
tanti,1
bello,1
profonda,1
volve,1
prende,1
l’image,1
fassene,1
suggello,1
l’alma,1
vostra,1
polve,1
differenti,1
membra,1
conformate,1
potenze,1
risolve,1
l’intelligenza,1
bontate,1
multiplicata,1
stelle,1
spiega,1
girando,1
sovra,1
unitate,1
col,1
prezïoso,1
ch’ella,1
avviva,1
vita,1
deriva,1
mista,1
letizia,1
pupilla,1
viva,1
par,1
differente,1
formal,1
principio,1
produce,1
conforme,1
bontà,1
turbo,1
chiaro,1
