che,43
e,32
a,25
di,24
non,20
la,19
si,15
in,15
per,13
’l,13
sì,13
de,12
se,10
più,9
con,8
io,8
del,8
il,8
lo,7
ne,7
li,7
suo,6
da,6
come,6
le,6
è,6
fu,6
quella,5
dentro,5
ma,5
luce,5
mente,4
parte,4
quel,4
sé,4
tanto,4
mondo,4
giù,4
ti,4
lume,4
ben,4
nel,3
l’altro,3
spira,3
lui,3
chi,3
mai,3
al,3
ciel,3
sù,3
ond’,3
era,3
Bëatrice,3
E,3
tutto,3
noi,3
voce,3
u’,3
l’uno,2
primo,2
ch’esser,2
sanza,2
ciò,2
vista,2
dritto,2
dove,2
l’un,2
l’arte,2
maestro,2
lei,2
l’occhio,2
Vedi,2
fosse,2
sarebbe,2
ogne,2
dal,2
assai,2
Or,2
tuo,2
dietro,2
te,2
ché,2
mia,2
son,2
Lo,2
natura,2
col,2
tempo,2
com’,2
esser,2
sol,2
chiami,2
veder,2
figlia,2
sua,2
grazia,2
Dio,2
quelle,2
mi,2
mio,2
amore,2
Io,2
far,2
così,2
fa,2
Ne,2
là,2
onde,2
su,2
sete,2
ch’al,2
vuo’,2
saper,2
questa,2
bella,2
santa,2
Questi,2
ed,2
vero,2
l’altra,2
essa,2
spirto,2
tin,2
nota,2
Guardando,1
Figlio,1
l’Amore,1
etternalmente,1
ineffabile,1
Valore,1
quanto,1
loco,1
gira,1
tant’,1
ordine,1
fé,1
puote,1
gustar,1
rimira,1
Leva,1
dunque,1
lettore,1
l’alte,1
rote,1
meco,1
moto,1
percuote,1
lì,1
comincia,1
vagheggiar,1
l’ama,1
indi,1
dirama,1
l’oblico,1
cerchio,1
i,1
pianeti,1
porta,1
sodisfare,1
chiama,1
Che,1
strada,1
lor,1
torta,1
molta,1
virtù,1
vano,1
quasi,1
potenza,1
qua,1
morta,1
o,1
men,1
lontano,1
partire,1
manco,1
l’ordine,1
mondano,1
riman,1
lettor,1
sovra,1
banco,1
pensando,1
preliba,1
s’esser,1
vuoi,1
lieto,1
prima,1
stanco,1
Messo,1
t’ho,1
innanzi,1
omai,1
ciba,1
torce,1
tutta,1
cura,1
materia,1
fatto,1
scriba,1
ministro,1
maggior,1
valor,1
imprenta,1
misura,1
rammenta,1
congiunto,1
girava,1
spire,1
tosto,1
ognora,1
s’appresenta,1
salire,1
m’accors’,1
uom,1
s’accorge,1
anzi,1
pensier,1
venire,1
È,1
scorge,1
bene,1
meglio,1
subitamente,1
l’atto,1
sporge,1
Quant’,1
convenia,1
lucente,1
ch’era,1
dov’,1
entra’mi,1
color,1
parvente,1
Perch’,1
’ngegno,1
l’uso,1
nol,1
direi,1
s’imaginasse,1
creder,1
puossi,1
brami,1
fantasie,1
nostre,1
basse,1
tanta,1
altezza,1
maraviglia,1
sopra,1
occhio,1
ch’andasse,1
Tal,1
quivi,1
quarta,1
famiglia,1
l’alto,1
Padre,1
sempre,1
sazia,1
mostrando,1
cominciò,1
Ringrazia,1
ringrazia,1
Sol,1
angeli,1
ch’a,1
questo,1
sensibil,1
t’ha,1
levato,1
Cor,1
mortal,1
digesto,1
divozione,1
rendersi,1
gradir,1
cotanto,1
presto,1
parole,1
fec’,1
mise,1
eclissò,1
l’oblio,1
Non,1
dispiacque,1
rise,1
splendor,1
occhi,1
suoi,1
ridenti,1
unita,1
cose,1
divise,1
vidi,1
folgór,1
vivi,1
vincenti,1
centro,1
corona,1
dolci,1
lucenti,1
cinger,1
Latona,1
vedem,1
talvolta,1
quando,1
l’aere,1
pregno,1
ritenga,1
fil,1
zona,1
corte,1
cielo,1
rivegno,1
trovan,1
molte,1
gioie,1
care,1
belle,1
posson,1
trar,1
regno,1
canto,1
quei,1
lumi,1
s’impenna,1
voli,1
muto,1
aspetti,1
quindi,1
novelle,1
Poi,1
cantando,1
quelli,1
ardenti,1
soli,1
fuor,1
girati,1
intorno,1
tre,1
volte,1
stelle,1
vicine,1
a’,1
fermi,1
poli,1
donne,1
parver,1
ballo,1
sciolte,1
s’arrestin,1
tacite,1
ascoltando,1
fin,1
nove,1
note,1
hanno,1
ricolte,1
senti’,1
cominciar,1
Quando,1
raggio,1
s’accende,1
verace,1
poi,1
cresce,1
amando,1
multiplicato,1
resplende,1
conduce,1
scala,1
risalir,1
nessun,1
discende,1
qual,1
negasse,1
vin,1
fiala,1
tua,1
libertà,1
fora,1
acqua,1
mar,1
cala,1
Tu,1
quai,1
piante,1
s’infiora,1
ghirlanda,1
’ntorno,1
vagheggia,1
donna,1
t’avvalora,1
fui,1
agni,1
greggia,1
Domenico,1
mena,1
cammino,1
s’impingua,1
vaneggia,1
m’è,1
destra,1
vicino,1
frate,1
fummi,1
esso,1
Alberto,1
Cologna,1
Thomas,1
d’Aquino,1
Se,1
tutti,1
altri,1
certo,1
retro,1
parlar,1
ten,1
vien,1
viso,1
girando,1
beato,1
serto,1
Quell’,1
altro,1
fiammeggiare,1
esce,1
riso,1
Grazïan,1
foro,1
aiutò,1
piace,1
paradiso,1
L’altro,1
ch’appresso,1
addorna,1
nostro,1
coro,1
Pietro,1
poverella,1
offerse,1
Santa,1
Chiesa,1
tesoro,1
La,1
quinta,1
ch’è,1
tra,1
tale,1
amor,1
gola,1
novella,1
entro,1
v’è,1
l’alta,1
profondo,1
saver,1
messo,1
surse,1
secondo,1
Appresso,1
vedi,1
cero,1
carne,1
vide,1
l’angelica,1
ministero,1
piccioletta,1
ride,1
quello,1
avvocato,1
de’,1
tempi,1
cristiani,1
cui,1
latino,1
Augustin,1
provide,1
tu,1
trani,1
mie,1
lode,1
già,1
l’ottava,1
rimani,1
Per,1
vedere,1
vi,1
gode,1
l’anima,1
fallace,1
manifesto,1
ode,1
corpo,1
ella,1
cacciata,1
giace,1
giuso,1
Cieldauro,1
martiro,1
essilio,1
venne,1
pace,1
oltre,1
fiammeggiar,1
l’ardente,1
spiro,1
d’Isidoro,1
Beda,1
Riccardo,1
considerar,1
viro,1
me,1
ritorna,1
riguardo,1
d’uno,1
’n,1
pensieri,1
gravi,1
morir,1
parve,1
venir,1
tardo,1
etterna,1
Sigieri,1
leggendo,1
Vico,1
Strami,1
silogizzò,1
invidïosi,1
veri,1
Indi,1
orologio,1
l’ora,1
sposa,1
surge,1
mattinar,1
sposo,1
perché,1
l’ami,1
l’una,1
tira,1
urge,1
sonando,1
dolce,1
disposto,1
d’amor,1
turge,1
vid’,1
ïo,1
gloriosa,1
rota,1
muoversi,1
render,1
tempra,1
dolcezza,1
pò,1
colà,1
gioir,1
s’insempra,1
