che,45
e,42
si,28
non,20
la,18
in,16
di,12
per,11
a,11
sì,10
de,9
da,9
li,8
è,8
con,8
tu,7
come,7
le,7
del,6
’l,6
tanto,6
nel,6
il,6
ma,5
suo,5
mondo,5
quel,4
quando,4
Non,4
sé,4
perché,4
ne,4
sanza,4
fu,4
questo,4
se,4
son,4
giù,4
essa,4
però,4
più,4
là,3
ogne,3
prima,3
né,3
lo,3
furon,3
mai,3
vi,3
al,3
lor,3
assai,3
Ma,3
ancor,3
sue,3
tanti,3
insieme,2
dal,2
punto,2
l’uno,2
l’altro,2
col,2
cominciò,2
bene,2
sua,2
tempo,2
altro,2
i,2
l’etterno,2
Né,2
ché,2
poscia,2
Dio,2
quest’,2
ad,2
tre,2
E,2
o,2
l’esser,2
tutto,2
sustanze,2
quelle,2
atto,2
pura,2
potenza,2
parte,2
tal,2
già,2
angeli,2
creati,2
vero,2
fatti,2
grazia,2
l’affetto,2
’n,2
terra,2
natura,2
cui,2
concetto,2
credendo,2
quanto,2
chi,2
Cristo,2
luce,2
tale,2
numero,2
Quando,1
ambedue,1
figli,1
Latona,1
coperti,1
Montone,1
Libra,1
fanno,1
l’orizzonte,1
zona,1
quant’,1
cenìt,1
inlibra,1
infin,1
cinto,1
cambiando,1
l’emisperio,1
dilibra,1
volto,1
riso,1
dipinto,1
tacque,1
Bëatrice,1
riguardando,1
fiso,1
m’avëa,1
vinto,1
Poi,1
Io,1
dico,1
dimando,1
vuoli,1
udir,1
perch’,1
io,1
l’ho,1
visto,1
’ve,1
s’appunta,1
ubi,1
aver,1
acquisto,1
ch’esser,1
può,1
splendore,1
potesse,1
risplendendo,1
dir,1
Subsisto,1
etternità,1
fore,1
fuor,1
d’ogne,1
comprender,1
piacque,1
s’aperse,1
nuovi,1
amor,1
amore,1
quasi,1
torpente,1
giacque,1
procedette,1
discorrer,1
sovra,1
acque,1
Forma,1
materia,1
congiunte,1
purette,1
usciro,1
esser,1
avia,1
fallo,1
d’arco,1
tricordo,1
saette,1
vetro,1
ambra,1
cristallo,1
raggio,1
resplende,1
venire,1
intervallo,1
così,1
triforme,1
effetto,1
sire,1
raggiò,1
distinzïone,1
essordire,1
Concreato,1
ordine,1
costrutto,1
cima,1
puro,1
produtto,1
tenne,1
ima,1
mezzo,1
strinse,1
vime,1
divima,1
Ieronimo,1
scrisse,1
lungo,1
tratto,1
secoli,1
anzi,1
fosse,1
fatto,1
scritto,1
molti,1
lati,1
scrittor,1
Spirito,1
Santo,1
te,1
n’avvedrai,1
agguati,1
anche,1
ragione,1
vede,1
alquanto,1
concederebbe,1
’,1
motori,1
perfezion,1
fosser,1
cotanto,1
Or,1
sai,1
dove,1
questi,1
amori,1
spenti,1
tuo,1
disïo,1
ardori,1
giugneriesi,1
numerando,1
venti,1
tosto,1
turbò,1
suggetto,1
d’i,1
vostri,1
alimenti,1
L’altra,1
rimase,1
arte,1
discerni,1
diletto,1
circüir,1
diparte,1
Principio,1
cader,1
maladetto,1
superbir,1
colui,1
vedesti,1
tutti,1
pesi,1
costretto,1
Quelli,1
vedi,1
qui,1
modesti,1
riconoscer,1
bontate,1
avea,1
intender,1
presti,1
viste,1
furo,1
essaltate,1
illuminante,1
merto,1
c’hanno,1
ferma,1
piena,1
volontate,1
voglio,1
dubbi,1
sia,1
certo,1
ricever,1
meritorio,1
secondo,1
l’è,1
aperto,1
Omai,1
dintorno,1
consistorio,1
puoi,1
contemplare,1
parole,1
mie,1
ricolte,1
sanz’,1
aiutorio,1
vostre,1
scole,1
legge,1
l’angelica,1
’ntende,1
ricorda,1
vole,1
dirò,1
veggi,1
verità,1
confonde,1
equivocando,1
fatta,1
lettura,1
Queste,1
poi,1
fur,1
gioconde,1
faccia,1
volser,1
viso,1
nulla,1
nasconde,1
hanno,1
vedere,1
interciso,1
novo,1
obietto,1
bisogna,1
rememorar,1
diviso,1
dormendo,1
sogna,1
dicer,1
colpa,1
vergogna,1
Voi,1
andate,1
un,1
sentiero,1
filosofando,1
trasporta,1
l’amor,1
l’apparenza,1
pensiero,1
qua,1
sù,1
comporta,1
men,1
disdegno,1
posposta,1
divina,1
Scrittura,1
torta,1
pensa,1
sangue,1
costa,1
seminarla,1
piace,1
umilmente,1
s’accosta,1
Per,1
apparer,1
ciascun,1
s’ingegna,1
face,1
invenzioni,1
trascorse,1
da’,1
predicanti,1
Vangelio,1
tace,1
Un,1
dice,1
luna,1
ritorse,1
passion,1
s’interpuose,1
lume,1
sol,1
porse,1
mente,1
nascose,1
Spani,1
l’Indi,1
a’,1
Giudei,1
eclissi,1
rispuose,1
ha,1
Fiorenza,1
Lapi,1
Bindi,1
quante,1
fatte,1
favole,1
anno,1
pergamo,1
gridan,1
quinci,1
quindi,1
pecorelle,1
sanno,1
tornan,1
pasco,1
pasciute,1
vento,1
scusa,1
veder,1
danno,1
disse,1
primo,1
convento,1
‘Andate,1
predicate,1
ciance’,1
diede,1
verace,1
fondamento,1
sonò,1
guance,1
ch’a,1
pugnar,1
accender,1
fede,1
l’Evangelio,1
fero,1
scudo,1
lance,1
Ora,1
va,1
motti,1
iscede,1
predicare,1
pur,1
ben,1
rida,1
gonfia,1
cappuccio,1
richiede,1
uccel,1
becchetto,1
s’annida,1
vulgo,1
vedesse,1
vederebbe,1
perdonanza,1
ch’el,1
confida,1
tanta,1
stoltezza,1
crebbe,1
prova,1
d’alcun,1
testimonio,1
promession,1
correrebbe,1
Di,1
ingrassa,1
porco,1
sant’,1
Antonio,1
altri,1
sono,1
porci,1
pagando,1
moneta,1
conio,1
siam,1
digressi,1
ritorci,1
occhi,1
oramai,1
verso,1
dritta,1
strada,1
via,1
raccorci,1
Questa,1
oltre,1
s’ingrada,1
loquela,1
mortal,1
vada,1
guardi,1
revela,1
Danïel,1
vedrai,1
migliaia,1
determinato,1
cela,1
La,1
tutta,1
raia,1
modi,1
recepe,1
quanti,1
splendori,1
s’appaia,1
Onde,1
l’atto,1
concepe,1
segue,1
d’amar,1
dolcezza,1
diversamente,1
ferve,1
tepe,1
Vedi,1
l’eccelso,1
omai,1
larghezza,1
valor,1
speculi,1
s’ha,1
spezza,1
uno,1
manendo,1
davanti,1
