che,42
e,33
la,20
per,19
a,18
di,15
in,13
da,13
si,12
è,12
non,11
tanto,11
più,10
te,10
’l,9
io,9
mia,8
li,7
ch’i’,7
mio,6
come,6
del,5
sì,5
lo,5
questo,5
ma,5
al,5
de,5
le,5
ciò,5
lume,5
tal,5
luce,5
il,5
un,5
se’,4
suo,4
sua,4
ne,4
qual,4
tua,4
occhi,4
veder,4
miei,4
prieghi,4
ti,4
me,4
vista,4
mente,4
mi,4
quel,4
ch’io,4
creatura,3
tu,3
grazia,3
una,3
possa,3
con,3
perché,3
i,3
nel,3
era,3
ché,3
vidi,3
quella,3
lei,3
tutto,3
sola,3
tuo,2
Nel,2
così,2
mortali,2
vuol,2
La,2
pur,2
questi,2
l’universo,2
qui,2
ad,2
E,2
mai,2
priego,2
dopo,2
quanto,2
son,2
già,2
stesso,2
raggio,2
l’alta,2
sé,2
quinci,2
fu,2
cede,2
memoria,2
Qual,2
l’altro,2
cotal,2
quasi,2
tutta,2
ancor,2
Così,2
sol,2
levi,2
O,2
poco,2
lingua,2
alquanto,2
credo,2
vivo,2
se,2
Oh,2
ond’,2
viso,2
etterna,2
vi,2
semplice,2
mirava,2
sempre,2
A,2
ch’è,2
tre,2
iri,2
parea,2
reflesso,2
cerchio,2
Vergine,1
Madre,1
figlia,1
figlio,1
umile,1
alta,1
termine,1
fisso,1
d’etterno,1
consiglio,1
colei,1
l’umana,1
natura,1
nobilitasti,1
fattore,1
disdegnò,1
farsi,1
fattura,1
ventre,1
raccese,1
l’amore,1
cui,1
caldo,1
l’etterna,1
pace,1
germinato,1
fiore,1
Qui,1
noi,1
meridïana,1
face,1
caritate,1
giuso,1
intra,1
’,1
speranza,1
fontana,1
vivace,1
Donna,1
grande,1
vali,1
ricorre,1
disïanza,1
volar,1
sanz’,1
ali,1
benignità,1
soccorre,1
chi,1
domanda,1
molte,1
fïate,1
liberamente,1
dimandar,1
precorre,1
In,1
misericordia,1
pietate,1
magnificenza,1
s’aduna,1
quantunque,1
bontate,1
Or,1
l’infima,1
lacuna,1
infin,1
ha,1
vedute,1
vite,1
spiritali,1
supplica,1
virtute,1
levarsi,1
alto,1
verso,1
l’ultima,1
salute,1
arsi,1
fo,1
tutti,1
porgo,1
sieno,1
scarsi,1
ogne,1
nube,1
disleghi,1
mortalità,1
co’,1
tuoi,1
sommo,1
piacer,1
dispieghi,1
Ancor,1
regina,1
puoi,1
vuoli,1
conservi,1
sani,1
affetti,1
suoi,1
Vinca,1
guardia,1
movimenti,1
umani,1
vedi,1
Beatrice,1
quanti,1
beati,1
chiudon,1
mani,1
Li,1
Dio,1
diletti,1
venerati,1
fissi,1
l’orator,1
dimostraro,1
devoti,1
grati,1
indi,1
l’etterno,1
s’addrizzaro,1
dee,1
creder,1
s’invii,1
l’occhio,1
chiaro,1
ch’al,1
fine,1
tutt’,1
disii,1
appropinquava,1
com’,1
dovea,1
l’ardor,1
desiderio,1
finii,1
Bernardo,1
m’accennava,1
sorridea,1
perch’,1
guardassi,1
suso,1
ei,1
volea,1
venendo,1
sincera,1
intrava,1
vera,1
Da,1
innanzi,1
maggio,1
parlar,1
mostra,1
ch’a,1
oltraggio,1
colüi,1
sognando,1
vede,1
sogno,1
passione,1
impressa,1
rimane,1
riede,1
cessa,1
visïone,1
distilla,1
core,1
dolce,1
nacque,1
essa,1
neve,1
disigilla,1
vento,1
foglie,1
perdea,1
sentenza,1
Sibilla,1
somma,1
da’,1
concetti,1
ripresta,1
parevi,1
fa,1
possente,1
ch’una,1
favilla,1
gloria,1
lasciare,1
futura,1
gente,1
tornare,1
sonare,1
versi,1
conceperà,1
vittoria,1
Io,1
l’acume,1
soffersi,1
sarei,1
smarrito,1
lui,1
fossero,1
aversi,1
E’,1
ricorda,1
fui,1
ardito,1
sostener,1
giunsi,1
l’aspetto,1
col,1
valore,1
infinito,1
abbondante,1
presunsi,1
ficcar,1
veduta,1
consunsi,1
profondo,1
s’interna,1
legato,1
amore,1
volume,1
squaderna,1
sustanze,1
accidenti,1
lor,1
costume,1
conflati,1
insieme,1
modo,1
dico,1
forma,1
universal,1
nodo,1
largo,1
dicendo,1
sento,1
godo,1
Un,1
punto,1
solo,1
m’è,1
maggior,1
letargo,1
venticinque,1
secoli,1
’mpresa,1
fé,1
Nettuno,1
ammirar,1
l’ombra,1
d’Argo,1
sospesa,1
fissa,1
immobile,1
attenta,1
mirar,1
faceasi,1
accesa,1
diventa,1
volgersi,1
altro,1
aspetto,1
impossibil,1
consenta,1
però,1
ben,1
volere,1
obietto,1
s’accoglie,1
fuor,1
defettivo,1
lì,1
perfetto,1
Omai,1
sarà,1
corta,1
favella,1
ricordo,1
d’un,1
fante,1
bagni,1
mammella,1
Non,1
ch’un,1
sembiante,1
fosse,1
s’era,1
davante,1
s’avvalorava,1
guardando,1
parvenza,1
mutandom’,1
travagliava,1
Ne,1
profonda,1
chiara,1
sussistenza,1
l’alto,1
parvermi,1
giri,1
colori,1
d’una,1
contenenza,1
l’un,1
terzo,1
foco,1
quindi,1
igualmente,1
spiri,1
corto,1
dire,1
fioco,1
concetto,1
basta,1
dicer,1
‘poco’,1
sidi,1
t’intendi,1
intelletta,1
intendente,1
ami,1
arridi,1
Quella,1
circulazion,1
concetta,1
pareva,1
circunspetta,1
dentro,1
colore,1
parve,1
pinta,1
nostra,1
effige,1
messo,1
geomètra,1
s’affige,1
misurar,1
ritrova,1
pensando,1
principio,1
elli,1
indige,1
nova,1
voleva,1
convenne,1
l’imago,1
s’indova,1
eran,1
proprie,1
penne,1
percossa,1
fulgore,1
voglia,1
venne,1
fantasia,1
mancò,1
volgeva,1
disio,1
velle,1
rota,1
ch’igualmente,1
mossa,1
l’amor,1
move,1
sole,1
l’altre,1
stelle,1
