A,1
Acheronte,1
Aegypto’,1
Aurora,1
Bilance,1
Capricorno,1
Casella,1
Che,1
Come,1
Correte,1
Così,1
Da,2
Dal,1
Di,1
Dianzi,1
Dio,2
Ecco,1
Ed,2
Fa,1
Gange,1
Già,1
Ierusalèm,1
Io,1
Isräel,1
La,1
Lo,2
L’anime,1
Marte,1
Nessun,1
Noi,2
Ohi,1
Ond’,1
Poi,3
Rispuosemi,1
Se,2
Soavemente,1
Tevero,1
Vedi,2
Virgilio,1
Voi,1
abbian,1
abbracciarmi,1
accorte,1
ad,2
adunati,1
affannata,1
affetto,1
ali,1
allor,3
alquanto,1
alto,1
altra,2
altro,3
alzò,1
ancor,4
ancora,1
anime,1
appare,1
appariva,1
apparver,1
argomenti,1
aspra,1
assaggia,1
assaliti,1
attenti,1
avante,1
avvinsi,1
beato,1
bella,1
belle,1
ben,1
benignamente,1
biado,1
bianche,1
bianchi,1
bianco,1
cacciato,1
caggion,1
cala,1
calcar,1
cali,1
cammino,1
cantavan,1
canto,2
celestial,1
cento,1
cerchia,1
cerchio,1
chi,2
chiaro,1
chinail,1
ché,1
ch’avea,1
ch’era,1
ch’eran,1
ch’esser,1
ch’io,1
ciel,1
cielo,1
ciò,2
cogliendo,1
col,3
colombi,1
colui,1
cominciò,1
com’,4
conobbe,1
conobbi,1
consolare,1
conte,1
contenti,1
corpo,2
cosa,1
cose,1
costa,1
così,3
cotal,1
coverchia,1
credete,1
credo,1
croce,1
cui,2
cuore,1
cura,1
dal,1
dentro,1
descripto,1
dicendo,1
dietro,1
dimora,1
dipinsi,1
disse,1
diss’,1
divenivan,1
diventaro,1
divino,1
doglie,1
dolcemente,1
dolcezza,1
domandar,1
dove,2
dov’,2
dritta,1
dritte,1
duca,1
d’esto,1
d’ire,1
d’ogne,1
ebbi,1
ecco,2
ed,2
ei,1
el,1
elli,5
entro,1
eravam,2
esperti,1
esse,1
esso,1
esto,1
etate,1
exitu,1
fa,1
face,1
facea,1
far,1
faria,1
farsi,1
fatti,1
fatto,2
fece,1
fissi,1
fo,1
foce,1
forse,1
forte,1
fortunate,1
fresca,1
fronte,1
fu,2
fuggir,1
fuor,3
fu’,1
galeotto,1
gente,4
ginocchia,1
gioco,1
giorno,1
gire,1
gittar,1
giunto,1
giuso,1
giusto,1
giù,1
grande,1
gridando,1
gridò,1
grossi,1
guance,1
gì,1
ha,4
innanzi,1
insieme,1
intorno,1
intrar,1
io,11
i’,1
lascia,1
lasciano,1
lasciar,1
lato,1
legge,1
leggero,1
lei,2
lenti,1
leva,1
liti,1
loco,2
loglio,1
lontani,1
lor,2
lucente,1
lui,4
lume,1
lunghesso,1
lì,1
l’acqua,2
l’aere,1
l’ala,1
l’ali,1
l’amoroso,1
l’angel,1
l’anima,1
l’aspetto,1
l’esca,1
l’etterne,1
l’ha,1
l’occhio,2
l’ombra,1
l’orizzonte,1
l’uccel,1
l’usato,1
maestro,2
maggior,2
man,1
mani,2
manifesto,1
mar,1
maraviglia,1
maravigliando,1
mare,1
marina,1
marino,1
masnada,1
mattino,1
me,3
memoria,1
men,1
mente,2
mentre,1
meridïan,1
mesi,1
messagger,1
mezzo,1
mia,1
mie,1
mio,5
monte,2
mortal,2
mosse,1
mostra,1
mostrar,1
mostratene,1
motto,1
muover,1
mutan,1
m’,1
m’appario,1
m’apparve,1
m’arresto,1
m’è,1
ne,4
negato,1
negligenza,1
nessun,3
nocchiero,1
noi,4
nol,1
non,7
nostra,1
note,1
notte,1
nova,1
nove,1
novelle,1
nulla,1
nuova,1
né,3
o,2
oblïando,1
officiali,1
oltraggio,1
oltre,1
om,1
omai,2
ombre,1
ond’,2
onesto,1
opposita,1
or,1
ora,2
orgoglio,1
pace,1
parea,1
pareggia,1
parevan,1
parlarmi,1
parrà,1
parti,1
partita,1
passaggio,1
pastura,1
paura,1
pelo,1
penne,1
pensa,1
perch’,1
peregrin,1
persona,1
però,2
petto,1
piaccia,1
piace,1
piaggia,1
piega,1
pinsi,1
più,7
poco,5
ponente,1
poppa,1
porta,1
posasse,1
poscia,1
pregai,1
presso,1
primi,1
punto,1
pur,1
quale,1
quando,4
quante,1
quanto,1
quasi,1
quei,2
quelle,1
questo,2
quetar,1
queti,1
qui,1
quivi,1
ragiona’,1
rance,1
ratto,1
remo,1
ricoglie,1
ricolto,1
rimase,1
rimirando,1
rispuose,1
ritrasse,1
ritratto,1
riva,1
rividil,1
rosseggia,1
rïesca,1
sa,1
saettava,1
saette,1
salire,1
salmo,1
santa,1
sanza,1
sapete,1
sapeva,1
schivo,1
sciolta,1
scoglio,1
scripto,1
sdegna,1
se,2
sediero,1
segno,1
seguendo,1
selvaggia,1
sempre,1
sen,2
siam,1
siamo,1
siete,1
smorte,1
snelletto,1
sol,1
sole,1
solea,1
somigliante,1
son,2
sorpreso,1
sorrise,1
sostenne,1
sotto,1
soverchia,1
sovra,1
spirare,1
spiriti,1
spirti,1
spogliarvi,1
star,1
stare,1
stava,1
su,1
subitamente,1
sue,2
suo,4
suol,1
suona,1
s’,1
s’affisar,1
s’arrestasse,1
s’insala,1
tal,1
tanta,1
tante,1
te,1
toccasse,1
toglie,1
tolta,1
tolto,1
tornai,1
tornar,1
tosta,1
tra,1
tragge,1
trarresi,1
trattando,1
tre,2
troppa,1
turba,1
tutta,1
tutte,3
tutti,3
t’amai,1
t’amo,1
udir,1
ulivo,1
umani,1
uscia,1
uscìo,1
uso,1
va,2
vai,1
vane,1
vapor,1
vasello,1
vedrai,1
veggia,1
veglio,1
velo,1
veloce,1
venendo,1
venimmo,1
venir,1
venne,3
veramente,1
vermiglie,1
verso,3
ver’,2
via,2
vidi,1
vid’,1
viso,1
vivo,1
voce,1
voi,4
volar,1
voler,1
volta,1
volte,2
voluto,1
vuol,1
vïaggio,1
vòlto,1
‘Amor,1
‘In,1
‘nghiottiva,1
