Antenori,1
Apennino,1
Ben,1
Bonconte,1
Campaldino,1
Carlo,1
Casentino,1
Che,1
Ciascun,1
Corsi,1
Deh,2
Di,1
Dio,2
Dissilo,1
Esti,1
Fano,1
Giovanna,1
Giunse,1
Guarda,1
Indi,1
Io,4
Li,1
Lo,1
Là,1
Ma,1
Maremma,1
Maria,1
Mira,1
Montefeltro,1
Noi,1
O,2
Oh,1
Ond’,1
Orïaco,1
Perché,2
Pia,1
Poi,1
Pratomagno,1
Qual,1
Quando,1
Questa,1
Quindi,1
Quivi,1
Romagna,1
Se,1
Siena,1
Tu,1
Vapori,1
Ve’,1
Vien,1
Voi,1
accesi,1
accorti,1
acqua,2
ad,1
aere,1
ai,1
aiuta,1
alcun,1
allenti,1
alquanto,1
altri,3
altro,2
ancor,1
andando,1
andarne,1
anima,1
arriva’,1
ascolta,1
assai,2
avviso,1
a’,2
bassa,1
ben,2
beneficio,1
braco,1
buona,1
cadde,1
caddi,2
calando,1
cannucce,1
cantando,1
canto,1
carne,2
caro,1
cercar,1
chiede,1
ché,1
ch’era,1
ch’io,2
ciel,3
cima,1
cinse,1
ciò,2
coglie,1
color,3
colui,1
compia,1
com’,1
condizion,1
conduca,1
consperso,1
convenne,1
converse,1
coperse,2
corpo,3
corsero,1
cortese,1
cosa,1
costa,1
costor,1
costui,2
credea,1
croce,1
crolla,1
cui,1
cura,1
c’ha,1
dava,1
degno,1
deh,2
diede,1
dietro,2
dilunga,1
dimandarne,1
dir,1
dire,1
dirò,1
disfecemi,1
disio,2
disposando,1
disse,3
dite,1
dito,1
diventa,1
dolor,1
dove,2
dov’,1
dritto,1
drizzando,1
duca,1
due,1
dì,1
d’agosto,1
d’i,1
d’inferno,1
ed,1
elli,1
esser,2
essere,1
fa,2
face,1
far,1
farsi,1
farò,2
fatene,1
fatta,1
fatti,1
fece,2
fender,1
ferma,1
fe’,1
fida,1
fini’,1
fiume,1
foce,1
foga,1
fondo,1
fora,1
forato,1
forma,1
forza,2
fossati,1
fosse,1
freddo,1
freno,1
fronte,1
fu,1
fuggendo,1
fuggito,1
fui,1
fummo,2
fuor,1
fuoro,1
fu’,2
fàccianli,1
fé,2
fóri,1
gelato,1
gemma,1
gente,1
genti,2
giogo,1
giunti,1
giurarlo,1
gola,1
governo,1
gran,1
grandi,1
gravi,1
grembo,1
gridando,1
gridava,1
gridò,1
guardar,1
guati,1
guida,1
ha,1
incominciò,1
incontr’,1
infino,1
innanzi,2
insolla,1
intento,1
inver’,1
io,14
ira,1
laco,1
lagrimetta,1
lascia,1
lei,1
lieta,1
loco,1
lor,3
loro,1
luca,1
lui,2
lume,2
lunga,1
lungo,1
lì,1
l’Archian,1
l’Archiano,1
l’Arno,1
l’Ermo,1
l’aere,1
l’alto,1
l’altro,2
l’andare,1
l’angel,1
l’animo,1
l’etterno,1
l’omo,1
l’orme,1
l’ultima,1
l’un,1
l’uom,1
maestro,2
mai,4
mal,2
mandaro,1
maraviglia,1
me,8
membra,1
meno,1
messaggi,1
mia,1
mie,1
mio,6
molta,1
mondo,3
monte,1
morti,1
mosse,1
motto,1
mutar,1
m’avea,2
m’impigliar,1
nasce,1
nascesti,1
nati,1
natura,1
ne,5
nebbia,1
ne’,1
noi,5
nome,2
non,13
nonpossa,1
notte,1
novella,1
nulla,1
nuvole,1
né,1
n’accora,1
o,2
occhi,1
offese,1
oh,1
ombra,1
ombre,1
ond’,1
onore,1
ora,1
pace,1
pacificati,1
paese,1
palude,1
par,2
parlo,1
parola,1
partito,1
passo,1
peccatori,1
pensier,2
pentendo,1
perdei,1
perdon,1
perdonando,1
però,1
petto,1
piace,1
piano,1
piede,1
piedi,1
pioggia,1
pispiglia,1
piè,1
più,2
poco,2
poeta,1
porti,2
possa,2
potea,1
potete,1
preda,1
pregar,1
pregno,1
preme,1
prese,1
pria,1
prieghi,1
priego,1
prima,1
privi,1
profondi,1
pur,6
purgar,1
può,1
pïetate,1
quai,1
quale,1
quando,4
quelle,1
quell’,2
questo,1
queta,1
quivi,3
raccoglie,1
raggi,1
raggio,1
rampolla,1
real,1
restaro,1
retro,1
ricida,1
riconosco,1
ricorditi,1
ridir,1
ridì,1
riede,1
rimase,1
ripe,1
riposato,1
risposto,1
rispuos’,1
ritenne,1
ritrarre,1
rivi,1
rivolsi,1
roco,1
rotto,1
rubesto,1
ruinò,1
saggi,1
sai,1
sale,1
salsi,1
sangue,1
sanguinando,1
sanza,2
sarai,1
sarei,1
schiera,1
sciolse,1
scorre,1
se,3
secondo,1
sedea,1
segno,1
seguitava,1
seguitò,1
sempre,1
seppe,1
sepultura,1
sereno,1
sicuro,1
sie,1
siede,1
sinistra,1
sofferse,1
soffiar,1
sol,1
sola,1
solo,1
son,2
sopra,1
sospinse,1
sotto,1
sovra,2
sovragiunto,1
spento,1
spira,1
spiriti,1
spirito,1
sta,1
su,1
sul,1
suo,1
suon,1
suso,1
sé,2
s’a,1
s’accorser,1
s’adori,1
s’alcun,1
s’impiglia,1
s’io,1
talvolta,1
te,1
terra,2
terzo,1
toglie,1
tornasser,1
tornato,1
torre,1
tosto,2
tra,3
tragge,1
trapassar,1
traversa,1
traverso,1
travïò,1
trovò,1
tua,1
tuo,2
tuoi,1
tutti,1
t’arresti,1
umido,1
uno,1
unqua,1
un’acqua,1
uscimmo,1
uscì,1
va,1
vai,2
valle,1
vano,1
vapor,1
veder,2
vedesti,1
vedi,1
vegno,1
vegnonti,1
veloce,1
vene,1
venian,1
venivan,1
venne,1
venti,1
vento,1
ventura,1
vera,1
vero,1
verso,2
ver’,1
vi,1
via,1
vidile,1
vid’,2
vinse,1
virtù,1
visi,1
vista,1
vita,1
vivi,1
vivo,1
vo,1
vocabol,1
voi,2
volea,1
voler,2
volta,1
voltòmmi,1
vostra,1
vostri,1
‘Miserere’,1
’,1
’nnanellata,1
’ntanto,1
’ntelletto,1
’ve,1
