Ahi,2
Alberto,1
Atene,1
Beatrice,1
Brabante,1
Broccia,1
Cappelletti,1
Cerca,1
Cesare,2
Che,1
Ché,1
Ch’avete,1
Come,1
Dio,2
Ed,1
El,1
Ella,1
Federigo,1
Filippeschi,1
Fiorenza,1
Ghin,1
Giove,1
Italia,2
Iustinïano,1
I’,1
La,1
Lacedemona,1
Ma,1
Mantoano,1
Mantüa,1
Marcel,1
Marzucco,1
Molti,2
Monaldi,1
Montecchi,1
Noi,1
Non,1
Novello,1
O,3
Or,1
Orso,1
Pier,1
Pisa,1
Prima,1
Pur,1
Quando,1
Quante,1
Quell’,1
Quivi,1
Quiv’,1
Roma,1
Santafior,1
Sanz’,1
Segnore,1
Sordello,1
S’io,1
Tacco,1
Tal,1
Venimmo,1
Veramente,1
Vidi,1
Vien,1
Vieni,3
Virgilio,1
abbracciava,1
alcun,2
alcuna,1
altera,1
alto,1
altrove,1
anderem,1
andiamo,1
anima,2
aperto,1
arcioni,1
argomenta,1
astio,1
ben,5
bene,3
bocca,1
bordello,1
braccia,1
buon,1
caccia,1
caggia,1
calca,1
cenno,1
chi,1
chiama,1
chiamare,1
ché,3
ch’a,1
ch’abbandoni,1
ch’altri,1
ch’annegò,1
ch’un,1
ch’è,1
ci,2
cielo,1
cima,1
cittadin,1
città,1
civili,1
ciò,2
color,1
colpa,1
colui,2
cominciai,1
commisa,1
compia,1
comune,1
com’,2
consiglio,2
conte,1
contenta,1
corpo,1
correndo,1
corretta,1
cosa,1
costa,1
costei,1
costor,1
costume,1
costà,1
così,3
cotesto,1
crucifisso,1
crudel,1
cui,1
cuopre,1
cuore,1
cupidigia,1
cura,2
dal,1
dallato,1
dar,1
decreto,1
detto,1
devota,1
de’,1
dianzi,1
dice,1
dicea,1
dicendo,1
dico,3
dicëa,1
dietro,1
difende,1
difetto,1
digression,1
dimando,1
dinanzi,1
disdegnosa,1
diserto,1
disgiunto,1
distretti,1
divenir,1
diventa,1
divisa,1
dolce,2
dolente,1
dolore,2
donna,2
dovresti,2
dov’,1
duca,1
dunque,1
dì,1
d’,1
d’altra,1
d’amor,1
d’i,1
d’ottobre,1
ebbe,1
el,1
elli,1
espresso,1
essa,1
esser,3
esso,1
esta,1
e’,1
fa,2
faccia,1
fai,3
falla,1
fama,1
fare,1
fatta,2
fatto,1
fecero,1
felice,1
fella,1
fenno,1
fermai,1
fermar,1
festa,1
fia,1
fiera,1
fiere,1
fili,1
foco,1
fora,1
forma,1
forte,1
fossa,1
fosti,1
freno,1
fretta,1
fu,1
fui,1
furon,1
fé,1
gente,4
gentil,1
gentili,1
getta,1
giardin,1
gioco,1
giorno,1
gir,1
giudicio,2
giugne,1
giusti,1
giustizia,1
giusto,1
gode,1
gran,1
greggia,1
grida,1
guarda,3
guerra,1
guisa,1
hai,2
han,1
impara,1
incarco,1
incominciava,1
indomita,1
inferma,1
inforcar,1
innanzi,1
intende,1
intendi,1
intorno,1
inveggia,1
inverso,1
io,6
lasciar,1
lasciavane,1
legge,1
leggi,1
lei,2
leon,1
libero,1
licito,1
lieta,1
loco,1
lombarda,1
lor,2
loro,2
luce,1
lui,1
lume,2
l’Aretin,1
l’abisso,1
l’accorger,1
l’altro,4
l’anima,1
l’antiche,1
l’arco,1
l’effetto,1
l’ha,1
l’ombra,2
l’un,2
magagne,1
maggior,1
man,1
mani,1
manifesto,1
mano,1
marine,1
me,1
membre,1
meno,1
mente,2
mentr’,1
mercé,1
mezzo,1
mia,3
miglior,1
mio,1
misera,1
moneta,1
monte,1
morte,1
mostrasse,1
move,1
mover,1
muro,1
mutato,1
m’accompagne,1
m’affatico,1
m’è,2
nasconde,1
nave,1
ne,4
nieghi,1
nocchiere,1
noi,3
nol,2
non,22
nostro,2
nota,1
notte,1
novembre,1
novo,1
nulla,1
n’aggia,1
o,4
occhi,2
officio,1
ogne,1
omai,2
ombre,1
onde,1
onesta,1
ora,1
orazion,1
oscura,1
ostello,1
ove,1
pace,2
padre,1
paese,1
par,1
parer,1
parte,2
parteggiando,1
peggior,1
perde,1
però,1
piagne,1
piana,1
picciol,1
pieghi,1
piene,1
pietà,1
piume,1
più,3
poggio,1
ponesti,1
popol,3
porge,1
posa,2
posta,1
potremo,1
predella,1
prega,1
pregando,1
pregar,2
pregava,1
prende,1
preparazion,1
pressa,1
pressura,1
presta,1
pria,1
prieghi,1
priego,1
prode,1
promettendo,1
provedimenti,1
proveggia,1
province,1
punto,2
puoi,1
pur,2
può,1
qua,2
quando,1
quante,1
quanto,2
quei,1
quello,1
quell’,1
questa,2
questi,1
questo,4
qui,2
quivi,1
racconciasse,1
raggi,1
reca,1
repetendo,1
ricca,1
ricordi,1
ridere,1
rifiutan,1
riguarda,1
riman,1
rimembre,1
rinovate,1
risponde,1
rispuose,2
rivolti,1
rode,1
romita,1
romper,1
salita,1
sana,1
sangue,1
sante,1
sanza,5
sarebbe,1
scherma,1
sciogliea,1
scisso,1
scocca,1
scrittura,1
se,9
seder,1
sella,2
selvaggia,1
senno,1
seno,1
serra,1
serva,1
sguardando,1
sia,3
sie,1
so,1
sobbarco,1
sodisfar,1
sofferto,1
sol,1
sola,2
soletta,1
solicito,1
solo,1
somigliante,1
sommo,2
son,3
sopra,1
sospetti,1
sospetto,1
sottili,1
sovra,1
speme,1
speranza,1
spessa,1
sporte,1
sproni,1
stanno,1
stanzi,1
stava,1
stavi,1
stelle,1
su,2
successor,1
suo,4
suoi,2
suon,1
surse,1
sé,1
sù,1
s’alcuna,1
s’ama,1
s’ammendava,1
s’arresta,1
s’astalla,1
s’avacci,1
s’avvalla,1
tal,1
tarda,1
tardi,1
te,4
tedesco,1
temenza,1
tempesta,1
tempo,1
terra,3
testo,1
tiranni,1
tocca,1
tornar,1
tosta,1
tra,1
trasse,1
tristi,1
tristo,1
trovar,1
tua,3
tue,1
tuo,8
tuoi,3
turba,1
tutta,2
tutte,2
tutto,1
un’anima,1
uom,1
va,2
val,1
vana,1
veder,3
vedi,4
vedova,1
vedrai,4
venir,1
ver,1
vergogna,1
vergognar,1
vero,1
verso,1
ver’,1
vetta,1
via,1
vien,1
viene,1
vieni,1
villan,1
vita,1
viver,1
vivi,1
volgendo,1
volta,1
volte,2
vòta,1
zara,1
’,1
’mperio,1
’nchiese,1
’nsegnerà,1
’ntelletto,1
’ntendi,1
