Achille,1
Al,1
Cloto,1
Come,1
Cosa,1
Così,1
Cristo,1
De,1
Dio,2
Ed,2
Forse,1
Frate,1
Giuda,1
Già,1
Io,1
La,1
Libero,1
Luca,1
Ma,2
Nel,2
Noi,1
Non,1
O,1
Omai,1
Ond’,2
Or,2
Ora,1
Per,1
Pietro,1
Poi,1
Prima,1
Quei,1
Questi,1
Roma,1
Se,3
Segnor,1
Stazio,1
Sì,1
Tanto,1
Taumante,1
Tebe,1
Tito,1
Trema,1
Tremaci,1
Virgilio,4
Volser,1
abbracciar,1
ad,2
addemmo,1
adocchia,1
alcuna,1
allumati,1
alterazione,1
alto,1
altra,1
ancor,1
ancora,2
andavam,1
anima,1
anni,1
antico,1
apparve,2
ardor,1
assai,2
assentirei,1
assommi,1
avante,1
avea,1
aver,1
a’,3
bando,1
beato,1
ben,2
bene,1
ber,1
breve,1
brina,1
buca,1
buon,2
caddi,1
cade,1
cagion,1
cagione,1
cangia,1
cantai,1
cantar,1
cappia,1
cenno,1
chi,2
ché,2
ch’a,2
ch’al,2
ch’ammicca,1
ch’el,1
ch’erano,1
ch’e’,2
ch’io,4
ch’è,1
ci,5
ciascun,1
ciascuno,1
ciel,1
cinquecent’,1
ciò,1
coi,1
col,1
cominciò,2
compila,1
comprender,1
concilio,1
condoleami,1
conface,1
congaudete,1
conocchia,1
contra,1
contrade,1
convento,1
convien,1
corte,1
coruscar,1
cosa,1
cotanta,1
credesti,1
credi,1
crolli,1
cruna,1
cura,1
dal,3
dea,1
deggio,1
degni,1
dianzi,1
dica,1
dice,1
dicendo,1
dicesti,1
dico,1
dietro,2
digiuna,1
digli,1
dimanda,1
dimandando,1
dimmi,1
dimostrommi,1
dir,1
disio,1
dismento,1
disse,4
diss’,1
divina,2
diè,2
doglia,1
dolce,1
domandò,1
dottor,2
dove,1
dov’,1
dramma,1
duca,2
due,1
dura,1
dèi,1
dì,1
d’altra,1
d’altro,1
d’ammirazion,1
d’i,2
d’inferno,1
d’una,1
d’usanza,1
ecco,1
ed,1
ei,1
el,2
elli,1
essa,1
esser,3
essilio,1
fa,2
faccia,1
famoso,1
far,1
faville,1
fece,2
fede,1
fei,1
femminetta,1
fermai,1
fiamma,1
ficca,1
figlia,1
fila,1
forse,1
forte,2
fosti,1
frati,1
fretta,1
fu,2
fui,1
fummi,2
fuor,4
fóra,1
gente,1
giace,1
giaciuto,2
giova,1
giusta,1
giustizia,1
giù,1
gode,1
gola,1
gradi,2
grande,2
grando,1
grazia,1
gridare,1
grido,1
guardando,1
guida,1
ha,1
impone,1
infino,1
inteso,1
io,7
labore,1
lampeggiar,1
lascia,1
lasciala,1
lei,2
libera,1
libero,1
lode,1
lui,1
l’Eneïda,1
l’acqua,1
l’aiuto,1
l’alma,1
l’altra,1
l’amor,1
l’ampia,1
l’angel,1
l’anima,1
l’etterno,1
l’ombra,1
l’ombre,1
l’una,1
l’uom,1
maestro,1
mai,2
mamma,1
maravigli,1
me,2
men,2
menar,1
mertai,1
mia,3
miei,2
miglior,1
mille,1
mio,9
mirto,1
mo,1
modo,1
molli,1
monda,1
mondizia,1
montagna,1
monte,2
mosterrolli,1
mostrarli,1
mova,1
mutar,1
nasconda,1
natural,1
ne,5
neve,1
ne’,1
noi,1
noma,1
nome,1
non,25
nostra,1
nostro,1
notte,1
nutrice,1
nuvole,1
né,4
o,3
occhi,2
ogne,1
oltre,1
ombra,2
ombre,1
onde,2
ond’,2
onora,1
ordine,1
ornar,1
ove,1
pace,2
paion,1
parla,1
parlai,1
parlar,1
parlò,1
parole,3
parte,2
parve,1
passion,1
paura,1
peccar,1
però,3
peso,1
piacciati,1
piante,1
pianto,1
piedi,1
pigli,1
pii,1
pioggia,1
piè,2
più,11
poco,1
poetando,1
pone,1
ponga,1
porta,1
potea,1
potrà,1
preso,1
pria,1
prode,1
profila,1
prova,1
pungeami,1
puoi,1
puote,1
pur,3
può,1
qua,1
quando,2
quand’,1
quantitate,1
quanto,1
quant’,2
quelle,1
quello,1
questa,1
queste,1
questi,1
qui,3
rade,1
rege,1
regni,1
religïone,1
render,1
rendéli,1
rete,1
riceve,1
rider,2
riguardi,1
riguardommi,1
rilega,1
riso,2
rispuose,1
rugiada,1
sai,1
salda,1
salir,1
samaritana,1
sangue,1
sanza,1
sanz’,1
sappia,1
saprei,1
savio,1
sazia,1
scala,1
scalappia,1
scalda,1
scaldar,1
scaletta,1
scola,1
scongiura,1
scorte,1
scrive,1
se,3
secco,1
secoli,1
seconda,2
segni,1
seguaci,1
seguon,1
sembiante,1
seme,1
senta,1
sentesi,1
sentii,1
sentisti,1
sepulcral,1
serocchia,1
sete,3
sia,1
siete,1
so,1
soglia,1
sol,1
sola,1
sole,1
soma,1
sommo,2
son,3
sono,2
sorprende,1
sorrisi,1
sospiro,1
sovente,1
speranza,1
spesse,1
spicca,1
spiriti,1
spirto,3
suoi,1
surga,1
surge,1
surgendo,1
surto,1
sé,3
sù,6
sùbiti,1
s’inchinava,1
tacendo,1
tacer,1
tacque,1
tai,1
tal,1
talento,1
tanti,1
te,1
tempie,1
tempo,1
terra,1
testeso,1
togliesti,1
tolosano,1
tormento,1
tosto,1
trasse,1
tratta,1
trattando,1
tratto,1
travagliava,1
tre,2
trema,1
tremoto,1
tremò,1
tua,2
tue,1
turba,1
tutto,3
un’ombra,1
uomini,1
uscir,1
uscì,1
vanitate,1
vapor,1
vedi,1
vedrai,1
veggio,1
vendetta,1
vendicò,1
venduto,1
venendo,1
venir,1
vento,1
venìa,1
vera,1
verace,1
veraci,1
vi,2
via,3
vicario,1
virtù,1
viso,1
visse,1
vivuto,1
vocale,1
voglia,1
voi,1
voler,3
volgemmo,1
volontà,1
vo’,1
vuol,1
vuole,1
v’ha,1
‘Taci’,1
’mpacciata,1
’mpiglia,1
’nvii,1
