A,1
Ara,1
Arnaut,1
Beato,1
Cesar,1
Colui,1
Così,1
Cristo,1
Dinne,1
Ed,1
El,1
Etïopo,1
Farotti,1
Gomorra,1
Guarda,1
Guido,1
Guinizzelli,1
Guittone,1
Ieu,1
Indo,1
Io,2
La,1
Lemosì,1
Letè,1
Li,1
Ligurgo,1
Lì,1
Ma,2
Mentre,1
Ne,1
Non,1
Nostro,1
Né,1
O,3
Or,2
Pasife,1
Poi,4
Quali,1
Questa,1
Quinci,1
Regina,1
Rife,1
Soddoma,2
Sì,1
Tan,1
Tosto,1
Tu,1
Versi,1
abate,1
acceso,1
acciò,1
acerbe,1
ad,2
additò,1
affina,1
aiutan,1
allora,1
alti,1
altra,1
altri,2
altrimenti,1
altro,1
altrui,2
amica,1
ammuta,1
ampio,2
ancora,2
andai,1
andando,2
anime,1
antichi,1
apparecchiava,1
aquella,1
ardo,1
arsi,1
ascoltar,1
aspetto,1
attenti,1
atteso,1
atti,1
avea,2
a’,2
basciarsi,1
ben,2
bestie,1
bianco,1
bigio,1
bisogna,1
brieve,1
bruna,1
buon,1
cagion,2
cammino,1
cantan,1
canti,1
cari,1
caro,1
carte,1
ce,1
cerno,1
certi,1
chi,3
chiamar,1
chiaro,1
chiostro,1
ché,2
ch’a,2
ch’al,2
ch’ancor,1
ch’apparve,1
ch’arte,1
ch’avanzi,1
ch’io,2
ch’è,1
ciascuna,1
ciascun’,2
cieco,1
ciel,1
cilestro,1
ciò,1
cobrire,1
col,3
colei,2
collegio,1
cominciarsi,1
cominciò,1
com’,2
consiros,1
contente,1
contra,1
convene,1
corpo,1
corra,1
cortes,1
così,2
credere,1
credon,1
cuor,1
dando,1
dar,1
davanti,1
deman,1
denan,1
dentro,1
destro,1
detti,1
diceami,1
diede,1
dimmi,1
dimostri,1
dir,4
dire,3
disire,1
disparve,1
disse,1
dissi,1
ditemi,1
dito,1
divegna,1
dolci,2
dolermi,1
dolor,1
donna,1
dopo,1
dove,2
drizzan,1
due,2
durerà,1
d’acqua,1
d’amor,1
d’amore,2
d’aver,1
d’avermi,1
d’essi,1
d’ogne,1
d’un,1
elli,1
entra,1
entro,1
ermafrodito,1
esper,1
esperïenza,1
esser,2
essi,1
fa,1
fabbro,1
facea,1
fai,1
falli,1
far,1
faranno,1
farsi,2
fece,2
fec’,1
fei,1
fer,2
feriami,1
ferman,1
fero,1
festa,1
fiamma,1
figli,1
fin,1
fittizio,1
foco,4
folor,1
fondo,1
fora,1
formica,1
forse,4
fortuna,1
fosser,1
fossi,2
frate,1
fredda,1
fu,3
fui,1
fummo,1
furon,1
fïata,1
gel,1
gente,4
giovi,1
giunture,1
giuraro,1
grato,1
grazia,1
grazïoso,1
gridando,1
gridar,1
grido,2
grue,1
guardar,1
guida,1
hai,2
imbarche,1
incominciai,1
incontro,1
incostri,1
indizio,1
inizio,1
innanzi,3
insurgo,1
intrato,1
inver’,1
io,5
jausen,1
joi,1
lagrimando,1
lasci,1
lascia,1
legge,2
leggiadre,1
liberamente,1
licito,1
loco,1
lor,6
loro,3
lui,3
lunga,1
luogo,1
lussuria,1
lì,1
l’accoglienza,1
l’acqua,1
l’affermar,1
l’altra,3
l’andare,1
l’appetito,1
l’arene,1
l’arsura,1
l’escalina,1
l’ha,1
l’occidente,1
l’ombra,1
l’omero,1
l’orlo,1
l’una,2
l’uso,1
madre,1
maestro,1
maggior,2
mai,1
manifesto,1
marche,1
materno,1
mature,1
me,10
meco,1
medesmi,1
meglio,1
membra,1
mente,1
mezzo,1
mie,1
miei,1
miglior,2
mio,2
moderno,1
molti,1
molt’,1
mondo,2
montagne,1
montanaro,1
morir,1
mortal,1
morte,1
mostrato,1
mutava,1
m’abellis,1
m’acquista,1
m’appressai,1
m’avean,1
m’inchiese,1
m’offersi,1
ne,5
ne’,1
ni,1
no,1
noi,4
nol,1
nomar,1
nome,3
non,14
nostre,1
nostri,1
nostro,1
nova,1
novità,1
né,3
n’andavamo,1
n’hanno,1
o,2
obbrobrio,1
odo,2
offese,1
ombra,2
ombre,1
oppinïone,1
or,1
pace,1
padre,1
par,1
parer,1
parete,1
parlar,2
parlava,1
parole,1
parte,3
partinci,1
parton,2
paruta,1
pasciuto,1
passada,1
passo,1
paternostro,1
peccar,1
peccato,1
pensoso,1
persone,1
però,1
pesce,1
pien,1
più,9
plor,1
poco,1
poner,1
poter,1
potëan,1
prec,1
pregato,1
pregio,1
presso,1
presta,1
pria,1
prima,3
primi,1
primo,1
privilegio,1
pronto,1
prose,1
puesc,1
pur,3
purgo,1
può,1
quale,1
quando,3
quand’,1
quanto,3
que,2
quelle,1
questa,1
queste,1
questi,2
questo,1
qui,1
qu’,1
qu’ieu,1
raccostansi,1
raggiando,1
ragion,1
reco,1
rei,1
restar,1
rete,1
retro,1
reverente,1
ricominciò,1
riguardar,1
riguardo,1
rimase,1
rime,1
rimirando,2
rimirar,1
rimproverando,1
rispondi,1
risposta,1
riveder,1
romanzi,1
rovente,1
rozzo,1
sai,1
salvatico,1
sangue,1
sanza,2
saper,1
saprei,1
sazia,1
scaltro,1
scarche,1
scemo,1
schegge,1
schiera,1
schife,1
se,5
secondo,1
seguendo,1
sembianti,1
semo,1
sempre,1
sen,2
servammo,1
servigio,1
sete,2
sia,2
sicure,1
siete,1
sol,1
sole,2
solo,1
som,1
son,3
sopra,1
sopragridar,1
sospeso,1
sovenha,1
soverchiò,1
spazia,1
spesso,1
spiar,1
spirto,1
stato,1
stesso,1
stolti,1
stremo,1
stupido,1
stupore,1
su,1
sue,1
sui,1
suo,3
sé,3
sù,1
s’affatica,1
s’ammusa,1
s’ascolti,1
s’ascose,1
s’attuta,1
s’imbestiò,1
s’intese,1
s’inurba,1
s’io,1
tal,2
tardo,1
te,2
tempo,1
temps,1
terghi,1
torello,1
tornan,1
tosto,2
trascorra,1
tristizia,1
trïunfando,1
tua,1
tue,1
turba,2
tutti,2
tutto,2
tòrre,1
udire,1
udito,1
umana,1
uno,1
uopo,1
usar,1
uscir,1
va,2
vacca,1
vai,1
valor,1
vau,1
veggio,1
vei,2
vene,1
venne,1
ver,3
verghi,1
vergognando,1
verso,1
vestigio,1
via,1
vidi,1
vien,1
vinto,1
viso,1
visto,1
vo,1
voce,1
voglia,1
voi,1
voill,1
volasser,1
volere,1
volte,1
volti,1
vos,4
vostra,1
vostre,1
vostri,2
vostro,1
vuo’,1
v’alberghi,1
‘l,2
’mbestiate,1
