Adamo,1
Beato,1
Beatrice,2
Bëatrice,1
Come,2
Così,2
Cristo,1
Ed,1
Forse,1
Giovanni,1
Giove,1
Iacopo,1
In,1
Indi,1
Io,2
La,2
Le,1
Ma,2
Moïsè,1
Non,1
O,1
Ond’,1
Ov’,1
Però,2
Pietro,1
Poi,1
Poscia,2
Quali,1
Quel,1
Qui,1
Roma,1
Sicura,1
Siringa,1
Sola,1
Stazio,1
Surgi,1
Sì,2
S’io,1
Tant’,1
Trasformato,1
Troppo,1
Vedi,2
ai,1
alcuna,1
allor,1
alquanto,1
altezza,1
alto,1
altra,1
altri,3
altro,1
ammirata,1
ancor,1
angeli,1
aperta,1
aprendo,1
arco,1
assonnaro,1
attenti,1
avea,2
avean,1
avien,1
avventarsi,1
basciavansi,1
becco,1
bella,1
belva,1
ben,1
benedetto,1
benigna,1
biforme,1
binato,1
bocca,1
boschi,1
braccio,1
bue,1
buon,1
calar,1
caler,1
cangiata,1
canta,1
cantaro,1
canto,1
canzone,1
capo,1
carca,1
carco,1
caro,1
carro,5
casca,1
celeste,2
cerchiaro,1
cerchio,1
chiamar,1
chiuso,1
ch’a,1
ch’ad,1
ch’al,2
ch’elli,1
ch’un,1
ciascun,2
ciascuna,1
cielo,2
ciglia,1
circonda,1
cive,1
claustro,1
coda,2
col,3
color,1
colore,1
colpa,1
colpe,1
coma,1
comandamenti,1
compagnia,1
com’,3
condotti,1
conducitrice,1
confine,1
conserva,1
corno,1
cornute,1
corsier,1
costa,1
costò,1
così,3
cotal,1
crese,1
crollonne,1
crudo,1
cui,1
cuna,1
cuor,1
cupido,1
dal,2
decenne,1
dee,1
destro,1
de’,2
dico,2
diedi,1
dietro,1
diffuso,1
dificio,1
digiuna,1
dilata,1
dintorno,1
disbramarsi,1
discindi,1
disciolse,1
disegnerei,1
disfrenata,1
dispogliata,1
disposizion,1
disse,1
dissi,1
divoto,1
dolce,2
donna,2
donne,1
dopo,1
drago,1
dritto,1
drudo,1
dubbio,1
d’Aquilone,1
d’Austro,1
d’Elia,1
d’altra,1
d’esto,1
d’i,2
d’ira,1
d’ogne,2
el,1
ella,2
eramo,1
eran,2
esce,1
essempro,1
esser,2
essercito,1
essi,1
fa,3
facevan,1
fai,1
fansi,1
fece,1
fera,1
feroce,1
ferì,1
fiamme,1
fine,1
finga,1
fioretti,1
fiori,1
fiso,1
fisse,1
fissi,1
fiume,1
flagellò,1
foco,1
foglie,2
fondo,1
fora,1
forse,1
fortuna,1
forza,3
fosse,1
frasca,1
fronda,2
fronte,1
fu,3
fue,1
funne,1
fuor,1
furon,1
futa,1
fé,1
fée,1
gente,1
ghiotti,1
gigante,1
gira,1
gissen,1
giunga,1
giusto,1
giù,3
glorïoso,1
gramigna,1
gran,1
gridaron,1
grifon,3
guardia,1
gusto,1
indi,1
infin,1
insieme,1
intender,1
intenzion,1
intorno,1
io,6
laide,1
lasca,1
lasciar,1
lasciata,1
lasciò,1
legar,1
legato,1
legno,2
lei,7
lor,1
loro,2
luce,1
lumi,1
lungo,1
lì,1
l’Indi,1
l’ago,1
l’aguglia,1
l’alber,1
l’albero,1
l’alta,1
l’altra,1
l’animal,1
l’antica,1
l’arca,1
l’assonnar,1
l’inno,1
l’occhio,1
l’onda,1
l’orbita,1
l’ossa,1
l’uccel,1
l’una,1
maestro,1
maggior,1
mai,1
mal,3
maligna,1
mano,1
me,3
meco,1
melo,1
men,1
mente,1
mia,3
miei,2
milizia,1
minore,1
mischiata,1
mise,1
molto,1
mondo,1
monte,1
mormorare,1
mosse,1
mostro,2
moto,1
mutarsi,1
m’addormentai,1
m’apparve,1
m’avea,1
m’era,1
m’eran,1
nave,1
navicella,1
ne,4
ne’,1
ninfe,1
non,8
nostre,1
nota,2
nova,2
nove,1
nozze,1
nube,1
nulla,1
né,2
occhi,7
offerta,1
onde,2
ond’,2
or,3
orza,1
ov’,1
parea,1
parete,1
parlar,1
parola,1
parti,1
parve,1
passeggiando,1
passi,2
pasto,1
penna,1
pennuta,1
perch’,1
percossi,1
perpetüe,1
però,2
pia,1
pianta,2
piante,2
piedi,1
piegasse,1
piegò,1
pieno,1
pinga,1
pintor,1
piove,1
piuma,1
piè,1
più,8
plaustro,1
poco,2
poco’,1
poggia,1
polpe,1
pome,1
poscia,1
possa,1
potessi,1
prese,1
pria,4
prima,2
prime,1
primo,1
pro,1
procedeva,1
profonda,1
pronte,1
pur,2
puttana,2
quando,5
quanta,1
quanto,3
quasi,1
quattro,1
quei,1
quelle,1
qui,1
quinci,1
quindi,2
radice,1
raggia,1
rammarca,1
ramo,1
ramora,1
regno,1
remoto,1
rete,1
ricoperse,1
ricoperta,1
riformossi,1
rimase,1
rimossi,2
rinovella,1
riprendendo,1
riso,1
rispetto,1
ritornaro,1
ritornato,1
ritragge,1
ritrar,1
rivolse,1
rivolto,1
robusto,1
rocca,1
romano,1
rompendo,1
rose,1
rota,2
rote,1
rotti,1
ruote,1
saetta,1
salvarsi,1
sana,1
santo,2
sanza,3
sarai,2
scemata,1
scender,1
scese,2
schiera,1
sciolta,1
scorza,1
scrive,1
scudi,1
scudo,1
scuola,1
se,1
sedeasi,1
seder,1
sedere,1
segno,1
seguitavam,1
selva,2
seme,1
sen,1
sensi,1
sensibile,1
senti’,1
serpente,1
sete,1
sette,2
sia,1
sicuri,1
silvano,1
simile,1
sinistra,1
so,1
sofferser,1
soffersi,1
sol,3
sole,3
son,1
sonni,1
sonno,1
sospetto,1
sospir,1
sotto,3
sovra,2
sovresso,1
spazio,1
spenti,1
spessa,1
spietati,1
splendor,1
squarciò,1
starsi,1
stella,1
stola,1
su,2
sue,1
sul,1
suo,4
suoi,2
suso,1
svegliai,1
sé,6
sù,2
s’aprisse,1
s’innovò,1
tal,2
tanta,1
temo,3
tempo,1
temprava,1
terra,3
teste,1
testé,1
tiene,1
tieni,1
tirato,1
tolta,1
torce,1
tornar,1
tornarsi,1
torna’,1
traendo,1
trapassonne,1
trascorro,1
trasse,2
trassel,1
trasselo,1
traéli,1
tre,2
trïunfal,1
tr’ambo,1
turgide,1
tutta,4
tutti,2
tutto,2
udendo,1
udi’,1
un’angelica,1
uscirne,1
uscì,1
va,1
vagante,1
vago,2
vanno,1
varco,1
veder,2
vedi,1
vedova,1
vegghiar,1
veiculo,1
velo,1
veloce,1
ventre,1
venuta,1
vera,1
ver’,1
vespa,1
videro,1
vidi,8
vinta,1
vinti,1
viso,2
vista,1
visto,1
vivace,1
vive,1
voce,1
volgesi,1
voli,1
volle,1
volpe,1
volse,1
volta,1
volto,1
vuol,1
vïole,1
vòlto,2
vòta,1
èe,1
‘al,1
’ntesi,1
