fu,13
non,10
sé,10
più,8
Dio,7
o,7
suo,6
l’uom,5
natura,5
se,5
me,4
pur,4
io,4
cose,4
sanza,4
queste,4
essa,3
Ma,3
tal,3
giusta,3
ché,3
virtù,3
l’umana,3
creata,3
però,3
vita,3
mai,3
poco,3
bontà,3
mezzo,3
tutte,3
avesse,3
quanto,3
lor,3
tua,2
viso,2
lume,2
Io,2
dicea,2
tutto,2
sofferse,2
d’un,2
foco,2
mio,2
vendetta,2
giustamente,2
fosse,2
pensier,2
mente,2
gran,2
piacque,2
fattore,2
persona,2
sol,2
Or,2
questa,2
ella,2
paradiso,2
via,2
La,2
nulla,2
così,2
ch’a,2
lei,2
terra,2
Non,2
quando,2
ad,2
disio,2
Tu,2
dici,2
ciò,2
questo,2
modo,2
frate,2
ne,2
divina,2
ogne,2
Ciò,2
imprenta,2
bene,2
dimesso,2
puoi,2
sodisfar,2
ir,2
suso,2
vie,2
sue,2
l’una,2
veggio,2
sono,2
vostra,2
Osanna,1
sanctus,1
Deus,1
sabaòth,1
superillustrans,1
claritate,1
felices,1
ignes,1
horum,1
malacòth,1
Così,1
volgendosi,1
nota,1
cantare,1
sustanza,1
sopra,1
doppio,1
s’addua,1
ed,1
l’altre,1
mossero,1
danza,1
quasi,1
velocissime,1
faville,1
velar,1
sùbita,1
distanza,1
dubitava,1
‘Dille,1
dille,1
’,1
fra,1
‘dille’,1
‘a,1
mia,1
donna,1
diseta,1
dolci,1
stille’,1
reverenza,1
s’indonna,1
Be,1
ice,1
richinava,1
ch’assonna,1
Poco,1
cotal,1
Beatrice,1
cominciò,1
raggiandomi,1
riso,1
faria,1
felice,1
Secondo,1
infallibile,1
avviso,1
punita,1
t’ha,1
miso,1
solverò,1
tosto,1
ascolta,1
mie,1
parole,1
sentenza,1
faran,1
presente,1
Per,1
soffrire,1
vole,1
freno,1
prode,1
quell’,1
uom,1
nacque,1
dannando,1
dannò,1
tutta,1
prole,1
onde,1
specie,1
inferma,1
giacque,1
giù,1
secoli,1
molti,1
grande,1
errore,1
fin,1
ch’al,1
Verbo,1
discender,1
u’,1
dal,1
s’era,1
allungata,1
unì,1
l’atto,1
etterno,1
amore,1
drizza,1
ch’or,1
ragiona,1
unita,1
sincera,1
buona,1
stessa,1
sbandita,1
torse,1
verità,1
pena,1
dunque,1
croce,1
porse,1
s’a,1
assunta,1
misura,1
morse,1
tanta,1
ingiura,1
guardando,1
contratta,1
Però,1
atto,1
uscir,1
diverse,1
a’,1
Giudei,1
morte,1
tremò,1
ciel,1
s’aperse,1
dee,1
oramai,1
parer,1
forte,1
dice,1
poscia,1
vengiata,1
corte,1
veggi’,1
or,1
ristretta,1
pensiero,1
dentro,1
nodo,1
solver,1
s’aspetta,1
Ben,1
discerno,1
odo,1
volesse,1
m’è,1
occulto,1
nostra,1
redenzion,1
Questo,1
decreto,1
sta,1
sepulto,1
occhi,1
ciascuno,1
cui,1
ingegno,1
fiamma,1
d’amor,1
adulto,1
Veramente,1
segno,1
molto,1
mira,1
discerne,1
dirò,1
degno,1
sperne,1
livore,1
ardendo,1
sfavilla,1
dispiega,1
bellezze,1
etterne,1
distilla,1
ha,1
fine,1
move,1
quand’,1
sigilla,1
piove,1
libero,1
soggiace,1
virtute,1
nove,1
Più,1
l’è,1
conforme,1
piace,1
l’ardor,1
santo,1
ch’ogne,1
cosa,1
raggia,1
somigliante,1
vivace,1
Di,1
dote,1
s’avvantaggia,1
creatura,1
s’una,1
manca,1
nobilità,1
convien,1
caggia,1
Solo,1
peccato,1
disfranca,1
falla,1
dissimìle,1
sommo,1
s’imbianca,1
dignità,1
rivene,1
rïempie,1
dove,1
colpa,1
vòta,1
contra,1
mal,1
dilettar,1
giuste,1
pene,1
Vostra,1
peccò,1
tota,1
seme,1
dignitadi,1
remota,1
né,1
ricovrar,1
potiensi,1
badi,1
ben,1
sottilmente,1
alcuna,1
passar,1
questi,1
guadi,1
solo,1
cortesia,1
isso,1
sodisfatto,1
follia,1
Ficca,1
mo,1
l’occhio,1
entro,1
l’abisso,1
l’etterno,1
consiglio,1
parlar,1
distrettamente,1
fisso,1
potea,1
l’uomo,1
ne’,1
termini,1
suoi,1
potere,1
giuso,1
umiltate,1
obedïendo,1
disobediendo,1
intese,1
cagion,1
fue,1
poter,1
dischiuso,1
Dunque,1
convenia,1
riparar,1
l’omo,1
intera,1
dico,1
ver,1
amendue,1
l’ovra,1
gradita,1
l’operante,1
appresenta,1
core,1
ond’,1
ell’,1
uscita,1
mondo,1
proceder,1
rilevarvi,1
contenta,1
Né,1
tra,1
l’ultima,1
notte,1
primo,1
die,1
alto,1
magnifico,1
processo,1
l’altra,1
fie,1
largo,1
dar,1
stesso,1
far,1
sufficiente,1
rilevarsi,1
s’elli,1
tutti,1
altri,1
modi,1
erano,1
scarsi,1
giustizia,1
Figliuol,1
umilïato,1
incarnarsi,1
empierti,1
ritorno,1
dichiararti,1
alcun,1
loco,1
veggi,1
lì,1
com’,1
l’acqua,1
l’aere,1
misture,1
venire,1
corruzione,1
durar,1
furon,1
creature,1
ch’è,1
detto,1
stato,1
vero,1
esser,1
dovrien,1
corruzion,1
sicure,1
Li,1
angeli,1
paese,1
sincero,1
dir,1
posson,1
creati,1
loro,1
essere,1
intero,1
alimenti,1
hai,1
nomati,1
quelle,1
fanno,1
informati,1
Creata,1
materia,1
ch’elli,1
hanno,1
informante,1
stelle,1
’ntorno,1
vanno,1
L’anima,1
d’ogne,1
bruto,1
piante,1
complession,1
potenzïata,1
tira,1
raggio,1
moto,1
luci,1
sante,1
spira,1
somma,1
beninanza,1
innamora,1
sempre,1
disira,1
quinci,1
argomentare,1
ancora,1
resurrezion,1
ripensi,1
carne,1
fessi,1
allora,1
primi,1
parenti,1
intrambo,1
fensi,1
