più,12
vidi,7
non,7
suo,7
così,6
vista,5
occhi,5
quanto,5
questo,4
tal,4
infino,4
sol,4
Non,4
nulla,4
questa,4
io,4
mia,4
luce,4
sé,4
prima,4
quasi,3
noi,3
ciel,3
poco,3
mio,3
La,3
ch’io,3
me,3
maggior,3
queste,3
lume,3
se,3
Dio,3
sù,3
ne,3
lontano,2
ci,2
quando,2
mezzo,2
cielo,2
trïunfo,2
sempre,2
punto,2
Bëatrice,2
vedere,2
amor,2
lei,2
fosse,2
tutto,2
poca,2
sarebbe,2
bellezza,2
solo,2
tutta,2
ché,2
viso,2
primo,2
convien,2
vero,2
letizia,2
l’una,2
sùbito,2
far,2
miei,2
faville,2
parte,2
ne’,2
fiori,2
acqua,2
disse,2
ancor,2
gente,2
l’alto,2
lui,2
ha,2
intorno,2
rosa,2
né,2
dove,2
fia,2
sarà,2
Forse,1
semilia,1
miglia,1
ferve,1
l’ora,1
sesta,1
mondo,1
china,1
l’ombra,1
letto,1
piano,1
profondo,1
comincia,1
farsi,1
ch’alcuna,1
stella,1
perde,1
parere,1
fondo,1
vien,1
chiarissima,1
ancella,1
oltre,1
chiude,1
bella,1
altrimenti,1
lude,1
dintorno,1
vinse,1
parendo,1
inchiuso,1
ch’elli,1
’nchiude,1
veder,1
stinse,1
tornar,1
costrinse,1
Se,1
qui,1
dice,1
conchiuso,1
loda,1
fornir,1
vice,1
trasmoda,1
pur,1
certo,1
credo,1
fattor,1
goda,1
Da,1
passo,1
vinto,1
concedo,1
mai,1
tema,1
soprato,1
comico,1
o,1
tragedo,1
sole,1
trema,1
rimembrar,1
dolce,1
riso,1
mente,1
medesmo,1
scema,1
Dal,1
giorno,1
vita,1
m’è,1
seguire,1
cantar,1
preciso,1
or,1
seguir,1
desista,1
dietro,1
poetando,1
l’ultimo,1
ciascuno,1
artista,1
Cotal,1
lascio,1
bando,1
tuba,1
deduce,1
l’ardüa,1
matera,1
terminando,1
atto,1
voce,1
spedito,1
duce,1
ricominciò,1
Noi,1
siamo,1
usciti,1
fore,1
corpo,1
ch’è,1
pura,1
intellettüal,1
piena,1
d’amore,1
ben,1
pien,1
trascende,1
ogne,1
dolzore,1
Qui,1
vederai,1
l’altra,1
milizia,1
paradiso,1
quelli,1
aspetti,1
vedrai,1
l’ultima,1
giustizia,1
Come,1
lampo,1
discetti,1
spiriti,1
visivi,1
priva,1
l’atto,1
l’occhio,1
forti,1
obietti,1
circunfulse,1
viva,1
lasciommi,1
fasciato,1
velo,1
fulgor,1
m’appariva,1
Sempre,1
l’amor,1
queta,1
accoglie,1
fatta,1
salute,1
disposto,1
fiamma,1
candelo,1
fur,1
tosto,1
dentro,1
venute,1
parole,1
brievi,1
compresi,1
sormontar,1
sopr’,1
virtute,1
novella,1
raccesi,1
tale,1
mera,1
fosser,1
difesi,1
forma,1
rivera,1
fulvido,1
fulgore,1
intra,1
due,1
rive,1
dipinte,1
mirabil,1
primavera,1
Di,1
fiumana,1
uscian,1
vive,1
d’ogne,1
mettien,1
rubin,1
oro,1
circunscrive,1
inebrïate,1
odori,1
riprofondavan,1
miro,1
gurge,1
s’una,1
intrava,1
un’altra,1
n’uscia,1
fori,1
L’alto,1
disio,1
mo,1
t’infiamma,1
urge,1
d’aver,1
notizia,1
ciò,1
vei,1
piace,1
turge,1
quest’,1
bei,1
tanta,1
sete,1
te,1
sazi,1
Anche,1
soggiunse,1
Il,1
fiume,1
topazi,1
ch’entrano,1
ed,1
escono,1
rider,1
l’erbe,1
son,1
lor,1
umbriferi,1
prefazi,1
sian,1
cose,1
acerbe,1
difetto,1
tua,1
hai,1
viste,1
superbe,1
fantin,1
rua,1
col,1
volto,1
verso,1
latte,1
svegli,1
molto,1
tardato,1
l’usanza,1
fec’,1
migliori,1
spegli,1
chinandomi,1
l’onda,1
deriva,1
vi,1
s’immegli,1
bevve,1
gronda,1
palpebre,1
mie,1
parve,1
lunghezza,1
divenuta,1
tonda,1
Poi,1
stata,1
sotto,1
larve,1
pare,1
altro,1
sveste,1
sembianza,1
süa,1
disparve,1
cambiaro,1
feste,1
ambo,1
corti,1
manifeste,1
O,1
isplendor,1
cu’,1
regno,1
verace,1
dammi,1
virtù,1
dir,1
com’,1
ïo,1
Lume,1
visibile,1
face,1
creatore,1
creatura,1
pace,1
E’,1
distende,1
circular,1
figura,1
circunferenza,1
troppo,1
larga,1
cintura,1
Fassi,1
raggio,1
parvenza,1
reflesso,1
sommo,1
mobile,1
prende,1
quindi,1
vivere,1
potenza,1
clivo,1
imo,1
specchia,1
vedersi,1
addorno,1
verde,1
fioretti,1
opimo,1
soprastando,1
specchiarsi,1
mille,1
soglie,1
fatto,1
ritorno,1
l’infimo,1
grado,1
raccoglie,1
grande,1
quanta,1
larghezza,1
l’estreme,1
foglie,1
l’ampio,1
l’altezza,1
smarriva,1
prendeva,1
quale,1
allegrezza,1
Presso,1
lì,1
pon,1
leva,1
sanza,1
governa,1
legge,1
natural,1
rileva,1
Nel,1
giallo,1
sempiterna,1
digrada,1
dilata,1
redole,1
odor,1
lode,1
verna,1
colui,1
tace,1
dicer,1
vole,1
trasse,1
Mira,1
convento,1
bianche,1
stole,1
Vedi,1
nostra,1
città,1
quant’,1
ella,1
gira,1
vedi,1
nostri,1
scanni,1
ripieni,1
disira,1
gran,1
seggio,1
tieni,1
corona,1
v’è,1
posta,1
nozze,1
ceni,1
sederà,1
l’alma,1
giù,1
agosta,1
Arrigo,1
ch’a,1
drizzare,1
Italia,1
verrà,1
ch’ella,1
sia,1
disposta,1
cieca,1
cupidigia,1
v’ammalia,1
simili,1
fatti,1
v’ha,1
fantolino,1
muor,1
fame,1
caccia,1
via,1
balia,1
prefetto,1
foro,1
divino,1
allora,1
palese,1
coverto,1
anderà,1
cammino,1
Ma,1
sofferto,1
santo,1
officio,1
ch’el,1
detruso,1
Simon,1
mago,1
merto,1
farà,1
d’Alagna,1
intrar,1
giuso,1
