Ancor,1
Appollo,1
Beatrice,1
Ben,1
Cain,1
Certo,1
Ciò,1
Colco,1
Da,2
Dentro,1
Dio,2
Drizza,1
Ed,1
Ella,1
Iasón,1
Io,1
La,2
Li,1
Lo,2
Lì,1
L’acqua,1
Ma,2
Madonna,1
Minerva,1
Muse,1
O,1
Or,2
Parev’,1
Per,2
Questi,1
Questo,1
Que’,1
Riguarda,1
Rivolto,1
Se,2
S’elli,2
S’io,1
Tre,1
Virtù,2
Voialtri,1
accenda,1
accender,1
acqua,1
ad,1
adamante,1
ai,3
alquanto,1
altra,1
altre,1
altrettanto,1
altri,1
altro,1
altrui,1
angeli,1
arti,1
ascolti,1
ascosa,1
aspetto,1
assai,1
avverso,1
avvien,1
avviva,1
barca,1
beati,1
bella,1
bello,1
ben,1
bene,2
bifolco,1
bontate,1
bontà,1
bruno,1
bui,1
cagion,1
caldi,1
cangerebbe,1
cantando,1
carte,1
cassi,1
cen,1
certo,1
chiaro,1
chiave,1
ché,1
ch’el,1
ch’ella,1
ch’esser,2
ch’igualmente,1
ch’io,3
ch’uno,1
ciel,4
ciò,3
col,1
collo,1
color,1
colore,1
colpi,1
comparte,1
com’,4
concepe,1
concreata,1
conducemi,1
conformate,1
conforme,1
congiunti,1
contento,1
contenute,1
contrario,1
convegnon,1
convien,3
conviene,1
coprisse,1
corpi,1
corpo,8
corse,1
corte,1
cosa,1
così,5
crede,1
creder,1
credo,1
cui,3
cura,1
c’ha,1
dal,5
da’,1
deliberarti,1
densi,1
denso,2
dentro,2
deriva,1
desiderosi,1
devoto,1
deïforme,1
dietro,2
differente,1
differenti,1
differenze,1
digiuno,1
dimandi,1
dimensione,1
dimmi,1
dimostra,2
dimostran,1
dimostrato,1
dinanzi,1
dirai,1
dischiava,1
diserra,1
disio,1
disiri,1
dispongono,1
disse,2
distinzion,1
distratte,1
distributa,1
distrutti,1
ditemi,1
diversa,2
diverse,3
diversi,1
diverso,1
divina,1
dopo,1
dosso,1
dove,1
dovria,1
dovrien,1
drizzaste,1
due,1
d’ammirazione,1
d’ascoltar,1
d’i,2
d’oltre,1
d’un,1
ella,1
entro,1
equale,1
erra,1
esperïenza,1
essa,2
essenza,1
essenze,1
esser,5
essere,1
essi,1
esto,1
fa,2
fabbro,1
facesser,1
falsificato,1
falso,1
fan,1
fanno,3
farete,1
farò,1
fassene,1
fatto,1
favoleggiare,1
fede,1
ferisse,1
fia,2
fini,1
fonte,1
for,1
fora,2
formal,1
formali,1
forse,2
fosse,2
freddo,1
frutti,1
giace,1
gira,1
girando,1
giri,1
giron,1
giunto,1
giuso,1
glorïosi,1
grado,2
grasso,1
grata,1
guado,1
guardava,1
guisa,1
ha,1
hanno,1
indi,1
informar,1
ingesto,1
instanza,1
io,3
ivi,1
lassi,1
lega,2
legno,1
lei,1
letizia,1
lieta,2
liti,1
loco,1
lontana,1
lor,2
luce,5
lucida,1
lui,4
lume,2
lumi,2
lì,2
l’Orse,1
l’acqua,1
l’ali,1
l’alma,1
l’alto,1
l’altro,3
l’altrui,1
l’argomentar,1
l’arte,1
l’eclissi,1
l’esser,1
l’etterna,1
l’image,1
l’intelletto,1
l’intelligenza,1
l’oppinïon,1
l’uom,1
magro,1
mai,2
manifesto,1
margarita,1
martello,1
materia,1
me,3
membra,1
men,1
mente,2
metter,1
mettete,1
mia,1
mio,2
mirabil,1
mista,1
modo,1
molti,1
mondo,2
mortal,1
mortali,1
moto,1
motor,1
multiplicata,1
m’ha,1
nasconde,1
natura,2
navigio,1
ne,7
neve,1
noce,1
non,14
nostra,1
notar,1
noto,1
nove,1
nube,1
nudo,1
n’appar,1
n’ha,1
o,2
occhi,1
omai,3
onde,2
organi,1
ottava,1
ove,1
pace,1
pan,1
par,1
parere,1
parte,2
parti,1
passar,1
passaro,1
patio,1
pelago,1
pensi,1
perdendo,1
permanendo,1
perpetüa,1
però,2
pianeto,1
piccioletta,1
piombo,1
più,8
pochi,1
polve,1
portava,1
posa,1
posso,1
posson,1
potea,1
potenze,1
potete,1
prende,1
prenderai,1
prendo,1
prendono,1
prezïoso,1
prima,1
primai,1
primi,1
primo,2
principio,1
princìpi,1
produce,1
profonda,1
provi,1
pulita,1
punger,1
pupilla,1
può,1
qua,1
quadrel,1
quale,2
quali,1
quando,1
quanto,3
quasi,2
quei,1
quell’,1
questa,1
questo,4
qui,2
raggio,3
ragion,1
ragione,1
rai,1
rari,1
raro,5
recepe,1
refratto,1
regno,1
remoto,1
repe,1
retro,2
ricevette,1
rifonde,1
riman,1
rimarreste,1
rimaso,1
rimosso,1
rimovi,1
ringrazio,1
ripercosso,1
risolve,1
risplenda,1
rispuosi,1
ritorna,1
ritrovi,1
riveder,1
rivi,1
sale,1
santi,1
sappi,1
sarebbe,1
satollo,1
se,4
segni,1
seguente,1
seguiterieno,1
seguiti,1
semenze,1
sen,1
sensi,1
senso,1
servando,1
sete,1
siete,1
smarriti,1
sol,3
sola,1
solco,1
solida,1
sommerso,1
son,1
sorrise,1
sotto,1
sovra,1
specchi,2
spera,1
spessa,1
spiega,1
spira,1
spiri,1
stea,1
stella,1
stelle,1
stenda,1
strali,1
suggello,1
suggetto,1
suo,4
suol,1
suso,1
sé,6
sù,2
s’ammiraron,1
s’elli,1
s’unio,1
tante,1
tanti,1
te,4
tempo,1
tenem,1
tener,1
termine,1
terra,1
tetro,1
torna,1
tornate,1
torni,1
torse,1
trapassi,1
trasparere,1
tre,1
tremolerà,1
tr’ambo,1
tua,1
tuo,2
tuoi,1
turbo,1
tutti,2
tutto,1
unita,1
unitate,1
vado,1
vanno,1
varca,1
varie,1
vede,1
veder,1
vedere,1
vedete,1
vedi,2
vedrai,2
vedrà,1
vedute,1
veloci,1
ver,1
vero,1
ver’,1
vetro,1
vi,2
vider,1
vidi,1
vien,2
virtute,1
virtù,3
viso,1
vista,1
vita,1
viva,1
vivace,1
vivesi,1
voglio,1
voi,3
vola,1
volta,1
volti,1
volume,1
volve,1
vostra,1
vostri,1
vostro,1
vostr’,1
