A,1
Ad,1
Adice,1
Ahi,1
Alcide,1
Belo,1
Ben,1
Brenta,1
Buggea,1
Bëatrice,1
Cagnan,1
Carlo,1
Clemenza,1
Creusa,1
Cristo,1
Cunizza,1
Da,2
Decretali,1
Deh,1
Demofoonte,1
Di,2
Dio,2
Dunque,1
D’una,1
Ebro,1
Ed,1
Feltro,1
Folco,1
Gabrïello,1
Genovese,1
Già,1
In,1
Iole,1
Iosüè,1
La,2
Li,1
L’altra,1
Ma,2
Macra,1
Nazarette,1
Non,1
Onde,1
Or,1
Padova,1
Per,2
Piangerà,1
Piava,1
Pietro,1
Qui,2
Raab,1
Rodopëa,1
Roma,1
Rïalto,1
Santa,1
Sicheo,1
Sile,1
Sol,1
Sù,1
Taci,1
Tagliamento,1
Terra,1
Toscano,1
Troni,1
Troppo,1
Tu,1
Vaticano,1
Vincenza,1
acqua,1
ad,2
affetto,1
agni,1
ai,2
alcun,1
ali,1
allor,1
alma,1
alta,1
alto,1
altro,2
ancor,4
ancora,1
anime,1
anni,1
anno,1
aperse,1
appresso,1
arse,1
assalto,1
assenso,1
assunta,1
attendere’,1
a’,2
bagna,1
balasso,1
battuta,1
beato,2
bella,1
ben,3
bene,1
bigoncia,1
buoni,1
cagion,1
caldo,1
cammin,1
cangerà,1
cantava,1
canto,1
cara,2
cardinali,1
caro,1
carpir,1
centesimo,1
certificato,1
chi,2
chiamata,1
chiarir,1
chiarito,1
ché,1
ch’a,2
ch’addorna,1
ch’altra,1
ch’altr’,1
ch’eran,1
ch’io,2
ch’ordinò,1
ciel,1
cielo,4
cimitero,1
città,1
ciò,1
coculla,1
col,1
colle,1
colpa,1
colui,1
compenso,1
com’,2
conformi,1
congiunta,1
contra,1
contrada,1
convene,1
convenne,2
core,1
cortese,1
corto,1
cosa,2
così,1
cotai,1
cotanto,1
crude,1
cui,4
cuori,1
c’ha,1
dal,1
danni,1
davante,1
dee,1
delusa,1
derelitti,1
dicete,1
difalta,1
dimanda,1
dir,1
discernesi,1
discordanti,1
disii,1
disio,1
disse,2
dissi,1
diss’,1
disvïate,1
donerà,1
doni,1
dottor,1
dove,3
dovea,1
dover,1
drizzando,1
d’esta,1
ebbe,1
eccellente,1
ecco,1
ed,1
elette,1
ella,3
empie,1
entro,1
esser,2
essere,1
fa,2
face,1
facella,1
facen,1
fama,1
fammi,1
far,3
fatto,2
fattore,1
fatture,1
favorò,1
fece,3
fecemi,1
fermi,2
ferrarese,1
fe’,1
fia,1
fien,1
fieno,1
figlia,1
fin,1
fiore,1
fontane,1
fori,1
forse,1
forte,1
fosse,1
fu,3
fui,2
fuia,1
fulgor,1
fuochi,1
fuor,2
fu’,1
fé,1
gente,1
genti,1
gioia,1
giova,1
giudicante,1
giusto,1
giù,2
gloria,1
grado,1
grande,2
ha,1
incominciaro,1
indulgo,1
infin,1
ingannate,1
inghirlanda,1
intende,1
io,6
italica,1
larga,1
lascia,1
lasciar,1
lei,2
letizia,1
letiziar,1
leva,1
libere,1
lietamente,1
liti,1
litorano,1
lor,2
luce,1
luculenta,1
lui,2
lume,2
lumera,1
lupo,1
l’Evangelio,1
l’acqua,2
l’ali,1
l’alta,1
l’altra,1
l’altre,1
l’arte,1
l’avoltero,1
l’empio,1
l’ombra,2
l’omo,1
l’orizzonte,1
l’una,1
maggior,1
magni,1
maladetto,1
malta,1
mar,1
me,6
medesma,1
memoria,1
mente,2
mera,1
meridïano,1
metti,1
mia,1
miei,1
milizia,1
mio,3
mise,1
moia,1
molt’,1
mondo,2
mostrarsi,1
muover,1
m’ebbe,1
m’era,2
m’intuassi,1
m’è,1
nacqui,1
narrò,1
nate,1
ne,2
noi,1
noia,1
noiando,1
nome,1
non,12
nostro,1
nostr’,1
nota,1
noto,1
nova,1
nulla,1
né,3
occaso,1
occhi,1
ogne,1
oltre,1
oncia,2
onde,2
ond’,2
ordine,1
orto,1
paese,1
paion,1
palma,2
palude,1
papa,2
pare,1
parlar,1
parole,1
parria,1
parte,3
parti,1
pastor,1
pastore,1
pecore,1
pelo,1
pensa,1
pensieri,1
penso,1
pente,2
perch’,1
percuota,1
però,2
pesasse,1
piacermi,1
pianta,2
pianto,1
piene,1
pii,1
più,2
poco,1
porti,1
porto,1
possa,1
posso,1
prava,1
presente,1
prete,1
pria,6
prima,2
proceder,1
produce,1
profondo,1
propinqua,1
prova,1
provide,1
puot’,1
quando,1
quasi,1
quei,1
quelli,1
questa,3
questi,1
questo,6
qui,4
radice,1
raggio,1
ragna,1
refletter,1
refulge,1
refulgo,1
relinqua,1
retro,1
ricever,1
ricevesse,1
richiude,1
ride,1
rimase,1
rimira,1
rinchiusa,1
riso,1
rivolta,1
rota,1
rïempie,1
sangue,2
santo,1
saper,1
sappi,1
sarebbe,1
sarà,1
satisface,1
scese,1
scintilla,1
sconcia,1
se,2
seguette,2
sei,1
sembiante,1
semenza,1
sempre,1
sen,1
siede,2
sigilla,1
significava,1
signoreggia,1
simil,1
sol,1
sole,2
solo,1
sommo,1
son,3
sono,1
sorte,1
sovra,1
spalle,1
spanda,1
spande,1
specchi,1
spera,1
spirto,2
splendori,1
stanco,1
state,1
stella,1
studia,1
su,1
sue,1
suo,5
suole,1
surge,1
sé,1
sù,2
s’abbuia,1
s’accompagna,1
s’acquista,1
s’acquistò,1
s’appunta,1
s’entrò,1
s’era,1
s’imprenta,1
s’incinqua,1
s’inluia,1
s’io,1
tacette,1
tal,1
te,2
tempie,1
ten,1
terra,3
testa,1
tocca,1
torcete,1
torna,2
tosto,3
tra,3
tranquilla,1
trastulla,1
trista,1
trïunfo,1
tua,3
tue,1
tuo,2
turba,1
tutte,1
tutto,1
t’inmii,1
va,2
valle,2
valor,1
vanità,1
vanno,1
vede,1
veder,1
vedi,1
verrà,1
ver’,1
vinse,1
vista,1
vita,2
vittoria,1
vivagni,1
viver,1
voce,1
voglia,1
voglie,1
voi,1
voler,2
volse,1
volta,1
vostre,1
vostri,1
vostro,2
vulgo,1
vuo’,1
’,2
’nganni,1
’nvidia,1
