Agnello,1
Allora,2
Appresso,1
Assai,1
Beatrice,3
Come,2
Così,2
Cristiano,1
De,1
Di,1
Dio,2
Dirittamente,1
Dì,2
Ed,1
Finito,1
Grazia,2
Io,2
La,4
Le,1
L’antica,1
Moïsè,1
Nostro,1
O,4
Ond’,2
Però,1
Poscia,1
Quel,1
Questa,1
Quest’,1
Risposto,1
Roma,1
Santo,1
Se,2
Segnor,1
Spirito,1
Spirto,1
Sì,2
S’elli,1
abbraccia,1
acceso,1
acutamente,1
affetto,1
almi,1
alquanto,1
altra,1
altri,2
ama,1
amore,2
anche,2
andavi,1
anime,1
appressavamo,1
appresso,1
approvarla,1
approvo,1
aprir,1
ardente,1
argomenti,1
argomento,1
arrivi,1
ascose,1
avea,1
avere,1
avria,1
baccialier,1
baron,1
batte,1
bella,1
ben,1
bene,5
benedetto,2
benedicendomi,1
bevete,1
bocca,1
borsa,1
buon,2
buona,1
cade,1
cagion,1
campo,1
canta,1
cantando,1
canto,1
cara,1
carezza,1
caro,1
carole,1
cena,1
centesmo,1
cerchi,1
chi,2
chiarezza,1
chiavi,1
chiedesti,1
ché,2
ch’a,1
ch’ascolta,1
ch’ei,2
ch’el,1
ch’ella,1
ch’io,5
ch’è,1
ci,1
ciba,1
ciel,1
cielo,1
cinse,1
civi,1
ciò,2
color,1
comando,1
comete,1
comincia’,2
com’,2
concetti,1
conchiude,1
conchiusa,1
condizion,1
confessi,1
congiunto,1
conio,1
convene,1
convien,1
corte,1
cosa,1
cose,2
costui,1
così,6
cotai,1
crede,1
credenza,3
creder,2
credesti,1
credi,1
credo,3
cristianesmo,1
cui,2
cuoia,1
dalmi,1
danzando,1
detto,2
dicea,1
differente,1
diffusa,1
digiuno,1
dilata,1
dimmi,1
dimostrazion,1
dipinta,1
dir,1
dirizzò,1
dischiude,1
disio,1
disleghe,1
diss’,1
divina,2
divo,1
divota,1
donna,1
donnea,1
dottrina,2
dovea,1
dov’,1
dà,1
d’argomento,1
d’ella,1
d’esta,1
d’ogne,1
d’orïuoli,1
ed,3
eletto,1
ella,1
emerse,1
espremer,1
espressi,1
essa,1
essaminando,1
essenza,1
esser,1
etterna,1
etterne,1
etterno,1
faccia,1
facieno,1
fantasia,1
fatta,1
fatti,1
fatto,1
favella,1
favellò,1
favilla,1
fede,4
felice,1
femmi,1
fermato,1
fero,1
ferro,1
fiamma,1
fiammando,1
filo,1
fin,1
fisice,1
fissi,1
foco,2
fonda,2
fonte,2
forma,1
fosse,1
fosser,1
frate,1
fronde,1
fronte,1
fu,1
fummi,1
fuor,1
fuori,1
fé,1
fïate,1
gaudio,1
gioia,1
giovani,1
giran,1
giura,1
giù,3
glorïarla,1
gran,2
gratulando,1
gravi,1
grazia,1
guisa,1
ha,1
hai,1
ho,3
immensa,1
incude,1
indi,2
infino,1
ingegno,1
intendi,1
intenza,2
interno,1
intorno,2
intrasti,1
io,13
i’,1
larga,1
largiscon,1
lasciò,2
laudamo’,1
lega,1
lei,1
lente,1
levai,1
liete,1
lievi,1
loco,1
lor,1
loro,1
luce,3
lucida,1
lui,2
lume,1
lì,2
l’Evangelio,1
l’acqua,1
l’affezione,1
l’alta,2
l’alto,1
l’appostolico,1
l’ardente,1
l’esser,1
l’evangelica,1
l’hai,2
l’imagine,1
l’opere,1
l’ultime,1
l’ultimo,1
maestro,1
mai,1
manifesti,1
manifesto,1
mare,1
me,3
medesmo,1
melode,1
mensa,1
mente,5
mentre,1
metafisice,1
mia,3
miei,1
mio,2
miracoli,1
miro,1
mise,1
mo,1
mondo,1
moneta,1
morte,1
moto,1
move,1
m’armava,1
m’avea,1
m’ha,1
natura,1
ne,4
nol,1
non,12
nostra,1
notai,1
novella,2
nulla,1
nullo,1
nuove,1
né,1
occhi,1
occulto,1
ogne,3
onde,4
opere,1
or,1
ora,1
ottusa,1
padre,2
pare,3
parla,1
parlare,2
parventi,1
parvenza,1
penna,1
pensa,1
perch’,1
persone,1
però,2
peso,1
piace,2
piacqui,1
pianta,1
piedi,1
pieghe,1
piena,1
piove,1
più,4
ploia,1
poli,1
pon,1
ponete,1
portò,1
povero,1
preliba,1
prende,1
prescriba,1
presto,1
prieghe,1
prima,1
primipilo,1
primo,1
principio,1
professione,1
profeti,1
profonda,2
profonde,1
pronte,1
pronto,1
propone,1
proposizion,1
prova,1
provarsi,1
prove,1
pruno,1
punti,1
pur,1
quale,1
quantunque,1
quelle,2
quello,1
quell’,1
querente,1
questa,2
queste,1
questi,1
question,1
questo,4
quest’,2
qui,3
quiditate,1
quinci,1
quivi,1
quïeto,1
ragione,1
ramo,2
regno,1
ricchezza,1
ricominciò,1
ridice,1
ripuose,1
risonò,1
rispondo,1
rivolse,1
roratelo,1
salmi,1
salta,1
santa,2
santo,1
sanza,1
sanz’,1
scalda,1
scintilla,1
scrisse,1
scriveste,1
scrivo,1
se,3
segnor,1
seguitai,1
seguite,1
sembianze,1
seminar,1
sempre,2
senti,1
sepulcro,1
servo,1
sigilla,1
silogismo,1
silogizzar,1
sodalizio,1
soffera,1
sofista,1
soggiunse,1
sola,1
solo,1
son,2
sono,1
sopra,3
spandessi,1
spene,1
spera,2
sperate,1
spere,2
spirava,1
spirito,1
spiro,1
spirò,1
splendeva,1
stella,1
stilo,1
stimar,1
su,3
suo,1
suora,1
sustanza,2
sustanze,1
sù,1
s’acquista,1
s’arma,1
s’inforsa,1
s’offerse,1
tace,1
tacqui,1
tal,4
teco,1
tempo,1
tempra,1
tene,1
tenta,1
terminarla,1
tocco,1
tonda,1
tosto,1
tra,2
trascorsa,1
tratto,1
tre,3
trina,1
troppo,1
tua,3
tuo,2
tutto,1
t’aperse,1
t’assicura,1
t’è,1
udi’,3
uno,2
uscire,1
uscì,1
vecchie,1
vede,1
vedi,1
veloci,1
venne,1
ver,1
verace,2
verità,1
ver’,1
vi,3
vid’,1
vien,1
vincesti,1
viro,1
virtù,1
viso,1
vista,1
vite,1
vivace,1
vivo,1
voglia,1
voi,2
voli,1
volse,1
volsi,1
volte,3
vostra,2
vuol,1
vuo’,1
v’è,1
ïo,2
‘Dio,1
‘este’,1
‘sono’,1
’nteso,1
’nverso,1
