Anzi,1
Beatrice,1
Chiaro,1
Con,1
Costanza,1
Così,1
Dal,1
E,4
Frate,1
Iddio,1
I’,1
La,2
Li,1
Ma,3
Maria’,1
Ne’,1
Non,1
O,1
Ond’,2
Perfetta,1
Però,1
Piccarda,1
Quali,1
Quel,1
Quest’,1
Santo,1
Se,1
Soave,1
Spirito,1
Sùbito,1
Uomini,1
a,21
abito,1
accetta,1
acqua,1
acque,1
ad,1
affetti,1
al,4
alcun,1
allor,1
alto,2
altri,1
altro,2
altr’,1
amici,1
amor,1
ancor,2
appaga,1
apparve,1
apprender,1
appresso,1
ardea,1
aspetti,1
aspetto,1
asseta,1
atto,1
avanti,1
avvien,1
a’,1
beata,1
beati,1
beato,1
bella,2
ben,4
bende,1
bene,1
bianca,1
buona,1
cantando,2
canto,1
capere,1
capo,2
caritate,1
carità,3
celerà,1
cerne,1
certo,1
che,35
chere,1
chiostra,1
chiusi,1
ché,1
ch’a,1
ch’accese,1
ch’arder,1
ch’avemo,1
ch’ella,1
ch’io,2
ch’i’,1
ch’ogne,1
ch’una,1
ci,1
cibo,1
cielo,1
ciò,5
co,1
colui,1
come,5
cominciai,1
cominciò,1
com’,4
con,6
concetti,1
confessar,1
confession,1
conforma,1
contenti,1
contra,2
contrario,1
convenne,1
converse,1
cor,1
corretto,1
corsi,1
corte,1
cosa,1
così,2
cotanto,1
coto,1
creato,1
credi,1
crïa,1
cui,3
cupa,1
da,5
dal,2
data,1
da’,1
de,8
debili,1
del,5
dentro,2
destra,1
di,17
dici,1
dico,1
dimandar,1
dimmi,1
disciolta,1
discordi,1
disiderate,1
disio,1
disiri,1
disse,2
disïassimo,1
divina,1
divino,1
dolce,3
dolcezza,1
donna,1
dorma,1
dove,1
dritti,1
drizza’mi,1
d’altro,1
d’amor,2
d’i,1
d’un,2
e,34
ella,1
elli,1
ell’,1
erto,1
esse,2
esser,1
esto,1
etsi,1
etterna,1
fa,1
facce,1
face,1
fansi,1
farvi,1
fece,1
fec’,1
felici,1
festino,1
fia,1
fida,1
fino,1
foco,1
folgorò,1
fondi,1
fonte,1
foran,1
formale,1
formati,1
forte,1
fosser,1
fronte,1
fu,7
fuggi’mi,1
fui,2
fuor,2
fusi,1
generò,1
giovinetta,1
giri,1
giusta,1
già,1
giù,2
gola,1
grado,1
gran,1
grave,1
grazia,1
grazïoso,1
guida,1
gustata,1
i,1
il,6
in,7
inciela,1
indi,1
infiammati,1
infino,1
intende,1
io,7
la,23
lascia,1
latino,1
le,5
lei,3
letizian,1
leva’,1
li,5
lieta,1
lo,3
loco,1
lor,2
luce,2
lume,2
l’error,1
l’esser,1
l’ombra,2
l’omo,1
l’ultima,1
ma,5
maggior,1
mai,2
mal,1
manco,1
maravigliar,1
mare,1
me,3
men,1
mente,1
merto,1
mi,13
mia,4
mirabili,1
modo,1
mondo,4
morir,1
mostra,1
move,1
mïo,1
m’accorsi,1
m’aiuta,1
m’avea,1
m’è,1
natura,2
ne,3
necesse,1
negletti,1
nel,7
nitide,1
noi,1
nome,1
non,18
norma,1
nostra,4
nostre,2
nostri,4
nulla,1
n’è,1
o,2
occhi,3
odi,1
ogne,1
ombre,1
onde,1
or,1
ordine,1
pace,1
par,1
paradiso,1
parea,2
parla,1
parlar,1
parlommi,1
parola,1
parte,1
per,14
perché,2
perch’,1
perla,1
perse,1
persi,1
però,2
petto,1
piace,1
piacer,2
piedi,1
piove,1
piè,1
più,13
poco,1
poi,6
porte,1
possanza,1
possibil,1
posta,1
postille,1
pria,2
prima,1
primi,1
primo,1
proferer,1
profonde,1
promisi,1
pronta,1
pronte,1
provando,1
pupille,1
pur,1
püeril,1
qual,3
quanto,2
quasi,1
quel,5
quella,2
quelle,2
quello,1
questa,1
questi,2
questo,1
quest’,1
qui,5
quïeta,1
raffigurar,1
ragionar,1
rai,1
rapiron,1
re,1
regno,2
riconoscerai,1
ridenti,1
riguarda,1
rilegate,1
rimane,1
rimembrar,1
rimiri,1
ringrazia,1
riprovando,1
risplende,1
rispuose,1
ritenne,1
ritorsili,1
rivolta,1
rivolve,1
sa,1
sacre,1
santi,1
sazia,1
scaldò,1
scoverto,1
se,4
secondo,1
segno,1
seguio,1
seguirla,1
sem,1
sembianti,1
senti,1
serra,1
setta,1
sguardo,1
si,9
sien,1
siete,1
simile,1
smaga,1
so,1
sofferse,1
soglia,2
sol,2
solo,1
sommo,1
son,3
sono,1
sopra,1
sorella,2
sorrida,1
sorridendo,1
sorrise,1
sorte,2
sovvenne,1
specchiati,1
spera,2
spirito,1
splendor,1
sposo,1
spuola,1
stesse,1
stesso,1
stimando,1
stretto,1
sua,4
suo,5
suole,1
superne,1
sustanze,1
sé,5
sì,7
sù,1
s’accende,1
s’essere,1
s’intende,1
s’un,1
tali,1
tanto,4
tarda,1
tardo,1
te,1
tela,1
tenersi,1
tersi,1
terzo,1
ti,3
tolta,1
torcer,1
tornan,1
torsi,1
tra,1
tranquille,1
trasmuta,1
trasparenti,1
trasse,1
troppa,1
tu,2
tua,1
tuo,2
tutta,2
tutto,3
un,1
uom,1
usanza,1
usi,1
vaga,1
vanio,1
veder,1
vedere,1
vedersi,1
vedi,1
vedrai,1
vegghi,1
vel,1
vela,1
vento,1
ver,1
verace,1
vere,1
vergine,1
verità,1
vero,1
veste,1
vetri,1
vi,2
via,1
vidi,1
vid’,1
vien,1
virtù,1
visi,1
viso,1
vista,1
visïone,1
vita,3
voglia,3
voglie,1
voi,2
voler,2
volerne,1
volontade,1
volontà,1
volsesi,1
vostra,1
vostri,1
vostro,1
voti,1
voto,2
vuol,1
vòti,1
vòto,1
è,6
‘Ave,1
’l,4
’n,2
’nvoglia,1
