Amiclate,1
Arno,1
Ascesi,1
Ben,1
Bernardo,1
Bernardone,1
Bëatrice,1
Chi,1
Così,1
Cristo,3
De,1
Di,1
E,2
Egidio,1
Francesco,1
Gange,1
Gualdo,1
Indi,1
Innocenzio,1
Intra,1
La,2
L’un,1
Ma,2
Maria,1
Nocera,1
Non,2
Né,1
O,1
Oh,1
Onorio,1
Or,1
Orïente,1
Pensa,1
Perugia,1
Però,1
Pietro,2
Poi,2
Porta,1
Povertà,1
Quando,1
Questa,1
Scalzasi,1
Silvestro,1
Soldan,1
Sole,1
Spiro,1
Tevero,1
Tu,1
Tupino,1
Ubaldo,1
U’,2
a,23
accolto,1
acerba,1
ad,3
al,7
alcun,1
alte,1
alto,1
altra,1
altri,1
amanti,1
amforismi,1
amore,1
anche,1
ancor,1
andasse,1
anni,2
aperse,1
aperta,1
apprendo,1
archimandrita,1
ardore,1
argomenta,1
aspetto,1
attenta,1
audïenza,1
avanti,1
a’,1
bara,1
barca,1
basso,1
batter,1
beato,1
ben,5
benedetto,1
buone,1
cagion,1
cagioni,1
caldo,1
candellier,1
candelo,1
canterebbe,1
capestro,1
cappe,1
cara,1
carca,1
carne,1
cerchio,1
che,28
cherubica,1
chi,8
chiuso,1
ché,2
ch’a,2
ch’ad,1
ch’al,1
ch’el,2
ch’esser,1
ch’om,1
ch’è,1
ciascuno,1
ciel,1
cielo,1
ciglia,1
civil,1
ciò,1
col,1
colle,1
collega,1
colui,4
comanda,1
comandò,1
come,3
cominciò,1
com’,3
con,7
concordia,1
conforto,1
consiglio,1
contenta,1
conversione,1
coram,1
corona,1
corpo,1
correndo,1
corrègger,1
corse,2
corte,1
corto,1
cose,1
costa,2
costante,1
costui,2
cotanto,1
creato,1
crebbe,1
croce,1
crudo,1
cui,2
cuor,1
cura,1
da,7
dal,1
danno,1
dava,1
de,4
degno,1
del,10
dentro,1
detto,1
de’,1
di,14
dica,1
dice,1
dicer,1
dietro,4
difettivi,1
diffuso,1
diletto,2
dinanzi,2
dir,1
direbbe,1
dirò,1
discende,1
discerner,1
diserra,1
dispetta,1
dispetto,1
disposò,1
dissi,2
distesa,1
distingua,1
diversi,1
dolce,1
donna,3
dove,1
dov’,1
dritto,1
dubbi,1
due,2
dura,1
dì,2
d’alto,1
d’amendue,1
d’esso,1
d’esto,1
e,39
ebbe,1
el,1
eletto,1
ella,2
era,1
erba,1
esser,4
esso,1
et,1
etterna,1
fa,2
faccendosi,1
facieno,1
famiglia,1
fanno,1
far,1
farsi,1
fatto,1
favore,1
fece,1
fede,1
ferace,1
fermossi,1
feroce,1
fertile,1
fia,1
fida,1
fine,1
fino,1
fioche,1
fi’,1
fondo,1
fornisce,1
forte,1
forza,1
fosser,1
frange,1
frati,1
freddo,1
frutto,1
fu,6
fue,1
fur,1
fé,1
gente,2
ghiotto,1
giogo,1
giovinetto,1
giuso,1
giuste,1
giva,1
già,1
gloria,1
glorïosamente,1
governa,1
gran,1
grave,1
gravò,1
grembo,1
grida,1
guerra,1
guida,1
hai,1
i,1
ignota,1
il,4
in,14
incominciar,1
indarno,1
insensata,1
intenzione,1
intra,1
invito,1
involto,1
io,3
iura,1
la,26
latte,1
le,8
legava,1
lei,1
li,4
lieti,1
lingua,1
lo,4
loco,1
lontan,1
lor,2
luce,2
lui,3
lumera,1
là,2
l’Etterno,1
l’acqua,1
l’ali,1
l’altro,1
l’amassero,1
l’amò,1
l’anima,1
l’italica,1
l’opere,1
l’orto,1
l’ovil,1
l’ozio,1
l’ultimo,1
l’umile,1
l’un,2
ma,3
maestro,1
mantener,1
mar,1
maraviglia,2
marito,1
martiro,1
meglio,1
membra,1
mente,1
mera,1
merce,1
mercede,1
meritò,1
mie,1
millecent’,1
mio,2
mirabil,1
molto,1
mondo,3
monte,1
mortali,1
morte,1
mover,1
m’avea,1
m’era,1
nacque,2
ne,3
negozio,1
nel,5
nessun,1
non,8
nostro,1
nova,1
né,4
o,1
ogne,1
oh,1
onde,3
oramai,2
ordinò,1
ove,1
pace,1
padre,2
panno,1
parer,1
parlar,1
parlato,1
parole,2
parte,1
parve,1
pastor,1
patre,1
patrïarca,1
paura,1
pecore,1
pecuglio,1
pende,1
pensier,1
pensieri,1
per,16
perché,1
perch’,2
però,2
piace,1
piacer,1
piacque,1
piange,1
pianse,1
pianta,1
più,8
poche,1
poco,1
poi,1
porta,1
portarno,1
poscia,1
poverella,1
preclara,1
predicò,1
pregiando,1
prende,1
prendi,1
prese,1
presenza,1
pria,2
prima,1
primo,2
principi,1
privata,1
proceda,1
proprio,1
provedenza,1
punto,1
puoi,1
puote,1
pusillo,1
qual,3
quale,1
quando,1
quanto,2
quei,1
quel,3
quella,2
quelle,1
questa,1
queste,1
questi,1
questo,2
qui,1
quinci,1
quindi,1
raccomandò,1
raggio,1
rattezza,1
rede,1
redimita,1
redissi,1
regalmente,1
regnar,1
regno,1
religïone,1
remote,1
resplendo,1
revoche,1
ricchezza,1
ricerna,1
rietro,1
riguardando,1
rimase,1
rubare,1
sacerdozio,1
salti,1
sangue,1
santa,1
santi,1
sanza,1
sapïenza,1
sasso,1
scalzasi,1
scalzò,1
scheggia,1
sciolto,1
scura,1
se,5
seconda,1
secondo,1
segno,1
segue,1
seguendo,1
seguiro,1
sembianti,1
sen,2
sente,1
sentir,2
senti’,1
serafico,1
sete,1
sguardo,1
si,13
sicura,2
sigillo,2
silogismi,1
sofismi,1
sole,1
son,4
sorridendo,1
sortillo,1
spanda,1
spirital,1
splendore,1
sposa,2
sposo,1
stare,1
stata,1
sterna,1
stette,1
stringonsi,1
su,1
sua,8
sue,3
suo,8
suoi,1
suon,1
superba,1
suso,2
sé,1
sì,8
s’affaticava,1
s’era,1
s’impingua,2
tal,1
talvolta,1
tanta,1
tanto,2
tardo,1
temono,1
terra,2
ti,1
tornando,1
tornano,1
tornato,1
trarlo,1
troppo,2
trovare,1
trovò,1
tua,2
tuo,1
tuoi,1
tutte,1
tutto,2
udir,1
un,2
unito,1
uno,1
uopo,1
u’,1
va,1
vada,1
vagabunde,1
valse,2
vaneggia,1
vanno,1
vedrai,1
vedra’,1
venerabile,1
ver’,1
viltà,1
vinto,1
virtute,1
vita,1
vivanda,1
voce,1
voglia,2
voler,1
volle,2
vuole,1
vòte,1
è,4
’l,5
’n,1
