Ad,1
Anselmo,1
Augustin,1
Bagnoregio,1
Ben,2
Bonaventura,1
Calaroga,1
Casal,1
Chiesa,1
Come,1
Crisostomo,1
Cristo,4
Degno,1
Dei,1
Di,1
Dio,2
Domenico,1
Donato,1
E,1
Europa,1
Fede,1
Felice,1
Giovacchino,1
Giovanna,1
Illuminato,1
In,1
Io,1
Iunone,1
I’,1
La,1
L’amor,1
L’essercito,1
Ma,1
Mangiadore,1
Natàn,1
Non,1
Noè,1
Oh,1
Ostïense,1
Pietro,2
Poi,3
Rabano,1
San,1
Santa,1
Se,1
Spano,1
Spesse,1
Sì,1
Taddeo,1
Tomma,1
Tommaso,1
Ugo,1
Vittore,1
Zefiro,1
a,27
abate,1
ad,4
addimandò,1
aiutarlo,1
al,8
altro,1
amici,1
amor,2
ancella,1
ancor,1
appostolico,1
aprire,1
arbuscelli,1
archi,1
arte,1
assai,1
atleta,1
a’,3
bella,1
ben,2
benedetta,1
benigna,1
benigno,1
biga,1
blande,1
briga,1
calavrese,1
campioni,1
campo,1
cantare,1
canto,3
capestro,1
caro,1
carta,1
catolico,1
cercasse,1
cerchio,1
che,34
chi,1
chiudere,1
chiuse,1
ch’a,1
ch’al,1
ch’alta,1
ch’amor,1
ch’era,1
ch’e’,1
ch’i’,1
ch’uno,1
ch’un’altra,1
ch’uscir,1
ch’è,1
ci,1
circa,1
circunferenza,1
circüir,1
civil,1
coarta,1
coi,1
colse,1
coltura,1
colui,1
combatter,1
come,8
cominciò,2
compagnia,1
compiute,1
com’,1
con,7
concolori,1
consiglio,1
consunse,1
contro,1
conviene,1
cor,1
cortese,1
cortesia,1
costrutto,1
costò,1
così,2
cotanto,1
creata,1
cristiana,1
crudo,1
cui,6
cura,1
da,4
dallato,1
de,12
decimas,1
degna,1
degnò,1
del,9
dentro,1
derelitta,1
desto,1
detto,2
de’,1
di,21
dice,1
dicesse,1
dico,1
diede,1
dietro,2
difese,1
dinanzi,2
dir,1
dire,1
discreto,1
dispensare,1
disvïato,1
diversi,1
diè,1
dodici,1
dolce,1
dolci,1
donna,1
dotar,1
dotato,1
dottor,1
dottrina,1
dove,2
dovea,1
dovrebbe,1
dov’,2
dritta,1
drudo,1
duca,1
due,4
d’Acquasparta,1
d’entro,1
e,38
elesse,1
elli,2
era,3
eran,1
eretici,1
errante,1
esser,3
fa,1
famiglia,1
famigliar,1
fanno,1
fare,1
fascian,1
favella,1
fece,2
fecer,1
fede,1
feo,1
fero,1
festa,1
fia,1
fiamma,1
fiammeggiarsi,1
foga,1
foglio,2
fonte,1
fori,1
forse,1
fortuna,1
fortunata,1
fosse,1
fra,1
fronde,1
frutto,1
fu,9
fugge,1
fuor,2
fé,1
fïate,1
gaudïose,1
gente,1
ghirlande,1
giro,1
gitta,1
giusti,1
già,2
giù,1
gloria,1
gran,1
grande,2
grandi,1
grazia,1
gromma,1
grosse,1
guisa,1
i,2
il,5
imbianca,1
in,10
insieme,4
interpretata,1
intra,1
inveggiar,1
io,1
iube,1
la,35
lagnerà,1
latino,1
le,8
leggerebbe,1
lei,2
leone,1
levarsi,1
li,3
libelli,1
licenza,1
lo,7
loglio,1
loro,1
luca,1
luce,3
lucemi,1
luci,1
lui,5
lunga,1
lungi,1
là,1
l’ago,1
l’agricola,1
l’altra,2
l’altro,2
l’amoroso,1
l’arca,1
l’assenso,1
l’eccellenza,1
l’estrema,1
l’impeto,1
l’infiammata,1
l’intima,1
l’officio,1
l’onde,1
l’orbita,1
l’orto,2
l’ultima,1
l’un,1
l’una,2
ma,4
madre,2
mai,1
mala,1
manifesto,1
manna,1
mano,1
meco,1
mente,1
messo,1
metropolitano,1
mi,5
militaro,1
milizia,1
mio,2
mirabile,1
mise,1
mo,1
mola,1
molto,1
mondo,3
mosse,6
moto,2
move,1
movea,1
muffa,1
muse,1
mutüa,1
nacque,1
nascendo,1
nasconde,1
ne,3
nel,3
nemici,1
ne’,1
noi,1
nomarlo,1
non,9
nostre,2
nostro,1
nove,1
novelle,1
nube,1
nutrice,1
né,1
o,2
occhi,1
offici,1
ogne,1
oh,1
onde,2
orme,1
ove,1
padre,1
paladino,1
palese,1
paralelli,1
parer,1
parlar,1
parlo,1
parola,1
parte,2
parve,1
patto,1
pauperum,1
per,16
perché,1
percosse,1
percuoter,1
piacer,1
piante,1
picciol,1
piedi,1
più,5
poi,1
popol,1
porre,1
pospuosi,1
possessivo,1
poverelli,1
poveri,1
preme,1
presaga,1
prima,2
primi,1
primo,3
prim’,1
profeta,2
profetico,1
protezion,1
provide,1
punto,1
puose,1
pur,1
quae,1
qual,3
quali,1
quando,3
quanto,1
quasi,1
quel,7
quella,2
quelle,2
questa,1
questo’,1
quetarsi,1
qui,3
quici,1
quinci,1
quivi,1
raccorse,1
ragionar,1
raro,1
rede,1
refuse,1
regna,1
reo,1
repleta,1
resistenze,1
retro,2
ricolta,1
riga,1
rispuose,1
rivestire,1
rivi,1
rose,1
rota,1
rotar,1
rïarmar,1
sacro,1
salute,1
santa,1
santo,1
scalzi,1
scrittura,1
scudo,1
se,2
sedia,1
sei,1
seme,1
sempiterne,1
sempre,2
serene,1
si,21
sia,1
siede,2
sinistra,1
soccorse,1
soggiace,1
soggioga,1
soglio,1
sol,2
sola,1
somma,1
son,4
sonno,1
sospeccioso,1
sotto,1
spirito,2
splendor,1
sponsalizie,1
sposa,1
stan,1
stella,1
sterpi,1
sua,8
sue,1
sunt,1
suo,5
suoi,2
surge,1
sì,11
s’affanna,1
s’allaga,1
s’induca,1
tacito,1
tal,2
tali,1
talvolta,1
tanto,2
tardo,1
tempo,1
tenera,1
terra,1
ti,2
tolse,1
tolta,1
torrente,1
tosto,3
tragge,1
traligna,1
tre,1
tripudio,1
trovato,1
troveria,1
tube,1
tutta,1
tutto,1
una,1
uom,1
u’,2
vacante,1
vaga,1
val,1
vapori,1
vede,1
vedrà,1
vegnon,1
vena,1
venir,1
ventiquattro,1
venuto,1
verace,1
veramente,2
vertute,1
vi,1
vide,1
vigna,1
vignaio,1
vince,1
vinse,1
vita,1
viva,1
vivamente,1
vivi,1
voce,1
voler,1
volere,1
volgermi,1
volgiensi,1
volgon,1
volse,1
volta,1
volume,1
è,8
‘Io,1
’l,5
’mperador,1
’n,1
’nsegna,1
