A,1
Bëatrice,1
Catria,1
Cefàs,1
Così,1
Cuopron,1
Damiano,1
Dentro,1
Dintorno,1
Dio,2
Donna,1
E,5
Ficca,1
Già,1
Giù,1
In,1
Io,1
La,2
Leone,1
Luce,1
Ma,3
Noi,1
Nostra,1
Né,1
Or,1
Peccator,1
Per,1
Pietro,2
Poca,1
Qual,1
Quinci,1
Quivi,1
Render,1
Santo,1
Semelè,1
Solvi,1
Spirito,1
Sì,1
S’io,1
Tra,1
Tu,1
Venne,1
Vidi,1
a,18
abisso,1
ad,1
adriano,1
al,9
alma,1
alto,1
altra,1
altre,3
altro,1
alzi,1
ammanta,1
amor,2
amore,1
anche,1
ardente,1
aspetto,1
assai,1
assomigliarsi,1
bassi,1
basta,1
beata,1
beato,1
belle,1
bellezza,1
ben,3
bestie,1
cagion,1
caldi,1
caldo,1
canta,1
cappello,1
carità,1
caro,1
casa,1
celeste,1
cener,1
centro,1
cerchiando,1
cerner,1
certo,1
che,43
chi,4
chiama,1
chiara,1
chiarità,1
chiaro,1
chieder,1
chiedi,1
chiesto,1
chiostro,1
ché,2
ch’a,2
ch’ella,1
ch’io,5
ch’i’,1
ch’ogne,1
ci,2
cibi,1
cibo,1
ciel,3
cieli,1
col,2
colei,1
color,1
colui,1
come,9
cominciar,1
cominciò,1
com’,1
con,4
concede,1
congiunta,1
conoscerebbe,1
consecrato,1
consiglio,1
consorte,1
contemplativi,1
contento,1
continüando,1
contra,1
contrapesando,1
convien,1
corte,1
costume,1
creata,1
cristallo,1
cui,2
cura,1
da,3
de,8
degno,1
del,8
dentro,2
di,14
dicea,1
diffuso,1
dimanda,1
dimandarla,1
dimando’,1
dire,2
discesi,1
disio,2
disposto,1
disse,2
diss’,1
distanti,1
divina,1
divota,1
dolce,1
donna,1
duce,1
due,2
dì,1
d’Italia,1
d’i,1
d’oro,1
d’ulivi,1
e,26
ella,1
era,1
eran,1
eretto,1
ermo,1
essenza,1
esser,2
essi,1
etterna,1
fa,3
facea,1
fammi,1
fan,1
fanno,1
faresti,1
farti,1
fatto,1
fece,2
fermarsi,1
fermo,1
fero,1
fertilemente,1
ferve,1
fessi,1
festa,1
fe’,1
fiamma,1
fiammeggiar,1
fiammeggio,1
fiammelle,1
figura,1
fisso,1
fo,1
forte,1
fosse,2
fosti,1
fredde,1
fronda,1
fu,1
fue,1
fui,1
fulgore,1
fumma,1
fu’,2
fé,1
geli,1
giacque,1
gibbo,1
giorno,1
girando,1
girarsi,1
giro,1
giuso,1
giù,2
giùe,1
governa,1
gradi,2
grado,3
gran,1
grato,1
gravi,1
grido,1
ha,2
hai,2
i,1
il,11
in,11
incominciai,1
insieme,1
intento,1
io,10
la,24
lasciai,1
lato,1
latria,1
le,6
letizia,1
leva,1
levati,1
li,8
libero,1
lievemente,1
liquor,1
liti,1
lito,1
lo,4
loco,1
loro,1
luce,3
lucerna,1
lume,2
là,1
l’allegrezza,1
l’alta,1
l’altre,1
l’altro,1
l’amor,2
l’animo,1
l’aspetto,1
l’assumma,1
l’etterno,2
l’occhio,1
l’udir,1
l’ultima,1
l’un,1
ma,3
magri,1
male,1
malizia,1
manifesta,1
manti,1
me,4
meni,1
mente,2
mercede,1
mezzo,1
mi,14
mia,6
miei,1
mio,3
misto,1
mo,1
moderni,1
modo,1
mola,1
molto,1
mondo,3
morta,1
mortal,4
mosse,1
mover,1
movono,1
munta,1
m’accenne,1
m’era,2
m’inventro,1
nascosta,1
natural,1
ne,3
nel,3
ne’,1
nol,1
non,11
nota,1
né,2
occhi,2
officio,1
ogne,4
oh,1
onde,3
ond’,3
ora,1
osserve,1
ostello,1
palafreni,1
palazzo,1
par,2
paradiso,1
pareggio,1
parola,1
parole,1
parve,1
parvente,1
passava,1
pastori,1
pastura,1
patria,1
pazïenza,1
peggio,1
pelle,1
penetrando,1
pensai,1
pensando,1
pensier,1
per,10
perché,3
percosse,1
però,1
petto,1
piedi,1
piume,1
più,12
podere,1
poi,3
pole,1
porta,1
posta,1
pote,1
potrebbe,1
predestinata,1
prendendo,1
prescrisser,1
presso,2
presta,1
presumma,1
prima,1
pronte,1
provedenza,1
pur,2
può,1
qual,1
quale,3
qualunque,1
quando,4
quand’,1
quanto,2
quant’,1
quel,9
quella,2
quelli,1
quello,1
quell’,1
questa,5
questi,1
questo,4
qui,4
quinci,2
quindi,2
quistione,1
quivi,1
raggia,1
raggio,1
rapporta,1
retro,1
ricominciommi,1
ridea,1
ridessi,1
riedi,1
rietro,1
rifissi,1
riguarda,1
rimasa,1
rincalzi,1
riso,1
risposta,1
rispuose,2
ritenne,1
ritorno,1
ritrassi,1
riveli,1
rivolgon,1
rota,1
roteando,1
sacra,1
sale,1
santa,1
sanza,1
sarebbe,1
sarà,1
sassi,1
satisfara,1
savesse,1
scala,1
scaldar,1
scale,1
scaleo,1
scalzi,1
scender,1
scendere,1
schiara,1
scisso,1
scorta,1
scoscende,1
se,1
segno,1
seguir,1
seguiva,1
sem,1
serafin,1
sermo,1
serve,1
servigio,1
settimo,1
sfavillar,1
si,13
sinfonia,1
soggiorno,1
sol,1
sola,2
solea,1
somma,1
son,2
sopra,2
sorteggia,1
sostieni,1
sotto,3
sott’,1
specchi,1
specchio,1
splende,1
splendor,1
splendore,1
sta,1
stai,1
statuto,1
sue,1
sul,1
suo,4
suole,1
suona,1
suonan,1
suono,1
surgon,1
suso,1
sé,2
sì,14
sù,1
s’accende,1
s’appunta,1
s’era,1
s’innoltra,1
tace,1
tacer,2
tal,1
tanti,1
tanto,9
temperasse,1
terra,1
terzo,1
ti,4
tolto,1
tosto,1
tra,1
traluce,1
trasmutai,1
tratto,1
travasa,1
troni,1
trono,1
tu,4
tua,4
tue,1
tuo,2
tuoi,1
tuono,1
tutto,1
t’ha,1
ubidire,1
umilmente,1
un,3
una,1
uno,1
valore,1
van,1
vanno,1
vano,1
vasello,1
vede,1
veder,2
veduto,1
vedëa,1
veggio,3
veloce,1
venne,2
vennero,1
venni,1
via,1
vid’,2
vien,1
vinse,1
virtù,1
viso,2
vista,2
vita,2
vocabol,1
voce,1
voglion,1
volto,1
v’era,1
è,6
‘Io,1
’,2
’l,8
’n,2
’nsieme,1
’ntesi,1
