A,2
Ancor,1
Beatrice,1
Bernardo,1
Così,2
Da,1
Dio,1
Donna,1
E,2
E’,1
In,1
Io,1
La,2
Li,1
Madre,1
Ne,1
Nel,2
Nettuno,1
Non,1
O,2
Oh,2
Omai,1
Or,1
Qual,2
Quella,1
Qui,1
Sibilla,1
Un,1
Vergine,1
Vinca,1
a,18
abbondante,1
accesa,1
accidenti,1
ad,2
affetti,1
al,5
ali,1
alquanto,2
alta,1
alto,1
altro,1
ami,1
ammirar,1
amore,1
ancor,2
appropinquava,1
ardito,1
arridi,1
arsi,1
aspetto,1
attenta,1
aversi,1
bagni,1
basta,1
beati,1
ben,1
benignità,1
bontate,1
caldo,1
caritate,1
cede,2
cerchio,2
cessa,1
che,42
chi,1
chiara,1
chiaro,1
chiudon,1
ché,3
ch’a,1
ch’al,1
ch’igualmente,1
ch’io,4
ch’i’,7
ch’un,1
ch’una,1
ch’è,2
circulazion,1
circunspetta,1
ciò,5
col,1
colei,1
colore,1
colori,1
colüi,1
come,6
com’,1
con,3
conceperà,1
concetta,1
concetti,1
concetto,1
conflati,1
consenta,1
conservi,1
consiglio,1
consunsi,1
contenenza,1
convenne,1
core,1
corta,1
corto,1
costume,1
così,2
cotal,2
co’,1
creatura,3
creder,1
credo,2
cui,1
da,13
davante,1
da’,1
de,5
dee,1
defettivo,1
del,5
dentro,1
desiderio,1
devoti,1
di,15
dicendo,1
dicer,1
dico,1
diletti,1
dimandar,1
dimostraro,1
dire,1
disdegnò,1
disigilla,1
disii,1
disio,1
disleghi,1
dispieghi,1
distilla,1
disïanza,1
diventa,1
dolce,1
domanda,1
dopo,2
dovea,1
d’Argo,1
d’etterno,1
d’un,1
d’una,1
e,33
effige,1
ei,1
elli,1
era,3
eran,1
essa,1
etterna,2
fa,1
face,1
faceasi,1
fantasia,1
fante,1
farsi,1
fattore,1
fattura,1
favella,1
favilla,1
ficcar,1
figlia,1
figlio,1
fine,1
finii,1
fioco,1
fiore,1
fissa,1
fissi,1
fisso,1
fo,1
foco,1
foglie,1
fontana,1
forma,1
fosse,1
fossero,1
fu,2
fui,1
fulgore,1
fuor,1
futura,1
fé,1
fïate,1
gente,1
geomètra,1
germinato,1
giri,1
giunsi,1
giuso,1
già,2
gloria,1
godo,1
grande,1
grati,1
grazia,3
guardando,1
guardassi,1
guardia,1
ha,1
i,3
igualmente,1
il,5
immobile,1
impossibil,1
impressa,1
in,13
indi,1
indige,1
infin,1
infinito,1
innanzi,1
insieme,1
intelletta,1
intendente,1
intra,1
intrava,1
io,9
iri,2
la,20
lacuna,1
largo,1
lasciare,1
le,5
legato,1
lei,3
letargo,1
levarsi,1
levi,2
li,7
liberamente,1
lingua,2
lo,5
lor,1
luce,5
lui,1
lume,5
lì,1
l’acume,1
l’alta,2
l’alto,1
l’altre,1
l’altro,2
l’amor,1
l’amore,1
l’ardor,1
l’aspetto,1
l’etterna,1
l’etterno,1
l’imago,1
l’infima,1
l’occhio,1
l’ombra,1
l’orator,1
l’ultima,1
l’umana,1
l’un,1
l’universo,2
ma,5
maggio,1
maggior,1
magnificenza,1
mai,2
mammella,1
mancò,1
mani,1
me,4
memoria,2
mente,4
meridïana,1
messo,1
mi,4
mia,8
miei,4
mio,6
mirar,1
mirava,2
misericordia,1
misurar,1
modo,1
molte,1
mortali,2
mortalità,1
mossa,1
mostra,1
move,1
movimenti,1
mutandom’,1
m’accennava,1
m’è,1
nacque,1
natura,1
ne,4
nel,3
neve,1
nobilitasti,1
nodo,1
noi,1
non,11
nostra,1
nova,1
nube,1
obietto,1
occhi,4
ogne,1
oltraggio,1
ond’,2
pace,1
parea,2
pareva,1
parevi,1
parlar,1
parve,1
parvenza,1
parvermi,1
passione,1
penne,1
pensando,1
per,19
perché,3
perch’,1
percossa,1
perdea,1
perfetto,1
però,1
piacer,1
pietate,1
pinta,1
più,10
poco,2
porgo,1
possa,3
possente,1
precorre,1
presunsi,1
prieghi,4
priego,2
principio,1
profonda,1
profondo,1
proprie,1
punto,1
puoi,1
pur,2
qual,4
quanti,1
quanto,2
quantunque,1
quasi,2
quel,4
quella,3
questi,2
questo,5
qui,2
quinci,2
quindi,1
raccese,1
raggio,2
reflesso,2
regina,1
ricorda,1
ricordo,1
ricorre,1
riede,1
rimane,1
ripresta,1
ritrova,1
rota,1
salute,1
sani,1
sanz’,1
sarei,1
sarà,1
scarsi,1
se,2
secoli,1
sembiante,1
semplice,2
sempre,2
sentenza,1
sento,1
se’,4
si,12
sidi,1
sieno,1
sincera,1
smarrito,1
soccorre,1
soffersi,1
sognando,1
sogno,1
sol,2
sola,3
sole,1
solo,1
somma,1
sommo,1
son,2
sonare,1
sorridea,1
sospesa,1
sostener,1
speranza,1
spiri,1
spiritali,1
squaderna,1
stelle,1
stesso,2
sua,4
suo,4
suoi,1
supplica,1
suso,1
sussistenza,1
sustanze,1
sé,2
sì,5
s’accoglie,1
s’addrizzaro,1
s’aduna,1
s’affige,1
s’avvalorava,1
s’era,1
s’indova,1
s’interna,1
s’invii,1
tal,5
tanto,11
te,10
termine,1
terzo,1
ti,4
tornare,1
travagliava,1
tre,2
tu,3
tua,4
tuo,2
tuoi,1
tutta,2
tutti,1
tutto,3
tutt’,1
t’intendi,1
umani,1
umile,1
un,5
una,3
universal,1
vali,1
valore,1
vede,1
veder,4
vedi,1
veduta,1
vedute,1
velle,1
venendo,1
venerati,1
venne,1
venticinque,1
vento,1
ventre,1
vera,1
versi,1
verso,1
vi,2
vidi,3
virtute,1
viso,2
vista,4
visïone,1
vite,1
vittoria,1
vivace,1
vivo,2
voglia,1
volar,1
volea,1
volere,1
voleva,1
volgersi,1
volgeva,1
volume,1
vuol,2
vuoli,1
è,12
‘poco’,1
’,1
’l,9
’mpresa,1
