non,14
io,11
disse,7
mio,6
qui,5
più,5
tutto,5
lui,5
se,4
poco,4
questo,4
suo,4
te,3
miei,3
La,3
son,3
me,3
sù,3
parte,3
ancor,3
duca,3
ciò,3
così,3
tua,3
fui,3
mia,3
fu,3
cui,3
risposta,3
dolce,3
dinanzi,3
Ma,3
quell’,3
né,3
mosse,3
fia,3
ne,3
tra,2
muro,2
maestro,2
O,2
com’,2
a’,2
veder,2
quando,2
hanno,2
questa,2
suoi,2
col,2
morta,2
Però,2
vai,2
fa,2
forse,2
però,2
el,2
Io,2
viso,2
avesse,2
man,2
Le,2
parole,2
ei,2
ben,2
Allor,2
s’altri,2
colui,2
vostro,2
ebbe,2
modo,2
letto,2
elli,2
Quando,2
altro,2
arte,2
regge,2
saprai,2
mai,2
nostro,2
mosso,2
fu’,2
altri,2
inver’,2
Ora,1
sen,1
va,1
secreto,1
calle,1
terra,1
martìri,1
dopo,1
spalle,1
virtù,1
somma,1
empi,1
giri,1
volvi,1
cominciai,1
piace,1
parlami,1
sodisfammi,1
disiri,1
gente,1
sepolcri,1
giace,1
potrebbesi,1
levati,1
tutt’,1
coperchi,1
nessun,1
guardia,1
face,1
quelli,1
Tutti,1
saran,1
serrati,1
Iosafàt,1
torneranno,1
coi,1
corpi,1
lasciati,1
Suo,1
cimitero,1
Epicuro,1
tutti,1
seguaci,1
l’anima,1
corpo,1
fanno,1
dimanda,1
faci,1
quinc’,1
entro,1
satisfatto,1
sarà,1
tosto,1
disio,1
taci,1
Buon,1
tegno,1
riposto,1
cuor,1
dicer,1
m’hai,1
pur,1
mo,1
disposto,1
Tosco,1
città,1
foco,1
vivo,1
ten,1
parlando,1
onesto,1
piacciati,1
restare,1
loco,1
loquela,1
manifesto,1
nobil,1
patrïa,1
natio,1
troppo,1
molesto,1
Subitamente,1
suono,1
uscìo,1
d’una,1
l’arche,1
m’accostai,1
temendo,1
Ed,1
Volgiti,1
Che,1
fai,1
Vedi,1
Farinata,1
s’è,1
dritto,1
cintola,1
vedrai,1
avea,1
fitto,1
ed,1
s’ergea,1
petto,1
fronte,1
l’inferno,1
gran,1
dispitto,1
l’animose,1
pronte,1
pinser,1
sepulture,1
dicendo,1
tue,1
sien,1
conte,1
Com’,1
piè,1
tomba,1
guardommi,1
quasi,1
sdegnoso,1
dimandò,1
Chi,1
fuor,1
maggior,1
tui,1
ch’era,1
d’ubidir,1
disideroso,1
gliel,1
celai,1
gliel’,1
apersi,1
ond’,1
levò,1
ciglia,1
suso,1
Fieramente,1
furo,1
avversi,1
primi,1
due,1
fïate,1
dispersi,1
S’ei,1
fur,1
cacciati,1
tornar,1
d’ogne,1
rispuos’,1
l’una,1
l’altra,1
fïata,1
vostri,1
appreser,1
quell’arte,1
surse,1
vista,1
scoperchiata,1
un’ombra,1
lungo,1
infino,1
mento,1
credo,1
s’era,1
ginocchie,1
levata,1
Dintorno,1
guardò,1
talento,1
meco,1
sospecciar,1
spento,1
piangendo,1
Se,1
cieco,1
carcere,1
altezza,1
d’,1
ingegno,1
figlio,1
ov’,1
teco,1
Da,1
stesso,1
vegno,1
ch’attende,1
mena,1
Guido,1
disdegno,1
sue,1
pena,1
m’avean,1
costui,1
nome,1
piena,1
Di,1
sùbito,1
drizzato,1
gridò,1
Come,1
dicesti,1
viv’,1
ancora,1
fiere,1
occhi,1
lume,1
s’accorse,1
d’alcuna,1
dimora,1
ch’io,1
facëa,1
supin,1
ricadde,1
parve,1
fora,1
magnanimo,1
posta,1
restato,1
m’era,1
mutò,1
aspetto,1
collo,1
piegò,1
costa,1
sé,1
continüando,1
primo,1
detto,1
S’elli,1
han,1
male,1
appresa,1
tormenta,1
cinquanta,1
volte,1
raccesa,1
faccia,1
donna,1
quanto,1
pesa,1
mondo,1
dimmi,1
popolo,1
empio,1
incontr’,1
ciascuna,1
legge,1
Ond’,1
Lo,1
strazio,1
grande,1
scempio,1
fece,1
l’Arbia,1
colorata,1
rosso,1
tal,1
orazion,1
far,1
tempio,1
Poi,1
ch’ebbe,1
sospirando,1
capo,1
A,1
sol,1
certo,1
sanza,1
cagion,1
sarei,1
solo,1
dove,1
sofferto,1
ciascun,1
tòrre,1
via,1
Fiorenza,1
difesi,1
aperto,1
Deh,1
riposi,1
vostra,1
semenza,1
prega’,1
solvetemi,1
nodo,1
ha,1
’nviluppata,1
sentenza,1
El,1
par,1
voi,1
veggiate,1
odo,1
tempo,1
seco,1
adduce,1
presente,1
tenete,1
Noi,1
veggiam,1
quei,1
c’ha,1
mala,1
luce,1
cose,1
lontano,1
cotanto,1
splende,1
sommo,1
duce,1
s’appressano,1
o,1
vano,1
intelletto,1
ci,1
apporta,1
nulla,1
sapem,1
stato,1
umano,1
comprender,1
puoi,1
tutta,1
nostra,1
conoscenza,1
punto,1
futuro,1
chiusa,1
porta,1
colpa,1
compunto,1
dissi,1
Or,1
direte,1
dunque,1
caduto,1
nato,1
co’,1
vivi,1
congiunto,1
s’i’,1
dianzi,1
muto,1
fate,1
saper,1
fei,1
pensava,1
l’error,1
m’avete,1
soluto,1
richiamava,1
pregai,1
spirto,1
avaccio,1
dicesse,1
chi,1
lu’,1
istava,1
Dissemi,1
Qui,1
mille,1
giaccio,1
qua,1
dentro,1
secondo,1
Federico,1
Cardinale,1
taccio,1
Indi,1
s’ascose,1
l’antico,1
poeta,1
volsi,1
passi,1
ripensando,1
parlar,1
parea,1
nemico,1
Elli,1
andando,1
Perché,1
smarrito,1
sodisfeci,1
dimando,1
mente,1
conservi,1
ch’udito,1
hai,1
contra,1
comandò,1
saggio,1
ora,1
attendi,1
drizzò,1
dito,1
sarai,1
raggio,1
bell’,1
occhio,1
vede,1
lei,1
vita,1
vïaggio,1
Appresso,1
sinistra,1
piede,1
lasciammo,1
gimmo,1
mezzo,1
sentier,1
ch’a,1
valle,1
fiede,1
’nfin,1
facea,1
spiacer,1
lezzo,1
