non,9
su,8
ch’,7
quando,7
io,7
tutto,6
avea,6
coda,5
mio,5
più,5
disse,5
ne,5
vidi,5
d’,4
fuor,4
poco,4
o,4
m’,4
i’,4
duca,3
testa,3
faccia,3
né,3
Come,3
parte,3
far,3
Or,3
va,3
lor,3
occhi,3
piè,3
dal,3
dietro,3
Ecco,2
fiera,2
sen,2
venne,2
riva,2
trasse,2
branche,2
petto,2
Con,2
tra,2
così,2
tutta,2
via,2
destra,2
rena,2
noi,2
gente,2
loco,2
maestro,2
questa,2
ancor,2
or,2
col,2
son,2
Poi,2
viso,2
tasca,2
certo,2
quindi,2
com’,2
altra,2
suo,2
gridando,2
star,2
lui,2
l’,2
me,2
forte,2
fa,2
rote,2
sentì,2
l’aere,2
ogne,2
lenta,2
discende,2
sotto,2
aguzza,1
passa,1
monti,1
rompe,1
muri,1
l’armi,1
colei,1
mondo,1
appuzza,1
Sì,1
cominciò,1
parlarmi,1
accennolle,1
venisse,1
proda,1
vicino,1
fin,1
passeggiati,1
marmi,1
sozza,1
imagine,1
froda,1
arrivò,1
busto,1
La,1
uom,1
giusto,1
benigna,1
pelle,1
d’un,1
serpente,1
l’altro,1
fusto,1
due,1
pilose,1
insin,1
l’ascelle,1
dosso,1
ambedue,1
coste,1
dipinti,1
nodi,1
rotelle,1
color,1
sommesse,1
sovraposte,1
fer,1
mai,1
drappi,1
Tartari,1
Turchi,1
tai,1
tele,1
Aragne,1
imposte,1
talvolta,1
stanno,1
burchi,1
sono,1
acqua,1
terra,1
Tedeschi,1
lurchi,1
bivero,1
s’assetta,1
guerra,1
pessima,1
stava,1
l’orlo,1
ch’è,1
pietra,1
sabbion,1
serra,1
Nel,1
vano,1
guizzava,1
torcendo,1
sù,1
venenosa,1
forca,1
guisa,1
scorpion,1
punta,1
armava,1
Lo,1
convien,1
torca,1
nostra,1
insino,1
bestia,1
malvagia,1
colà,1
corca,1
Però,1
scendemmo,1
mammella,1
diece,1
passi,1
femmo,1
stremo,1
ben,1
cessar,1
fiammella,1
lei,1
venuti,1
semo,1
oltre,1
veggio,1
seder,1
propinqua,1
scemo,1
Quivi,1
Acciò,1
piena,1
esperïenza,1
d’esto,1
giron,1
porti,1
vedi,1
mena,1
Li,1
tuoi,1
ragionamenti,1
sian,1
corti,1
mentre,1
torni,1
parlerò,1
conceda,1
suoi,1
omeri,1
forti,1
Così,1
strema,1
settimo,1
cerchio,1
solo,1
andai,1
dove,1
sedea,1
mesta,1
Per,1
fora,1
scoppiava,1
duolo,1
qua,1
soccorrien,1
mani,1
a’,1
vapori,1
caldo,1
suolo,1
altrimenti,1
fan,1
state,1
cani,1
ceffo,1
morsi,1
pulci,1
mosche,1
tafani,1
certi,1
porsi,1
ne’,1
quali,1
doloroso,1
foco,1
casca,1
conobbi,1
alcun,1
accorsi,1
collo,1
ciascun,1
pendea,1
ch’avea,1
colore,1
segno,1
par,1
loro,1
occhio,1
pasca,1
riguardando,1
vegno,1
borsa,1
gialla,1
azzurro,1
leone,1
contegno,1
procedendo,1
sguardo,1
curro,1
vidine,1
un’,1
sangue,1
rossa,1
mostrando,1
un’oca,1
bianca,1
burro,1
d’una,1
scrofa,1
azzurra,1
grossa,1
segnato,1
sacchetto,1
bianco,1
Che,1
fai,1
fossa,1
te,1
vivo,1
anco,1
sappi,1
vicin,1
Vitaliano,1
sederà,1
qui,1
sinistro,1
fianco,1
questi,1
Fiorentin,1
padoano,1
spesse,1
fïate,1
’ntronan,1
orecchi,1
Vegna,1
cavalier,1
sovrano,1
recherà,1
tre,1
becchi,1
Qui,1
distorse,1
bocca,1
lingua,1
bue,1
naso,1
lecchi,1
temendo,1
no,1
crucciasse,1
’mmonito,1
torna’,1
anime,1
lasse,1
Trova’,1
ch’era,1
salito,1
groppa,1
fiero,1
animale,1
sie,1
ardito,1
Omai,1
scende,1
fatte,1
scale,1
monta,1
dinanzi,1
voglio,1
esser,1
mezzo,1
possa,1
male,1
Qual,1
colui,1
presso,1
ha,1
riprezzo,1
quartana,1
c’ha,1
l’unghie,1
smorte,1
triema,1
pur,1
guardando,1
rezzo,1
tal,1
divenn’,1
parole,1
porte,1
vergogna,1
fé,1
sue,1
minacce,1
innanzi,1
buon,1
segnor,1
servo,1
I’,1
m’assettai,1
quelle,1
spallacce,1
volli,1
dir,1
voce,1
credetti,1
‘,1
Fa,1
abbracce’,1
Ma,1
esso,1
volta,1
sovvenne,1
ad,1
altro,1
forse,1
tosto,1
montai,1
braccia,1
avvinse,1
sostenne,1
Gerïon,1
moviti,1
omai,1
larghe,1
scender,1
sia,1
pensa,1
nova,1
soma,1
hai,1
navicella,1
esce,1
tolse,1
ch’al,1
gioco,1
’v’,1
rivolse,1
tesa,1
anguilla,1
mosse,1
sé,1
raccolse,1
Maggior,1
paura,1
credo,1
fosse,1
Fetonte,1
abbandonò,1
freni,1
ciel,1
pare,1
cosse,1
Icaro,1
misero,1
reni,1
spennar,1
scaldata,1
cera,1
padre,1
Mala,1
tieni,1
fu,1
mia,1
spenta,1
veduta,1
fera,1
Ella,1
notando,1
rota,1
n’,1
accorgo,1
se,1
venta,1
Io,1
sentia,1
man,1
gorgo,1
orribile,1
scroscio,1
giù,1
sporgo,1
Allor,1
fu’,1
timido,1
stoscio,1
però,1
fuochi,1
senti’,1
pianti,1
ond’,1
tremando,1
raccoscio,1
ché,1
nol,1
vedea,1
davanti,1
scendere,1
girar,1
gran,1
mali,1
s’appressavan,1
diversi,1
canti,1
falcon,1
stato,1
assai,1
ali,1
sanza,1
veder,1
logoro,1
uccello,1
dire,1
falconiere,1
Omè,1
cali,1
lasso,1
onde,1
move,1
isnello,1
cento,1
lunge,1
pone,1
disdegnoso,1
fello,1
puose,1
fondo,1
Gerione,1
stagliata,1
rocca,1
discarcate,1
nostre,1
persone,1
dileguò,1
corda,1
cocca,1
