non,10
son,7
più,6
io,6
disse,5
vidi,4
verso,4
noi,4
fa,4
giù,4
pozzo,3
ripa,3
fondo,3
questo,3
prima,3
ci,3
su,3
gente,3
tutti,3
uno,3
duca,3
viso,3
l’occhio,3
se,3
altri,3
l’,3
tal,3
lui,3
col,3
color,2
Nel,2
mezzo,2
vaneggia,2
suo,2
loco,2
tra,2
dove,2
fossi,2
parte,2
quivi,2
facean,2
lor,2
luogo,2
dietro,2
destra,2
bolgia,2
qua,2
passi,2
ponte,2
hanno,2
vanno,2
l’altra,2
percosse,2
occhi,2
dissi,2
Già,2
veder,2
piedi,2
poco,2
ch’io,2
Ed,2
elli,2
me,2
I’,2
qui,2
ora,2
ciò,2
o,2
femmine,2
mia,2
scoglio,2
te,2
ancor,2
faccia,2
però,2
sanza,2
sé,2
Perché,2
ben,2
Luogo,1
inferno,1
detto,1
Malebolge,1
tutto,1
pietra,1
ferrigno,1
cerchia,1
dintorno,1
volge,1
dritto,1
campo,1
maligno,1
assai,1
largo,1
profondo,1
cui,1
dicerò,1
l’ordigno,1
Quel,1
cinghio,1
rimane,1
adunque,1
tondo,1
piè,1
l’alta,1
dura,1
ha,1
distinto,1
dieci,1
valli,1
Quale,1
guardia,1
mura,1
cingon,1
castelli,1
rende,1
figura,1
tale,1
imagine,1
quelli,1
tai,1
fortezze,1
da’,1
sogli,1
fuor,1
ponticelli,1
così,1
imo,1
roccia,1
scogli,1
movien,1
ricidien,1
argini,1
’,1
infino,1
tronca,1
raccogli,1
In,1
schiena,1
scossi,1
Gerïon,1
trovammoci,1
poeta,1
tenne,1
sinistra,1
mossi,1
A,1
man,1
nova,1
pieta,1
novo,1
tormento,1
novi,1
frustatori,1
repleta,1
erano,1
ignudi,1
peccatori,1
dal,1
venien,1
volto,1
maggiori,1
Roman,1
l’essercito,1
molto,1
l’anno,1
giubileo,1
passar,1
modo,1
colto,1
l’un,1
lato,1
fronte,1
castello,1
Santo,1
Pietro,1
sponda,1
monte,1
Di,1
sasso,1
tetro,1
demon,1
cornuti,1
gran,1
ferze,1
battien,1
crudelmente,1
retro,1
Ahi,1
levar,1
berze,1
prime,1
nessuno,1
seconde,1
aspettava,1
né,1
terze,1
Mentr’,1
andava,1
miei,1
furo,1
scontrati,1
tosto,1
costui,1
digiuno,1
Per,1
ch’ïo,1
figurarlo,1
affissi,1
dolce,1
meco,1
ristette,1
assentio,1
ch’alquanto,1
gissi,1
frustato,1
celar,1
credette,1
bassando,1
valse,1
O,1
terra,1
gette,1
fazion,1
porti,1
false,1
Venedico,1
Caccianemico,1
Ma,1
mena,1
pungenti,1
salse,1
Mal,1
volentier,1
dico,1
sforzami,1
tua,1
chiara,1
favella,1
sovvenir,1
mondo,1
antico,1
fui,1
colui,1
Ghisolabella,1
condussi,1
far,1
voglia,1
marchese,1
suoni,1
sconcia,1
novella,1
pur,1
piango,1
bolognese,1
anzi,1
n’è,1
pieno,1
tante,1
lingue,1
apprese,1
dicer,1
‘sipa’,1
Sàvena,1
Reno,1
vuoi,1
fede,1
testimonio,1
rècati,1
mente,1
nostro,1
avaro,1
seno,1
Così,1
parlando,1
demonio,1
scurïada,1
Via,1
ruffian,1
conio,1
raggiunsi,1
scorta,1
poscia,1
pochi,1
divenimmo,1
’v’,1
uscia,1
Assai,1
leggeramente,1
salimmo,1
vòlti,1
scheggia,1
quelle,1
cerchie,1
etterne,1
partimmo,1
Quando,1
fummo,1
dov’,1
el,1
sotto,1
dar,1
passo,1
sferzati,1
Attienti,1
feggia,1
quest’,1
mal,1
nati,1
ai,1
quali,1
vedesti,1
insieme,1
andati,1
Del,1
vecchio,1
guardavam,1
traccia,1
venìa,1
altra,1
banda,1
ferza,1
similmente,1
scaccia,1
buon,1
maestro,1
dimanda,1
Guarda,1
grande,1
vene,1
dolor,1
par,1
lagrime,1
spanda,1
quanto,1
aspetto,1
reale,1
ritene,1
Quelli,1
Iasón,1
cuore,1
senno,1
Colchi,1
monton,1
privati,1
féne,1
Ello,1
passò,1
l’isola,1
Lenno,1
l’ardite,1
spietate,1
maschi,1
loro,1
morte,1
dienno,1
Ivi,1
segni,1
parole,1
ornate,1
Isifile,1
ingannò,1
giovinetta,1
avea,1
tutte,1
altre,1
ingannate,1
Lasciolla,1
gravida,1
soletta,1
colpa,1
martiro,1
condanna,1
anche,1
Medea,1
vendetta,1
Con,1
sen,1
va,1
chi,1
inganna,1
basti,1
valle,1
sapere,1
assanna,1
eravam,1
’ve,1
stretto,1
calle,1
argine,1
secondo,1
s’incrocicchia,1
quello,1
ad,1
altr’,1
arco,1
spalle,1
Quindi,1
sentimmo,1
nicchia,1
ne,1
muso,1
scuffa,1
medesma,1
palme,1
picchia,1
Le,1
ripe,1
eran,1
grommate,1
d’una,1
muffa,1
l’alito,1
vi,1
s’appasta,1
naso,1
facea,1
zuffa,1
Lo,1
cupo,1
basta,1
montare,1
dosso,1
l’arco,1
ove,1
sovrasta,1
Quivi,1
venimmo,1
quindi,1
fosso,1
attuffata,1
sterco,1
uman,1
privadi,1
parea,1
mosso,1
mentre,1
cerco,1
capo,1
merda,1
lordo,1
parëa,1
s’era,1
laico,1
cherco,1
Quei,1
sgridò,1
gordo,1
riguardar,1
brutti,1
ricordo,1
t’ho,1
veduto,1
coi,1
capelli,1
asciutti,1
Alessio,1
Interminei,1
Lucca,1
t’adocchio,1
allor,1
battendosi,1
zucca,1
Qua,1
m’hanno,1
sommerso,1
lusinghe,1
ond’io,1
ebbi,1
mai,1
lingua,1
stucca,1
Appresso,1
Fa,1
pinghe,1
avante,1
attinghe,1
sozza,1
scapigliata,1
fante,1
graffia,1
l’unghie,1
merdose,1
or,1
s’accoscia,1
stante,1
Taïde,1
puttana,1
rispuose,1
drudo,1
quando,1
Ho,1
grazie,1
grandi,1
apo,1
Anzi,1
maravigliose,1
quinci,1
sien,1
nostre,1
viste,1
sazie,1
