Allor,1
Bestemmiavano,1
Caccianli,1
Caron,3
Come,1
Così,1
Dicerolti,1
Dinanzi,1
Dio,5
Diverse,1
Ed,4
Elle,1
Fama,1
Figliuol,1
Finito,1
Giustizia,1
Guai,1
Incontanente,1
La,1
Lasciate,1
Le,1
Ma,2
Maestro,4
Mischiate,1
Noi,1
Non,1
Per,1
Poi,1
Poscia,1
Queste,1
Questi,2
Questo,1
Qui,1
Quinci,2
Quivi,1
Rispuose,1
accennando,1
accenti,1
accorta,1
ad,2
alcun,1
alte,1
alti,1
alto,1
altra,2
altri,1
amore,1
anche,1
ancor,1
angeli,1
anima,2
anime,2
antico,1
appresso,1
augel,1
aura,1
avanti,1
avea,1
averei,1
avrebber,1
a’,2
bagna,1
balenò,1
bassa,1
bassi,1
batte,1
belli,1
ben,2
bianco,1
bragia,1
breve,1
bruna,1
buia,1
buona,1
caddi,1
caldo,1
campagna,1
cangiar,1
cattivi,1
cattivo,1
cenni,1
certo,1
ché,1
ch’a,1
ch’alcuna,1
ch’attende,1
ch’avea,1
ch’eran,2
ch’intrate’,1
ch’io,5
ciascun,2
cieca,1
ciel,1
cielo,1
cinta,1
città,1
ciò,1
col,1
colore,2
coloro,1
colui,1
colà,1
cominciar,1
com’,1
concedi,1
confortai,1
conobbi,1
conte,1
convegnon,1
convien,3
coro,1
correva,1
cortese,1
cose,3
costume,1
costì,1
così,1
cotesti,1
create,1
creduto,1
crucciare,1
crude,1
cui,1
c’hanno,1
denti,1
dentro,1
detto,1
dibattero,1
diede,1
diedi,1
dietro,1
dimandare,1
dimonio,1
dir,2
discerno,1
discese,1
disfatta,1
disio,1
disse,2
dissi,2
divina,2
dolente,1
dolore,2
dolorose,1
dove,1
duca,1
duol,1
duro,2
d’Acheronte,1
d’Adamo,1
d’autunno,1
d’elli,1
d’error,1
d’i,1
d’ira,1
d’ogne,3
d’un,1
d’una,1
ecco,1
elle,1
elli,3
erano,1
esser,2
etterne,2
etterno,1
fa,2
facevano,1
fastidiosi,1
fattore,1
favelle,1
fece,1
fecemi,1
fedeli,1
fermerem,1
fiamme,1
fier,1
fin,1
fioche,1
fioco,1
fiume,2
foglie,1
forte,3
fosse,1
fui,1
fuor,2
fuoro,1
fur,2
furon,1
gelo,1
gente,2
genti,2
gent’,1
girando,1
gittansi,1
giustizia,2
gloria,1
gote,1
gran,2
grave,1
greve,1
gridando,1
guai,1
guarda,1
hanno,1
ignudi,1
indegna,1
inferno,1
infino,1
insieme,1
intesi,1
io,5
isperate,1
ivi,1
i’,3
lagna,1
lagrimai,1
lagrime,1
lagrimosa,1
lamentar,1
lanose,1
lasciare,1
lassa,1
lasse,1
legno,1
levan,1
lieto,1
lieve,1
lingue,1
lito,1
livida,1
loco,2
lodo,1
lor,9
loro,2
luce,1
lui,1
lume,1
lunga,1
l’aere,1
l’altra,2
l’anime,1
l’etterno,1
l’intelletto,1
l’ira,1
l’ombra,1
l’onda,1
l’umana,1
l’una,1
l’uom,1
maestro,1
mai,3
mal,1
malvagia,1
man,1
mano,1
me,7
men,1
menarvi,1
mente,1
mia,1
mio,3
mischiato,1
mise,1
misericordia,1
misero,1
modo,1
molto,2
mondo,1
morta,1
morte,2
morti,1
mosconi,1
mosse,1
muoion,1
m’è,1
nascimenti,1
nave,1
ne,5
nemici,1
no,1
nocchier,1
noi,2
non,15
nostri,1
nude,1
nuova,1
né,2
n’avesse,1
occhi,3
odo,1
ogne,3
oltre,1
omai,1
ond’,1
or,1
orribili,1
oscuro,1
ov’,1
paese,1
palude,1
par,1
parea,1
parenti,1
parer,1
parlar,1
parole,3
partiva,1
passa,2
passare,1
passi,1
pelo,1
perduta,1
perduto,1
persona,1
però,1
piaggia,1
piangendo,1
pianti,1
piedi,1
piglia,1
più,2
podestate,1
porta,1
porti,2
posa,1
prave,1
primo,1
profondo,1
pronte,1
pronti,1
puoi,1
puose,1
puote,1
pàrtiti,1
qua,1
quali,1
qualunque,1
quando,2
quante,1
quelli,1
quell’,2
questa,1
questo,1
quete,1
qui,3
raccoglie,1
ragioniam,1
ramo,1
ratta,1
ratto,1
rei,1
remo,1
rena,1
ribelli,1
riceve,1
richiamo,1
ricolto,1
riconosciuto,1
rifiuto,1
rigavan,1
riguardai,1
riguardar,1
rio,1
risonavan,1
ritrasser,1
riva,3
riviera,1
rote,1
sangue,1
sanza,4
sapere,1
sappia,1
sapïenza,1
schiera,1
sciaurati,1
scritte,1
sdegna,1
se,2
segrete,1
seme,2
semenza,1
sempre,1
sen,1
senso,1
sentimento,1
setta,1
sia,1
siam,1
sien,1
similemente,1
somma,1
sommo,1
son,2
sonno,1
sono,3
sorte,1
sospetto,1
sospiri,1
spavento,1
speranza,2
spezie,1
spiacenti,1
spira,1
spoglie,1
sprona,1
stelle,1
stimolati,1
su,2
sudore,1
sue,1
sui,1
suo,2
suon,1
suona,1
sé,1
s’adagia,1
s’aggira,1
s’auna,1
tanta,1
te,1
tegnon,1
tema,1
teme,1
temendo,1
tempo,2
tenebre,1
terra,2
testa,1
tinta,1
tra,1
trapassar,2
trassi,1
tratta,1
tremò,1
trista,1
triste,1
tumulto,1
turbo,1
tutte,3
tutti,1
t’ho,1
uom,1
va,3
vanno,1
vecchio,1
vede,1
veder,1
vedrai,1
vegno,1
venir,1
vento,1
venuti,1
venìa,1
vergognosi,1
vermi,1
vermiglia,1
verrai,1
verso,1
vespe,1
via,1
vide,1
vidi,3
vid’,1
viltade,1
viltà,1
vinse,1
vinta,1
visser,1
vita,1
viva,1
vivi,1
voci,1
voi,2
volto,2
volve,1
vuole,1
vuolsi,1
v’ebbi,1
ïo,1
‘Per,1
’nfamia,1
’nsegna,1
’nteser,1
’ntorno,1
’nvidïosi,1
