Bacchiglione,1
Bene,1
Brenta,1
Bruggia,1
Brunetto,3
Carentana,1
Ciò,1
Così,1
Di,1
Ed,2
El,1
Faccian,1
Fiamminghi,1
Fiesole,1
Fortuna,2
Francesco,1
Gente,1
Già,1
Guizzante,1
In,1
Io,1
I’,1
La,1
Latino,1
Lo,1
Là,1
Ma,1
Non,1
Né,1
O,2
Ora,1
Padoan,1
Però,1
Poi,1
Priscian,1
Pur,1
Qual,2
Quali,1
Quanto,1
Roman,1
Saper,1
Se,2
Siete,1
Sieti,1
Tanto,1
Tesoro,1
Vecchia,1
Verona,1
ab,1
abbrusciato,1
ad,2
adocchiato,1
aduggia,1
aguzzavan,1
allora,1
alti,1
altri,1
altro,2
anche,1
ancor,1
ancora,3
andar,2
anni,1
antico,1
anzi,2
argini,1
arra,1
arrivo,1
arrostarsi,1
ascolta,1
aspetto,1
avanti,1
avara,1
avranno,1
avrei,1
avuto,1
a’,1
bando,1
becco,1
bella,1
ben,2
benigno,1
bestie,1
braccio,1
brama,1
buona,1
buono,1
ca,1
caldo,1
calle,1
cammino,1
campagna,1
capo,1
cara,1
castelli,1
cen,1
cent’,1
cheggio,1
cherci,1
chi,3
chiama,1
chinando,1
chino,1
chiosar,1
ché,3
ch’a,1
ci,1
ciascuna,1
cielo,1
ciglia,1
coloro,1
colui,2
cominciò,1
compagni,1
com’,1
conforto,1
conoscenza,1
conosciuto,1
convien,1
corrono,1
corso,1
corto,1
coscïenza,1
costoro,1
costui,1
costumi,1
così,1
cotal,1
cotto,1
cruna,1
cui,1
dai,1
dal,3
danni,1
dato,1
deggio,1
destino,1
destra,1
de’,2
dietro,3
difender,1
difese,1
dimando,2
direi,1
discese,1
disconvien,1
dispiaccia,1
disse,2
dissi,1
distese,1
dolce,1
donna,1
dove,1
dov’,1
drappo,1
duri,1
dì,1
d’Accorso,1
d’Arno,1
d’alcuno,1
d’anime,1
d’un,1
ed,1
elli,2
eran,1
eravam,1
esser,2
etterni,1
fa,2
faccia,1
fallire,1
fama,2
fame,1
famiglia,1
fanno,1
far,1
farà,1
faròl,1
fatti,1
fatto,1
feggia,1
fia,2
ficcaï,1
fico,1
fiesolane,1
figliuol,2
fiotto,1
fitta,1
foco,2
forbi,1
fortuna,2
fosse,3
fossi,2
fruttare,1
fu,2
fuggia,1
fui,1
fummo,2
fur,1
félli,1
garra,1
gent’,1
giace,1
giri,1
giù,1
glorïoso,1
gota,1
grado,1
grama,1
gran,1
grandi,1
greggia,1
gridò,1
grossi,1
guardare,1
ier,1
imagine,2
incontrammo,1
ingrato,1
invidiosa,1
io,8
i’,1
lascia,1
lasciò,1
laudabile,1
lazzi,1
lei,1
lembo,1
lerci,1
letame,1
lingua,1
litterati,1
lor,6
lui,4
luna,1
lungi,1
lungo,3
l’abbia,1
l’acqua,1
l’altra,1
l’argine,1
l’erba,1
l’età,1
l’opera,1
l’ultimo,1
l’umana,1
l’un,1
l’una,1
l’uom,1
macigno,1
maestro,2
mal,1
maligno,1
malizia,1
manifesto,1
mano,1
mar,1
maraviglia,1
margini,1
marra,1
masnada,1
mattina,1
me,3
medesme,1
medesmo,1
men,1
mena,1
mente,1
mentr’,1
mia,4
miei,1
mio,6
mondo,3
monte,1
morto,1
mostra,1
m’accora,1
m’accorsi,1
m’apparve,1
m’asseggia,1
m’insegnavate,1
m’è,1
narrate,1
natura,1
ne,3
nervi,1
nido,1
nimico,1
noi,1
non,13
nota,1
noti,1
nuova,2
nuovo,1
né,2
o,1
occhi,1
oltre,1
onor,1
or,1
ora,2
orbi,1
orecchi,1
osava,1
panni,1
par,1
parlando,1
parte,1
parve,2
paterna,1
peccato,1
perch’,1
perde,1
però,2
piace,2
piangendo,1
pianta,1
piena,1
pieno,1
più,5
poco,1
popolo,1
porta,1
porto,1
posso,1
posto,1
potei,1
preco,1
prese,1
presto,1
protesi,1
punto,1
puoi,1
pur,1
può,1
qua,1
quale,1
quali,1
quando,5
quant’,1
quelli,3
quello,1
questa,1
questi,2
questo,1
que’,1
qui,1
raccomandato,1
ragion,1
reducemi,1
reverente,1
rigiugnerò,1
riguardava,1
riguardommi,1
rimaser,1
rimossi,1
rispuosi,1
rispuos’,2
ritorna,1
riviva,1
rivolse,1
rivolto,1
rota,1
ruscel,1
sabbione,1
salva,1
santa,1
sanz’,1
sappi,1
saprà,1
sareste,1
saria,1
sartor,1
scender,1
scerna,1
schermo,1
schiera,1
scrivo,1
se,4
seco,1
segui,1
selva,1
sementa,1
sen,1
senta,1
ser,2
sera,1
serba,1
serbolo,1
serena,1
sermone,1
servi,1
servo,1
sia,1
smarri’,1
somma,1
sommi,1
son,1
sono,1
sopra,2
sorbi,1
sotto,1
spalle,1
stella,1
strada,1
strame,1
su,1
suo,1
suoi,2
suol,1
suono,1
superba,1
surge,1
surger,1
sù,1
süa,1
s’a,1
s’alcuna,1
s’arresta,1
s’avessi,1
s’avventa,1
s’etterna,1
s’io,1
tacerci,1
tal,2
tale,1
tanta,1
te,2
teco,1
temendo,1
tempo,2
tenea,1
testo,1
tiene,1
tigna,1
tocchin,1
tornand’,1
tra,2
traccia,1
trasmutato,1
tua,2
tuo,1
turba,1
tutti,1
tutto,2
t’avrei,1
uno,1
uom,1
va,3
vada,1
valle,1
vecchio,1
vedervi,1
veggendo,1
veggio,1
ven,1
venian,1
venire,1
verde,1
verrò,1
ver’,1
vi,2
vien,1
villan,1
ville,1
vince,1
viso,1
visto,1
vita,2
vivo,2
vo,1
vogl’,1
voi,4
volete,1
volse,1
volsi,1
vommi,1
vuol,1
ïo,1
’ntelletto,1
’nver,1
