Acciò,1
Ahi,1
Alichino,1
Allor,2
Barbariccia,1
Bonturo,1
Cagnazzo,1
Calcabrina,1
Caprona,1
Cercate,1
Che,1
Cirïatto,1
Con,1
Così,1
Coverto,1
Credi,1
Del,1
Draghignazzo,1
Ed,1
Ei,1
Farfarello,1
Graffiacane,1
Guarda,1
Ier,1
Innanzi,1
Io,1
I’,2
Lascian’,1
Libicocco,1
Lo,1
Là,1
L’omero,1
Ma,1
Malacoda,2
Malebolge,1
Malebranche,1
Mentr’,1
Mettetel,1
Nessun,1
Non,2
O,2
Omai,1
Omè,1
Per,2
Però,1
Più,1
Poi,2
Posa,1
Poscia,1
Quale,1
Quel,1
Qui,1
Rubicante,1
Santa,1
Santo,1
Scarmiglione,1
Se,1
Serchio,1
Sì,1
Tra’ti,1
Tutti,1
Vada,1
Viniziani,1
Volto,1
Vuo’,1
Zita,1
accaffi,1
accocchi,1
accorto,1
acerbo,1
aguto,1
altra,1
altri,5
altrimenti,2
altro,2
altrui,1
ambo,1
anche,1
andar,2
andatevene,1
andianci,1
anni,1
anzïan,1
aperte,1
approda,1
arte,1
artimon,1
attuffare,1
avante,3
avanti,1
avea,2
avean,1
a’,2
balli,1
baratta,1
barattier,1
ben,1
boglienti,1
bolle,2
bollia,1
bollor,1
buon,1
buona,1
buttò,1
caduto,1
caldaia,1
cammin,1
cani,1
cantar,1
carcava,1
carne,1
cascar,1
cenno,1
cento,1
cheggio,1
chi,5
chiede,1
chinavan,1
ché,2
ch’alcun,1
ch’ei,1
ch’era,2
ch’escono,1
ch’e’,3
ch’io,2
ch’un,1
ch’uscivan,1
ci,1
ciascun,1
cielo,1
ciglia,1
cinqu’,1
ciò,1
co,1
coi,1
col,1
colmo,1
comedìa,1
cominciò,1
compié,1
compressa,1
com’,1
consigli,1
conte,1
contra,1
convien,2
convolto,1
coperchio,1
correndo,1
cose,1
coste,1
costor,1
così,1
cotanti,1
cui,2
cul,1
cuoci,1
cura,1
dal,1
decina,1
deh,1
demon,1
demonio,1
denar,1
denti,2
destro,1
de’,2
diavol,1
diavoli,1
dicendo,2
diceva,1
dienno,1
dietro,1
digrignan,1
digrignar,1
dire,1
disse,6
disser,1
diss’,1
divino,1
divin’,1
dolenti,1
dopo,1
dosso,1
dov’,1
duca,5
dugento,1
duoli,1
duro,1
d’arruncigliarmi,1
d’aver,1
d’ogne,1
ecco,1
ed,1
el,2
elli,4
essa,1
esser,1
fa,4
face,1
fanno,2
fanti,1
far,1
fato,1
fatta,1
fatto,1
fece,1
fecer,1
fello,1
fermi,1
fero,1
feruto,1
fessura,1
fisamente,1
foco,1
fondo,1
fornita,1
fretta,1
fronte,1
fu,4
fuggire,1
fui,1
fuor,1
furo,1
furore,1
galli,1
ghermito,1
giace,1
gite,1
giunse,1
giuso,1
giù,3
gliel’,1
gonfiar,1
graffi,1
gridar,1
gridaron,1
gridò,1
groppone,1
grotta,1
guarda,1
guidi,1
ha,1
ho,1
indugia,1
infino,1
intero,1
io,3
ir,1
iscoglio,1
ita,1
lasciali,1
lasciò,1
leggero,1
legni,1
legno,1
lei,1
lessi,1
levava,1
lingua,1
loco,2
lor,6
lui,3
lungo,1
l’addentar,1
l’ali,1
l’altra,1
l’altro,2
l’anche,1
l’andare,1
l’arco,1
l’argine,1
l’arzanà,1
l’aspetto,1
l’atto,1
l’inverno,1
l’orgoglio,1
l’un,2
l’uncin,1
l’uncino,1
l’uom,1
maestro,3
mai,2
mando,1
mastino,1
me,4
mestier,1
mezzo,1
mia,1
miei,1
mille,1
minaccian,1
mio,5
mirabilmente,1
mirava,1
mosse,1
mossi,1
mostri,1
m’accostai,1
m’oda,1
nascosamente,1
navicar,1
ne,5
nemici,1
nerbo,1
nero,1
no,1
noi,2
non,20
nostri,1
nostro,1
novo,1
nulla,1
nuota,1
n’è,1
occhi,1
offension,1
ogn’,1
oltre,3
omai,1
ore,1
oscura,1
otta,1
ove,1
paia,1
pane,1
parea,1
parlando,1
parte,1
partire,1
passò,1
patteggiati,1
patto,1
paura,1
paventi,1
pazzo,1
peccator,1
pece,1
pegola,2
perch’,1
persona,1
però,1
piace,1
pianti,1
piedi,1
pigli,1
piè,2
più,3
ponno,1
ponte,6
ponticello,1
poppa,1
posa,1
poverello,1
presso,1
presto,1
prima,1
proda,1
puoi,1
pur,2
può,1
quando,1
quanto,1
quant’,1
quatto,2
quei,2
questa,1
questi,1
questo,2
quest’,1
qui,4
raffi,2
ratto,1
rei,1
remi,1
restammo,1
ribatte,1
riedi,1
riguardar,1
rimpalmare,1
rintoppa,1
ripa,2
riseder,1
rispondien,1
ristoppa,1
rotta,1
runcigli,1
salvi,1
sani,1
sannuto,1
sanza,2
saranno,1
sarte,1
sa’,1
scheggio,2
scheggion,1
schermi,1
schermo,1
sciolto,1
sciorina,1
scoglio,3
scorta,1
se,5
seguitar,1
sei,1
sembianza,1
senno,1
sermone,1
sessanta,1
sesta,1
sesto,1
sgagliarda,1
sia,4
sian,1
sicura,1
sicuramente,1
sicuro,1
siedi,1
silvestro,1
sinistro,1
soli,1
sopra,1
sotto,2
soverchio,1
sovra,2
spessa,1
spezzato,1
stava,1
stetter,1
stretta,1
su,3
sul,1
suo,2
suoli,1
superbo,1
sé,2
sù,1
sùbita,1
sùbito,1
s’alcun,1
s’arresta,1
s’attuffò,1
tal,2
tane,1
tanta,1
tarda,1
temer,2
temetti,1
tempesta,1
tenace,1
tenavamo,1
tenea,2
tenesser,1
terra,1
terzeruolo,1
tocchi,1
torceva,1
torno,1
tornò,1
tra,2
traggasi,1
trasse,1
trombetta,1
tutta,2
tutti,2
tutto,3
tutt’,1
t’acquatta,1
t’aia,1
uncin,1
uno,1
uom,1
usciron,1
va,1
vani,1
vassalli,1
vece,1
vedea,1
veder,3
vedermi,1
vedi,1
vedëa,1
veggendo,1
veggio,1
vegn’,1
venimmo,1
venire,1
venne,1
venni,1
venuto,1
verso,2
vi,2
via,2
vidi,1
vidila,1
vid’,1
voi,2
voler,1
volge,1
volse,2
volser,1
volsi,1
volta,2
voluto,1
vostri,1
vostro,1
vo’,1
vuo’,1
vïaggi,1
v’è,1
ïo,1
’ntorno,1
’nviscava,1
