Ahi,1
Alichin,1
Aretini,1
Barbariccia,3
Cagnazzo,1
Calcabrina,1
Chi,1
Cirïatto,1
Come,1
Così,1
Danar,1
Di,1
Domanda,1
Draghignazzo,1
Ed,1
Farfarello,1
Fatti,1
Fu,1
Gallura,1
Gomita,1
Graffiacan,1
Io,1
Irato,1
I’,4
Lascisi,1
Libicocco,1
Lo,4
Logodoro,1
Lombardi,1
Ma,2
Maestro,1
Malebranche,1
Malizioso,1
Mia,1
Michel,1
Navarra,1
Navarrese,1
Noi,1
O,2
Odi,1
Omè,1
Ond’,1
Or,1
Poi,1
Pur,1
Quand’,1
Rubicante,1
Sardigna,1
Se,2
State,1
Tebaldo,1
Toschi,1
Tra,1
Troppo,1
Tu,1
Usa,1
Zanche,1
ad,2
alcun,3
allato,1
alleggiar,1
allor,1
altri,4
altrimenti,1
amendue,1
anche,2
anco,2
ancor,2
andavam,1
andò,1
appresso,1
arruncigliò,1
artigli,1
artigliar,1
aspettar,1
assai,1
attesi,1
avanzar,1
avem,1
aver,1
avieno,1
avversari,1
a’,2
balena,1
baratteria,1
barattier,2
batterò,1
ben,2
bene,1
bocca,1
bogliente,1
bolgia,1
bollori,1
botto,1
braccia,1
braccio,1
buffa,1
buon,1
cadder,1
cagion,1
caldo,2
cali,1
campane,1
campar,1
campasse,1
campo,1
capo,1
castella,1
cavalier,2
celano,1
cennamella,1
cenni,1
cesso,1
chi,1
chiamaro,1
chiesa,1
chiome,1
chiuse,1
ché,1
ch’a,1
ch’altri,1
ch’ancor,1
ch’avea,1
ch’ebbe,1
ch’ei,1
ch’elli,1
ch’ello,1
ch’entro,1
ch’eran,1
ch’e’,1
ch’io,2
ch’una,1
ciascun,3
ciò,1
coi,2
col,2
collo,1
colpa,1
colse,1
colui,1
cominciare,1
compagnia,1
compagno,1
compunto,1
com’,3
conosci,1
contegno,1
contra,1
coperto,1
cor,1
correr,1
corridor,1
cose,2
costa,2
costà,1
così,5
cotal,1
cotti,1
crollando,1
crosta,1
crucciato,1
crudo,1
cui,2
dal,1
dalfini,1
dar,1
decurio,1
demoni,1
dentro,1
de’,1
dice,1
diece,1
dietro,2
difetto,1
digrigna,1
dimoro,1
dir,1
direi,1
discesero,1
disfaccia,1
disii,1
disparito,1
disse,6
distruggitor,1
diversa,1
divizia,1
di’,1
dolente,1
domandollo,1
domandò,1
donno,2
dosso,2
drizzò,1
duca,3
dunque,1
dì,1
d’ogne,3
d’un,3
ed,1
ei,4
eletti,1
elli,2
esso,1
e’,1
fa,2
faccia,1
facesti,1
falcon,1
famiglia,1
fanno,1
far,2
fare,2
farò,2
fedir,1
fedire,1
ferita,1
fermò,1
fiera,1
fori,1
fosse,1
fosso,2
foss’,1
frate,1
froda,1
fu,8
fue,1
fui,2
fuori,1
fuoro,1
fuorono,1
fé,3
gambe,1
gatte,1
generato,1
gente,1
ghermito,1
ghiottoni,1
giostra,1
gir,1
gittarsi,1
giunto,1
giuso,2
giù,1
gran,2
grattarmi,1
gridavan,1
gridò,1
grifagno,1
grosso,1
gualdane,1
gualoppo,1
ha,1
incesa,1
insieme,1
intorno,2
invaghito,1
inviscate,1
io,9
istrane,1
i’,2
lacciuoli,1
lacerto,1
lasciammo,1
lasciolli,1
latino,1
leggi,1
legno,1
levarsi,1
levò,1
lingue,1
loco,1
loda,1
lontra,1
lor,7
loro,2
ludo,1
lui,6
l’acqua,1
l’ali,3
l’altra,3
l’altro,3
l’anitra,1
l’arco,1
l’orlo,1
l’una,1
madre,1
maestro,1
maggior,1
mal,1
mala,1
maladetti,1
male,1
malizia,1
malvagio,1
man,1
mano,1
marinar,1
me,1
men,1
mentr’,1
mette,1
metti,1
mezzo,1
mia,2
mio,4
mirava,1
misi,1
mosse,1
mostra,1
mostrav’,1
motto,1
muover,2
muso,2
m’avea,1
nascondea,1
nato,1
nave,1
ne,7
neente,1
nemici,1
noi,2
nome,1
non,10
nostrali,1
nostro,1
notai,1
nuovo,1
né,4
n’accapriccia,1
o,4
occhi,2
offici,1
ogne,1
onde,1
ond’,1
parte,2
partii,1
partir,1
partita,1
parve,1
peccatori,2
pece,2
pedoni,1
pegola,1
pena,1
pensata,1
però,2
petto,1
piano,1
piante,1
picciol,1
piedi,1
piglio,2
più,5
poco,4
porco,1
porser,1
portò,1
posta,1
potevo,1
preseli,1
prestamente,1
prima,2
procuro,1
proda,1
proposto,2
punto,1
puoi,1
puose,1
pur,1
qua,1
quando,5
quand’,2
quanti,1
quattro,1
quei,4
quelli,2
questo,2
quivi,1
raffi,1
ragione,1
rana,1
ranocchi,1
rappaciati,1
re,1
regno,1
rendo,1
ribaldo,1
ricominciò,1
rii,1
rimane,1
rintoppo,1
ripa,1
rispuose,3
ritorna,1
ritraén,1
rotto,1
runciglio,1
saltò,1
sanna,1
santi,1
sanza,1
sapea,1
saper,1
sappi,1
scampo,1
schiena,1
sciagurato,1
sciolse,1
scudo,1
scuoi,1
sdruscia,1
se,4
seggendo,1
segno,2
segnor,1
sentir,1
sentono,1
servo,1
sette,1
sghermitor,1
sia,2
sofferto,1
sol,1
son,2
sopra,1
sorco,1
sospetto,1
sotto,3
sovra,1
sovrano,1
sparvier,1
spaürato,1
spiccia,1
stagno,1
stanche,1
stanno,1
stavan,1
stella,1
stesso,1
stieno,1
stormo,1
stracciando,1
stralunava,1
sue,2
suffolerò,1
suo,3
suoi,2
suso,1
sé,1
sù,2
sùbito,1
s’accostò,1
s’apparecchi,1
s’appressa,1
s’appressava,1
s’argomentin,1
s’attuffa,1
talor,1
talvolta,1
tamburi,1
taverna,1
teman,1
temerei,1
temo,1
tempo,1
tenne,2
terra,3
tigna,1
tolse,1
torneamenti,1
trassel,1
trestizia,1
trombe,1
troppo,1
tutti,2
tutt’,1
uccello,1
udirai,1
udire,1
uncini,1
uncino,1
unghia,1
unghioni,1
uno,1
uscia,1
uso,1
vali,1
valse,1
vasel,1
veder,2
vedere,1
vedete,1
vendette,1
venir,1
venire,2
venuto,2
verrò,1
verso,1
vicino,1
vidi,5
voi,1
volando,2
volar,1
volete,1
volle,1
volse,4
vostra,1
vòlto,1
v’era,1
zuffa,1
’mpacciati,1
’mpaniati,1
’mpegolate,1
’ncontra,1
’nforco,1
’ntesa,1
