e,39
che,32
la,30
a,24
di,18
’l,15
in,13
non,13
io,11
per,10
è,10
mi,9
sì,9
da,8
più,8
chi,7
si,7
del,7
me,6
tu,6
se,6
al,5
come,5
li,5
era,5
mio,5
una,5
disse,5
le,5
quella,4
de,4
ne,3
sanza,3
mente,3
mia,3
lo,3
viso,3
dinanzi,3
Io,3
con,3
terra,3
ti,3
corpo,3
possa,3
gente,3
ché,3
lor,3
vi,3
rotta,3
Or,3
man,3
maestro,3
là,3
un,3
tutti,3
lei,3
ma,3
questa,3
color,2
monte,2
i’,2
lui,2
montagna,2
sé,2
o,2
suoi,2
prima,2
ciel,2
dietro,2
de’,2
volsi,2
tutto,2
ch’io,2
già,2
dov’,2
quale,2
innanzi,2
fa,2
noi,2
infinita,2
tre,2
dico,2
altri,2
qui,2
piè,2
sa,2
va,2
E,2
mentre,2
suso,2
i,2
ver’,2
puoi,2
allora,2
buon,2
quando,2
ripa,2
ben,2
incominciò,2
voi,2
l’andare,2
tempo,2
Come,2
due,2
l’altre,2
ciò,2
faccia,2
dal,2
lume,2
visto,2
Costanza,2
quei,2
ha,2
Avvegna,1
subitana,1
fuga,1
dispergesse,1
campagna,1
rivolti,1
ove,1
ragion,1
fruga,1
ristrinsi,1
fida,1
compagna,1
sare’,1
corso,1
m’avria,1
tratto,1
su,1
El,1
parea,1
stesso,1
rimorso,1
dignitosa,1
coscïenza,1
netta,1
t’è,1
picciol,1
fallo,1
amaro,1
morso,1
Quando,1
piedi,1
lasciar,1
fretta,1
l’onestade,1
ad,1
ogn’,1
atto,1
dismaga,1
ristretta,1
’ntento,1
rallargò,1
vaga,1
diedi,1
incontr’,1
poggio,1
’nverso,1
alto,1
dislaga,1
Lo,1
sol,1
fiammeggiava,1
roggio,1
rotto,1
m’era,1
figura,1
ch’avëa,1
raggi,1
l’appoggio,1
dallato,1
paura,1
d’,1
essere,1
abbandonato,1
quand’,1
vidi,1
solo,1
oscura,1
conforto,1
Perché,1
pur,1
diffidi,1
dir,1
cominciò,1
rivolto,1
credi,1
teco,1
guidi,1
Vespero,1
colà,1
sepolto,1
dentro,1
facea,1
ombra,1
Napoli,1
l’ha,1
Brandizio,1
tolto,1
Ora,1
nulla,1
s’aombra,1
maravigliar,1
d’i,1
cieli,1
l’uno,1
l’altro,1
raggio,1
ingombra,1
A,1
sofferir,1
tormenti,1
caldi,1
geli,1
simili,1
corpi,1
Virtù,1
dispone,1
vuol,1
ch’a,1
sveli,1
Matto,1
spera,1
nostra,1
ragione,1
trascorrer,1
via,1
tiene,1
sustanza,1
persone,1
State,1
contenti,1
umana,1
quia,1
potuto,1
aveste,1
veder,1
mestier,1
parturir,1
Maria,1
disïar,1
vedeste,1
frutto,1
tai,1
sarebbe,1
disio,1
quetato,1
ch’etternalmente,1
dato,1
lutto,1
d’Aristotile,1
Plato,1
molt’,1
chinò,1
fronte,1
rimase,1
turbato,1
Noi,1
divenimmo,1
intanto,1
quivi,1
trovammo,1
roccia,1
erta,1
’ndarno,1
sarien,1
gambe,1
pronte,1
Tra,1
Lerice,1
Turbìa,1
diserta,1
ruina,1
scala,1
verso,1
agevole,1
aperta,1
qual,1
costa,1
cala,1
fermando,1
passo,1
salir,1
sanz’ala,1
ch’e’,1
tenendo,1
basso,1
essaminava,1
cammin,1
mirava,1
intorno,1
sasso,1
sinistra,1
m’apparì,1
d’anime,1
movieno,1
pareva,1
venïan,1
lente,1
Leva,1
diss’,1
occhi,1
tuoi,1
ecco,1
qua,1
darà,1
consiglio,1
te,1
medesmo,1
aver,1
nol,1
Guardò,1
libero,1
piglio,1
rispuose,1
Andiamo,1
ch’,1
ei,1
vegnon,1
piano,1
ferma,1
spene,1
dolce,1
figlio,1
Ancora,1
quel,1
popol,1
lontano,1
dopo,1
nostri,1
mille,1
passi,1
quanto,1
gittator,1
trarria,1
mano,1
strinser,1
ai,1
duri,1
massi,1
l’alta,1
stetter,1
fermi,1
stretti,1
com’,1
guardar,1
dubbiando,1
stassi,1
O,1
finiti,1
spiriti,1
eletti,1
Virgilio,1
pace,1
ch’i’,1
credo,1
s’aspetti,1
ditene,1
dove,1
giace,1
possibil,1
sia,1
perder,1
spiace,1
pecorelle,1
escon,1
chiuso,1
stanno,1
timidette,1
atterrando,1
l’occhio,1
muso,1
fanno,1
addossandosi,1
s’ella,1
s’arresta,1
semplici,1
quete,1
’mperché,1
sanno,1
vid’,1
muovere,1
venir,1
testa,1
mandra,1
fortunata,1
allotta,1
pudica,1
onesta,1
vider,1
luce,1
destro,1
canto,1
l’ombra,1
grotta,1
restaro,1
trasser,1
alquanto,1
venieno,1
appresso,1
sappiendo,1
perché,1
fenno,1
altrettanto,1
Sanza,1
vostra,1
domanda,1
confesso,1
questo,1
uman,1
vedete,1
sole,1
fesso,1
Non,1
maravigliate,1
credete,1
virtù,1
vegna,1
cerchi,1
soverchiar,1
parete,1
Così,1
degna,1
Tornate,1
intrate,1
dunque,1
coi,1
dossi,1
faccendo,1
insegna,1
loro,1
Chiunque,1
se’,1
così,1
andando,1
volgi,1
pon,1
vedesti,1
unque,1
guardail,1
fiso,1
biondo,1
bello,1
gentile,1
aspetto,1
l’un,1
cigli,1
colpo,1
avea,1
diviso,1
Quand’,1
fui,1
umilmente,1
disdetto,1
d’averlo,1
mai,1
el,1
vedi,1
mostrommi,1
piaga,1
sommo,1
petto,1
Poi,1
sorridendo,1
son,1
Manfredi,1
nepote,1
imperadrice,1
ond’,1
priego,1
riedi,1
vadi,1
bella,1
figlia,1
genitrice,1
l’onor,1
Cicilia,1
d’Aragona,1
dichi,1
vero,1
s’altro,1
dice,1
Poscia,1
ebbi,1
persona,1
punte,1
mortali,1
rendei,1
piangendo,1
volontier,1
perdona,1
Orribil,1
furon,1
peccati,1
miei,1
bontà,1
gran,1
braccia,1
prende,1
rivolge,1
Se,1
pastor,1
Cosenza,1
caccia,1
fu,1
messo,1
Clemente,1
avesse,1
Dio,1
letta,1
l’ossa,1
sarieno,1
ancora,1
co,1
ponte,1
presso,1
Benevento,1
sotto,1
guardia,1
grave,1
mora,1
bagna,1
pioggia,1
move,1
il,1
vento,1
fuor,1
regno,1
quasi,1
lungo,1
Verde,1
e’,1
trasmutò,1
spento,1
Per,1
maladizion,1
perde,1
tornar,1
l’etterno,1
amore,1
speranza,1
fior,1
verde,1
Vero,1
contumacia,1
more,1
Santa,1
Chiesa,1
ancor,1
ch’al,1
fin,1
penta,1
star,1
convien,1
fore,1
ognun,1
ch’elli,1
stato,1
trenta,1
sua,1
presunzion,1
tal,1
decreto,1
corto,1
prieghi,1
diventa,1
Vedi,1
oggimai,1
far,1
lieto,1
revelando,1
buona,1
m’hai,1
anco,1
esto,1
divieto,1
molto,1
s’,1
avanza,1
