non,14
mio,6
me,6
ciel,5
o,5
occhi,5
io,5
lui,5
ad,5
ché,5
più,4
fu,4
com’,4
son,4
lei,4
dove,3
Ma,3
miei,3
fuor,3
petto,3
tutto,3
mai,3
fui,3
poco,3
vi,3
ch’è,3
tua,3
noi,3
acque,2
omai,2
dietro,2
sé,2
degno,2
qui,2
morta,2
sante,2
cui,2
color,2
primo,2
Lo,2
l’altro,2
polo,2
vidi,2
quattro,2
ch’a,2
gente,2
oh,2
quelle,2
Com’,2
onde,2
presso,2
vista,2
a’,2
suoi,2
sol,2
Chi,2
fiume,2
diss’,2
fa,2
duca,2
mani,2
Poscia,2
donna,2
costui,2
esser,2
puote,2
te,2
vide,2
altra,2
questa,2
Or,2
vita,2
ove,2
andar,2
grazie,2
se,2
giù,2
piacque,2
elli,2
imo,2
pianta,2
sia,2
qua,2
Per,1
correr,1
miglior,1
alza,1
vele,1
navicella,1
ingegno,1
lascia,1
mar,1
crudele,1
canterò,1
secondo,1
regno,1
l’umano,1
spirito,1
purga,1
salire,1
diventa,1
poesì,1
resurga,1
Muse,1
vostro,1
sono,1
Calïopè,1
alquanto,1
surga,1
seguitando,1
canto,1
suono,1
Piche,1
misere,1
sentiro,1
colpo,1
tal,1
disperar,1
perdono,1
Dolce,1
d’orïental,1
zaffiro,1
s’accoglieva,1
sereno,1
aspetto,1
mezzo,1
puro,1
infino,1
giro,1
ricominciò,1
diletto,1
tosto,1
ch’io,1
usci’,1
l’aura,1
m’avea,1
contristati,1
bel,1
pianeto,1
d’amar,1
conforta,1
faceva,1
rider,1
l’orïente,1
velando,1
Pesci,1
ch’erano,1
scorta,1
I’,1
volsi,1
man,1
destra,1
puosi,1
mente,1
stelle,1
viste,1
prima,1
Goder,1
pareva,1
lor,1
fiammelle,1
settentrïonal,1
vedovo,1
sito,1
privato,1
mirar,1
loro,1
sguardo,1
partito,1
volgendo,1
Carro,1
sparito,1
veglio,1
solo,1
tanta,1
reverenza,1
dee,1
padre,1
alcun,1
figliuolo,1
Lunga,1
barba,1
pel,1
bianco,1
mista,1
portava,1
capelli,1
simigliante,1
de’,1
quai,1
cadeva,1
doppia,1
lista,1
Li,1
raggi,1
luci,1
fregiavan,1
faccia,1
lume,1
vedea,1
fosse,1
davante,1
siete,1
voi,1
contro,1
cieco,1
fuggita,1
avete,1
pregione,1
etterna,1
el,1
movendo,1
oneste,1
piume,1
v’ha,1
guidati,1
lucerna,1
uscendo,1
profonda,1
notte,1
sempre,1
nera,1
valle,1
inferna,1
Son,1
leggi,1
d’abisso,1
così,1
rotte,1
mutato,1
novo,1
consiglio,1
dannati,1
venite,1
mie,1
grotte,1
allor,1
diè,1
piglio,1
parole,1
cenni,1
reverenti,1
fé,1
gambe,1
ciglio,1
rispuose,1
Da,1
venni,1
scese,1
prieghi,1
mia,1
compagnia,1
sovvenni,1
tuo,1
voler,1
spieghi,1
nostra,1
condizion,1
ell’,1
vera,1
nieghi,1
Questi,1
l’ultima,1
sera,1
follia,1
molto,1
tempo,1
volger,1
Sì,1
dissi,1
mandato,1
esso,1
campare,1
lì,1
via,1
quale,1
i’,1
messo,1
Mostrata,1
ho,1
tutta,1
ria,1
ora,1
intendo,1
mostrar,1
quelli,1
spirti,1
purgan,1
sotto,1
balìa,1
l’ho,1
tratto,1
saria,1
lungo,1
dirti,1
l’alto,1
scende,1
virtù,1
m’aiuta,1
conducerlo,1
vederti,1
udirti,1
piaccia,1
gradir,1
venuta,1
libertà,1
va,1
cercando,1
cara,1
sa,1
chi,1
rifiuta,1
Tu,1
sai,1
amara,1
Utica,1
morte,1
lasciasti,1
vesta,1
ch’al,1
gran,1
dì,1
sarà,1
chiara,1
Non,1
editti,1
etterni,1
guasti,1
questi,1
vive,1
Minòs,1
lega,1
cerchio,1
casti,1
Marzia,1
ancor,1
priega,1
santo,1
tegni,1
suo,1
amore,1
adunque,1
piega,1
Lasciane,1
tuoi,1
sette,1
regni,1
riporterò,1
d’,1
mentovato,1
degni,1
Marzïa,1
mentre,1
fu’,1
allora,1
quante,1
volse,1
fei,1
dal,1
mal,1
dimora,1
muover,1
può,1
legge,1
fatta,1
quando,1
n’usci’,1
fora,1
muove,1
regge,1
di’,1
c’è,1
mestier,1
lusinghe,1
bastisi,1
ben,1
richegge,1
Va,1
dunque,1
ricinghe,1
d’un,1
giunco,1
schietto,1
lavi,1
viso,1
ch’ogne,1
sucidume,1
quindi,1
stinghe,1
converria,1
l’occhio,1
sorpriso,1
d’alcuna,1
nebbia,1
dinanzi,1
ministro,1
quei,1
paradiso,1
Questa,1
isoletta,1
intorno,1
colà,1
batte,1
l’onda,1
porta,1
giunchi,1
sovra,1
molle,1
limo,1
null’,1
facesse,1
fronda,1
indurasse,1
aver,1
però,1
percosse,1
seconda,1
vostra,1
reddita,1
mosterrà,1
surge,1
prendere,1
monte,1
lieve,1
salita,1
Così,1
sparì,1
sù,1
levai,1
sanza,1
parlare,1
ritrassi,1
drizzai,1
El,1
cominciò,1
Figliuol,1
segui,1
passi,1
volgianci,1
dichina,1
pianura,1
termini,1
bassi,1
L’alba,1
vinceva,1
l’ora,1
mattutina,1
fuggia,1
innanzi,1
lontano,1
conobbi,1
tremolar,1
marina,1
Noi,1
andavam,1
solingo,1
piano,1
om,1
torna,1
perduta,1
strada,1
’nfino,1
essa,1
pare,1
ire,1
vano,1
Quando,1
fummo,1
’ve,1
rugiada,1
pugna,1
col,1
sole,1
essere,1
parte,1
orezza,1
dirada,1
ambo,1
su,1
l’erbetta,1
sparte,1
soavemente,1
maestro,1
pose,1
ond’,1
accorto,1
arte,1
porsi,1
ver’,1
guance,1
lacrimose,1
ivi,1
fece,1
discoverto,1
l’,1
inferno,1
nascose,1
Venimmo,1
sul,1
lito,1
diserto,1
navicar,1
sue,1
omo,1
tornar,1
poscia,1
esperto,1
Quivi,1
cinse,1
altrui,1
maraviglia,1
scelse,1
l’umile,1
cotal,1
rinacque,1
subitamente,1
l’avelse,1
