più,13
io,11
non,11
se,7
ne,6
noi,6
inver’,5
me,5
quando,5
esser,5
Che,5
cose,4
così,4
ad,4
mio,4
son,4
pur,4
occhi,4
o,3
su,3
parve,3
mia,3
fu,3
dolce,3
padre,3
diss’,3
quanto,3
Ed,3
hai,3
spera,2
sempre,2
guisa,2
pareva,2
vespero,2
qui,2
mezza,2
notte,2
raggi,2
andavamo,2
prima,2
specchio,2
raggio,2
parte,2
dal,2
luce,2
viso,2
Non,2
Poi,2
fummo,2
disse,2
men,2
Noi,2
’,2
Lo,2
suso,2
lui,2
dir,2
a’,2
vi,2
ben,2
mente,2
Com’,2
faccia,2
sé,2
bene,2
sù,2
com’,2
corpo,2
quantunque,2
l’etterno,2
l’altro,2
dicer,2
vedere,2
verso,2
ciò,2
m’apparve,2
Se,2
cui,2
tanta,2
lei,2
chi,2
quello,2
sonno,2
gambe,2
dimandai,2
poco,2
Quanto,1
tra,1
l’ultimar,1
l’ora,1
terza,1
principio,1
dì,1
par,1
fanciullo,1
scherza,1
sera,1
essere,1
sol,1
suo,1
corso,1
rimaso,1
ferien,1
mezzo,1
naso,1
girato,1
monte,1
dritti,1
l’occaso,1
quand’,1
senti’,1
gravar,1
fronte,1
splendore,1
assai,1
stupor,1
m’eran,1
conte,1
ond’,1
levai,1
mani,1
cima,1
mie,1
ciglia,1
fecimi,1
solecchio,1
soverchio,1
visibile,1
lima,1
Come,1
l’acqua,1
salta,1
l’opposita,1
salendo,1
modo,1
parecchio,1
scende,1
diparte,1
cader,1
pietra,1
igual,1
tratta,1
mostra,1
esperïenza,1
arte,1
rifratta,1
quivi,1
dinanzi,1
percosso,1
fuggir,1
vista,1
ratta,1
posso,1
schermar,1
vaglia,1
pare,1
mosso,1
maravigliar,1
s’ancor,1
t’abbaglia,1
famiglia,1
cielo,1
rispuose,1
messo,1
viene,1
invitar,1
ch’om,1
saglia,1
Tosto,1
sarà,1
ch’a,1
veder,1
queste,1
fia,1
grave,1
fieti,1
diletto,1
natura,1
sentir,1
dispuose,1
giunti,1
l’angel,1
benedetto,1
lieta,1
voce,1
Intrate,1
quinci,1
scaleo,1
vie,1
altri,1
eretto,1
montavam,1
partiti,1
linci,1
‘Beati,1
misericordes,1
fue,1
cantato,1
retro,1
‘Godi,1
vinci,1
maestro,1
soli,1
amendue,1
pensai,1
andando,1
prode,1
acquistar,1
parole,1
sue,1
dirizza’mi,1
dimandando,1
volse,1
spirto,1
Romagna,1
‘divieto’,1
‘consorte’,1
menzionando,1
Per,1
ch’elli,1
Di,1
maggior,1
magagna,1
conosce,1
danno,1
però,1
s’ammiri,1
riprende,1
piagna,1
Perché,1
s’appuntano,1
vostri,1
disiri,1
dove,1
compagnia,1
scema,1
invidia,1
move,1
mantaco,1
sospiri,1
Ma,1
l’amor,1
supprema,1
torcesse,1
disiderio,1
vostro,1
sarebbe,1
petto,1
tema,1
ché,1
quanti,1
dice,1
lì,1
‘nostro’,1
possiede,1
ciascuno,1
caritate,1
arde,1
chiostro,1
Io,1
d’esser,1
contento,1
digiuno,1
fosse,1
pria,1
taciuto,1
dubbio,1
aduno,1
puote,1
ch’un,1
distributo,1
posseditor,1
ricchi,1
pochi,1
posseduto,1
elli,1
Però,1
rificchi,1
terrene,1
vera,1
tenebre,1
dispicchi,1
Quello,1
infinito,1
ineffabil,1
corre,1
amore,1
lucido,1
vene,1
Tanto,1
dà,1
trova,1
d’ardore,1
carità,1
stende,1
cresce,1
sovr’,1
essa,1
valore,1
quanta,1
gente,1
s’intende,1
v’è,1
amare,1
s’ama,1
l’uno,1
rende,1
ragion,1
disfama,1
vedrai,1
Beatrice,1
ed,1
ella,1
pienamente,1
torrà,1
questa,1
ciascun’,1
altra,1
brama,1
Procaccia,1
tosto,1
sieno,1
spente,1
due,1
cinque,1
piaghe,1
richiudon,1
dolente,1
voleva,1
‘Tu,1
m’appaghe’,1
vidimi,1
giunto,1
girone,1
tacer,1
fer,1
luci,1
vaghe,1
Ivi,1
visïone,1
estatica,1
sùbito,1
tratto,1
tempio,1
persone,1
donna,1
l’entrar,1
atto,1
madre,1
Figliuol,1
fatto,1
Ecco,1
dolenti,1
tuo,1
cercavamo,1
tacque,1
dispario,1
Indi,1
un’altra,1
quell’,1
acque,1
giù,1
gote,1
dolor,1
distilla,1
gran,1
dispetto,1
altrui,1
nacque,1
sire,1
villa,1
nome,1
ne’,1
dèi,1
lite,1
onde,1
ogne,1
scïenza,1
disfavilla,1
vendica,1
te,1
quelle,1
braccia,1
ardite,1
ch’abbracciar,1
nostra,1
figlia,1
Pisistràto,1
segnor,1
parea,1
benigno,1
mite,1
risponder,1
temperato,1
farem,1
mal,1
disira,1
quei,1
ci,1
ama,1
condannato,1
vidi,1
genti,1
accese,1
foco,1
d’ira,1
pietre,1
giovinetto,1
ancider,1
forte,1
gridando,1
Martira,1
martira,1
vedea,1
chinarsi,1
morte,1
l’aggravava,1
terra,1
facea,1
ciel,1
porte,1
orando,1
l’alto,1
Sire,1
guerra,1
perdonasse,1
suoi,1
persecutori,1
aspetto,1
pietà,1
diserra,1
Quando,1
l’anima,1
tornò,1
fori,1
fuor,1
vere,1
riconobbi,1
miei,1
falsi,1
errori,1
duca,1
potea,1
far,1
om,1
slega,1
puoi,1
tenere,1
venuto,1
lega,1
velando,1
avvolte,1
vino,1
piega,1
O,1
m’ascolte,1
dirò,1
furon,1
tolte,1
ei,1
avessi,1
cento,1
larve,1
sovra,1
sarian,1
chiuse,1
tue,1
cogitazion,1
Ciò,1
vedesti,1
scuse,1
d’aprir,1
core,1
l’acque,1
pace,1
fonte,1
diffuse,1
face,1
guarda,1
l’occhio,1
vede,1
disanimato,1
giace,1
darti,1
forza,1
piede,1
frugar,1
conviensi,1
pigri,1
lenti,1
usar,1
lor,1
vigilia,1
riede,1
andavam,1
attenti,1
oltre,1
potean,1
allungarsi,1
contra,1
serotini,1
lucenti,1
ecco,1
farsi,1
oscuro,1
né,1
loco,1
cansarsi,1
Questo,1
tolse,1
l’aere,1
puro,1
