non,17
più,11
me,7
ne,7
se,6
or,5
io,5
Ma,4
lei,4
sé,4
mia,4
Dio,4
o,4
son,4
te,4
rispuose,3
et,3
donna,3
suo,3
quando,3
occhi,3
tosto,3
disse,3
ad,3
com’,3
sanza,3
voi,3
chi,3
colpa,3
mente,3
tua,3
quanto,3
voglia,3
fa,3
dolce,2
donne,2
Bëatrice,2
quelle,2
foco,2
videbitis,2
mie,2
tutte,2
sette,2
solo,2
terra,2
Vien,2
disposto,2
Sì,2
fui,2
omai,2
Come,2
dinanzi,2
maggior,2
essa,2
voglio,2
fu,2
Non,2
tempo,2
veggio,2
stelle,2
perch’,2
’ntelletto,2
così,2
parole,2
ch’è,2
vista,2
volte,2
fatto,2
Per,2
acqua,2
mio,2
detto,2
sovra,2
vostra,2
parola,2
veggi,2
mai,2
Letè,2
gente,2
questa,2
qui,2
bella,2
‘Deus,1
venerunt,1
gentes’,1
alternando,1
tre,1
quattro,1
salmodia,1
incominciaro,1
lagrimando,1
sospirosa,1
pia,1
ascoltava,1
fatta,1
poco,1
croce,1
cambiò,1
Maria,1
l’altre,1
vergini,1
dier,1
loco,1
dir,1
levata,1
dritta,1
pè,1
colorata,1
‘Modicum,1
iterum,1
sorelle,1
dilette,1
modicum,1
vos,1
me’,1
Poi,1
mise,1
innanzi,1
dopo,1
accennando,1
mosse,1
savio,1
ristette,1
Così,1
sen,1
giva,1
credo,1
fosse,1
decimo,1
passo,1
posto,1
percosse,1
tranquillo,1
aspetto,1
s’io,1
parlo,1
teco,1
ascoltarmi,1
sie,1
ben,1
dovëa,1
seco,1
dissemi,1
Frate,1
t’attenti,1
domandarmi,1
venendo,1
meco,1
color,1
troppo,1
reverenti,1
parlando,1
sono,1
traggon,1
voce,1
viva,1
ai,1
denti,1
avvenne,1
intero,1
suono,1
incominciai,1
Madonna,1
bisogna,1
conoscete,1
ciò,1
ch’ad,1
buono,1
Ed,1
ella,1
Da,1
tema,1
vergogna,1
disviluppe,1
parli,1
om,1
sogna,1
Sappi,1
vaso,1
serpente,1
ruppe,1
n’ha,1
creda,1
vendetta,1
teme,1
suppe,1
sarà,1
tutto,1
reda,1
l’aguglia,1
lasciò,1
penne,1
carro,1
divenne,1
mostro,1
poscia,1
preda,1
ch’io,1
certamente,1
però,1
narro,1
darne,1
propinque,1
secure,1
d’ogn’,1
intoppo,1
d’ogne,1
sbarro,1
quale,1
cinquecento,1
diece,1
cinque,1
messo,1
anciderà,1
fuia,1
gigante,1
delinque,1
forse,1
narrazion,1
buia,1
Temi,1
Sfinge,1
men,1
persuade,1
lor,1
modo,1
attuia,1
fier,1
fatti,1
Naiade,1
solveranno,1
questo,1
enigma,1
forte,1
danno,1
pecore,1
biade,1
Tu,1
nota,1
porte,1
queste,1
segna,1
a’,1
vivi,1
viver,1
correre,1
morte,1
aggi,1
scrivi,1
celar,1
hai,1
pianta,1
due,1
dirubata,1
quivi,1
Qualunque,1
ruba,1
schianta,1
bestemmia,1
offende,1
l’uso,1
creò,1
santa,1
morder,1
pena,1
disio,1
cinquemilia,1
anni,1
l’anima,1
prima,1
bramò,1
colui,1
morso,1
punio,1
Dorme,1
’ngegno,1
tuo,1
estima,1
singular,1
cagione,1
esser,1
eccelsa,1
travolta,1
cima,1
stati,1
fossero,1
d’Elsa,1
pensier,1
vani,1
intorno,1
piacer,1
loro,1
Piramo,1
gelsa,1
tante,1
circostanze,1
solamente,1
giustizia,1
l’interdetto,1
conosceresti,1
l’arbor,1
moralmente,1
pietra,1
impetrato,1
tinto,1
t’abbaglia,1
lume,1
anco,1
scritto,1
almen,1
dipinto,1
porti,1
dentro,1
quello,1
reca,1
bordon,1
palma,1
cinto,1
cera,1
suggello,1
figura,1
impressa,1
trasmuta,1
segnato,1
cervello,1
veduta,1
disïata,1
vola,1
perde,1
s’aiuta,1
Perché,1
conoschi,1
scuola,1
c’hai,1
seguitata,1
dottrina,1
può,1
seguitar,1
via,1
divina,1
distar,1
cotanto,1
discorda,1
ciel,1
alto,1
festina,1
Ond’,1
rispuosi,1
ricorda,1
stranïasse,1
né,1
honne,1
coscïenza,1
rimorda,1
ricordar,1
puoi,1
sorridendo,1
rammenta,1
bevesti,1
ancoi,1
dal,1
fummo,1
s’argomenta,1
cotesta,1
oblivïon,1
chiaro,1
conchiude,1
altrove,1
attenta,1
Veramente,1
oramai,1
saranno,1
nude,1
converrassi,1
scovrire,1
rude,1
corusco,1
lenti,1
passi,1
teneva,1
sole,1
cerchio,1
merigge,1
qua,1
aspetti,1
fassi,1
s’affisser,1
s’affigge,1
va,1
iscorta,1
trova,1
novitate,1
sue,1
vestigge,1
fin,1
d’un’ombra,1
smorta,1
sotto,1
foglie,1
verdi,1
rami,1
nigri,1
suoi,1
freddi,1
rivi,1
l’alpe,1
porta,1
Dinanzi,1
esse,1
Ëufratès,1
Tigri,1
veder,1
parve,1
uscir,1
d’una,1
fontana,1
quasi,1
amici,1
dipartirsi,1
pigri,1
O,1
luce,1
gloria,1
umana,1
dispiega,1
principio,1
lontana,1
cotal,1
priego,1
Priega,1
Matelda,1
dica,1
dislega,1
Questo,1
altre,1
cose,1
dette,1
sicura,1
l’acqua,1
gliel,1
nascose,1
Forse,1
cura,1
spesse,1
memoria,1
priva,1
fatt’,1
ha,1
oscura,1
vedi,1
Eünoè,1
diriva,1
menalo,1
esso,1
usa,1
tramortita,1
virtù,1
ravviva,1
anima,1
gentil,1
scusa,1
altrui,1
segno,1
fuor,1
dischiusa,1
preso,1
mossesi,1
Stazio,1
donnescamente,1
lui,1
S’io,1
avessi,1
lettor,1
lungo,1
spazio,1
scrivere,1
i’,1
pur,1
cantere’,1
parte,1
ber,1
m’avria,1
sazio,1
piene,1
carte,1
ordite,1
cantica,1
seconda,1
lascia,1
ir,1
fren,1
l’arte,1
Io,1
ritornai,1
santissima,1
onda,1
rifatto,1
piante,1
novelle,1
rinovellate,1
novella,1
fronda,1
puro,1
salire,1
