e,36
che,27
la,19
a,18
di,17
per,15
le,15
non,13
’l,12
più,11
li,11
mi,9
il,9
si,8
è,8
con,7
io,7
in,6
sì,6
del,6
E,6
ben,5
quella,5
com’,4
noi,4
de,4
alcun,4
un,4
disse,4
ad,4
i,4
son,4
dentro,3
ché,3
l’occhio,3
se,3
ne,3
me,3
ma,3
mai,3
quei,3
da,3
dal,3
ciel,3
tutto,3
sanz’,3
eran,3
su,3
cui,3
porta,3
quell’,3
fé,3
fuor,2
suo,2
cominciò,2
quanto,2
qui,2
lo,2
poi,2
parole,2
tenne,2
sol,2
Questa,2
Di,2
fui,2
era,2
quel,2
loco,2
però,2
fa,2
onde,2
fiere,2
erano,2
ciascuna,2
ch’i’,2
al,2
tutte,2
viso,2
maestro,2
ed,2
elli,2
stessi,2
ancor,2
O,2
voi,2
d’un,2
pien,2
dinanzi,2
fuggir,2
ove,2
innanzi,2
fin,2
ch’a,2
terra,2
così,2
parea,2
man,2
d’ogne,2
tra,2
lor,2
Quel,1
color,1
viltà,1
pinse,1
veggendo,1
duca,1
mio,1
tornare,1
volta,1
tosto,1
novo,1
ristrinse,1
Attento,1
fermò,1
uom,1
ch’ascolta,1
nol,1
potea,1
menare,1
lunga,1
l’aere,1
nero,1
nebbia,1
folta,1
Pur,1
converrà,1
vincer,1
punga,1
el,1
Tal,1
s’offerse,1
Oh,1
tarda,1
ch’altri,1
giunga,1
I’,1
vidi,1
ei,1
ricoperse,1
cominciar,1
l’altro,1
venne,1
fur,1
prime,1
diverse,1
nondimen,1
paura,1
dir,1
dienne,1
perch’,1
traeva,1
parola,1
tronca,1
forse,1
peggior,1
sentenzia,1
In,1
questo,1
fondo,1
trista,1
conca,1
discende,1
primo,1
grado,1
pena,1
ha,1
speranza,1
cionca,1
question,1
fec’,1
rado,1
incontra,1
rispuose,1
faccia,1
cammino,1
qual,1
vado,1
Ver,1
ch’altra,1
fïata,1
qua,1
giù,1
congiurato,1
Eritón,1
cruda,1
richiamava,1
l’ombre,1
a’,1
corpi,1
sui,1
poco,1
carne,1
nuda,1
ch’ella,1
fece,1
intrar,1
dentr’,1
muro,1
trarne,1
spirto,1
cerchio,1
Giuda,1
Quell’,1
basso,1
oscuro,1
lontan,1
gira,1
so,1
cammin,1
ti,1
sicuro,1
palude,1
gran,1
puzzo,1
spira,1
cigne,1
dintorno,1
città,1
dolente,1
u’,1
potemo,1
intrare,1
omai,1
ira,1
altro,1
l’ho,1
mente,1
m’avea,1
tratto,1
ver’,1
l’alta,1
torre,1
cima,1
rovente,1
dove,1
punto,1
furon,1
dritte,1
ratto,1
tre,1
furïe,1
infernal,1
sangue,1
tinte,1
membra,1
feminine,1
avieno,1
atto,1
idre,1
verdissime,1
cinte,1
serpentelli,1
ceraste,1
avien,1
crine,1
tempie,1
avvinte,1
conobbe,1
meschine,1
regina,1
l’etterno,1
pianto,1
Guarda,1
feroci,1
Erine,1
Quest’,1
Megera,1
sinistro,1
canto,1
piange,1
destro,1
Aletto,1
Tesifón,1
nel,1
mezzo,1
tacque,1
tanto,1
Con,1
l’unghie,1
fendea,1
petto,1
battiensi,1
palme,1
gridavan,1
alto,1
strinsi,1
poeta,1
sospetto,1
Vegna,1
Medusa,1
farem,1
smalto,1
dicevan,1
riguardando,1
giuso,1
mal,1
vengiammo,1
Tesëo,1
l’assalto,1
Volgiti,1
’n,1
dietro,1
tien,1
chiuso,1
Gorgón,1
mostra,1
tu,1
vedessi,1
nulla,1
sarebbe,1
tornar,1
suso,1
Così,1
volse,1
mie,1
mani,1
sue,1
chiudessi,1
ch’avete,1
’ntelletti,1
sani,1
mirate,1
dottrina,1
s’asconde,1
sotto,1
velame,1
versi,1
strani,1
già,1
venìa,1
torbide,1
fracasso,1
suon,1
spavento,1
tremavano,1
amendue,1
sponde,1
altrimenti,1
fatto,1
vento,1
impetüoso,1
avversi,1
ardori,1
fier,1
selva,1
rattento,1
rami,1
schianta,1
abbatte,1
fori,1
polveroso,1
va,1
superbo,1
pastori,1
Li,1
occhi,1
sciolse,1
Or,1
drizza,1
nerbo,1
schiuma,1
antica,1
indi,1
fummo,1
acerbo,1
Come,1
rane,1
nimica,1
biscia,1
l’acqua,1
dileguan,1
s’abbica,1
vid’,1
mille,1
anime,1
distrutte,1
ch’al,1
passo,1
passava,1
Stige,1
piante,1
asciutte,1
Dal,1
volto,1
rimovea,1
aere,1
grasso,1
menando,1
sinistra,1
spesso,1
angoscia,1
lasso,1
Ben,1
m’accorsi,1
ch’elli,1
messo,1
volsimi,1
segno,1
queto,1
inchinassi,1
esso,1
Ahi,1
disdegno,1
Venne,1
una,1
verghetta,1
l’aperse,1
v’ebbe,1
ritegno,1
cacciati,1
gente,1
dispetta,1
l’orribil,1
soglia,1
ond’,1
esta,1
oltracotanza,1
s’alletta,1
Perché,1
recalcitrate,1
voglia,1
puote,1
esser,1
mozzo,1
volte,1
v’ha,1
cresciuta,1
doglia,1
Che,1
giova,1
fata,1
dar,1
cozzo,1
Cerbero,1
vostro,1
vi,1
ricorda,1
pelato,1
mento,1
gozzo,1
Poi,1
rivolse,1
strada,1
lorda,1
motto,1
sembiante,1
d’omo,1
altra,1
cura,1
stringa,1
morda,1
colui,1
davante,1
movemmo,1
piedi,1
inver’,1
sicuri,1
appresso,1
sante,1
Dentro,1
’ntrammo,1
alcuna,1
guerra,1
ch’avea,1
riguardar,1
disio,1
condizion,1
tal,1
fortezza,1
serra,1
intorno,1
invio,1
veggio,1
ogne,1
grande,1
campagna,1
piena,1
duolo,1
tormento,1
rio,1
Sì,1
come,1
Arli,1
Rodano,1
stagna,1
Pola,1
presso,1
Carnaro,1
ch’Italia,1
chiude,1
suoi,1
termini,1
bagna,1
fanno,1
sepulcri,1
tutt’,1
varo,1
facevan,1
quivi,1
parte,1
salvo,1
modo,1
v’era,1
amaro,1
avelli,1
fiamme,1
sparte,1
quali,1
accesi,1
ferro,1
chiede,1
verun’,1
arte,1
Tutti,1
coperchi,1
sospesi,1
n’uscivan,1
duri,1
lamenti,1
parean,1
miseri,1
d’offesi,1
Maestro,1
quai,1
quelle,1
genti,1
seppellite,1
arche,1
fan,1
sentir,1
coi,1
sospiri,1
dolenti,1
quelli,1
Qui,1
eresïarche,1
seguaci,1
setta,1
molto,1
credi,1
tombe,1
carche,1
Simile,1
simile,1
sepolto,1
monimenti,1
men,1
caldi,1
destra,1
fu,1
vòlto,1
passammo,1
martìri,1
alti,1
spaldi,1
