inferno,1,3
inferno,2,6
inferno,3,5
inferno,4,5
inferno,5,9
inferno,6,5
inferno,7,6
inferno,8,5
inferno,9,2
inferno,10,7
inferno,11,2
inferno,12,6
inferno,13,8
inferno,14,8
inferno,15,3
inferno,16,2
inferno,17,8
inferno,18,3
inferno,19,7
inferno,20,4
inferno,21,3
inferno,22,3
inferno,23,5
inferno,24,9
inferno,25,2
inferno,26,7
inferno,27,4
inferno,28,5
inferno,29,6
inferno,30,5
inferno,31,6
inferno,32,3
inferno,33,4
purgatorio,1,6
purgatorio,2,4
purgatorio,3,5
purgatorio,4,7
purgatorio,5,7
purgatorio,6,3
purgatorio,7,1
purgatorio,8,4
purgatorio,9,7
purgatorio,10,12
purgatorio,11,4
purgatorio,12,2
purgatorio,13,5
purgatorio,14,3
purgatorio,15,4
purgatorio,16,4
purgatorio,17,8
purgatorio,18,3
purgatorio,19,5
purgatorio,20,4
purgatorio,21,6
purgatorio,22,4
purgatorio,23,1
purgatorio,24,4
purgatorio,25,8
purgatorio,26,7
purgatorio,27,8
purgatorio,28,1
purgatorio,29,4
purgatorio,30,6
purgatorio,31,7
purgatorio,32,8
purgatorio,33,2
paradiso,1,5
paradiso,2,4
paradiso,3,4
paradiso,4,4
paradiso,5,2
paradiso,6,9
paradiso,7,3
paradiso,8,3
paradiso,9,10
paradiso,10,3
paradiso,11,7
paradiso,12,8
paradiso,13,8
paradiso,14,3
paradiso,15,6
paradiso,16,5
paradiso,17,2
paradiso,18,5
paradiso,19,3
paradiso,20,8
paradiso,21,9
paradiso,22,5
paradiso,23,5
paradiso,24,2
paradiso,25,7
paradiso,27,3
paradiso,28,4
paradiso,29,3
paradiso,30,10
paradiso,31,4
paradiso,32,5
paradiso,33,5
