inferno,9,1
inferno,12,1
inferno,33,1
purgatorio,4,1
purgatorio,5,1
purgatorio,7,1
purgatorio,8,1
purgatorio,11,2
purgatorio,13,1
purgatorio,14,2
purgatorio,16,2
purgatorio,28,1
purgatorio,30,1
purgatorio,31,1
paradiso,2,1
paradiso,7,1
paradiso,9,1
paradiso,11,1
paradiso,12,2
paradiso,14,2
paradiso,15,1
paradiso,16,1
paradiso,17,1
paradiso,18,1
paradiso,19,1
paradiso,27,1
paradiso,32,1
