inferno,1,1
inferno,2,1
inferno,4,2
inferno,6,1
inferno,7,2
inferno,11,1
inferno,12,2
inferno,17,1
inferno,19,2
inferno,20,1
inferno,24,1
inferno,26,1
inferno,28,2
inferno,30,1
purgatorio,1,3
purgatorio,4,1
purgatorio,6,1
purgatorio,10,1
purgatorio,13,1
purgatorio,16,1
purgatorio,17,1
purgatorio,18,4
purgatorio,21,1
purgatorio,24,1
purgatorio,25,2
purgatorio,26,1
purgatorio,27,1
purgatorio,28,2
purgatorio,31,2
purgatorio,33,2
paradiso,4,1
paradiso,5,1
paradiso,6,1
paradiso,7,1
paradiso,8,5
paradiso,10,1
paradiso,11,1
paradiso,12,1
paradiso,13,1
paradiso,14,2
paradiso,15,1
paradiso,16,2
paradiso,17,1
paradiso,18,1
paradiso,19,3
paradiso,20,1
paradiso,22,1
paradiso,24,1
paradiso,27,1
paradiso,30,1
paradiso,31,1
paradiso,32,1
paradiso,33,2
