inferno,1,3
inferno,2,3
inferno,3,5
inferno,4,3
inferno,5,1
inferno,6,5
inferno,8,1
inferno,10,1
inferno,13,2
inferno,14,3
inferno,16,2
inferno,18,2
inferno,21,2
inferno,22,2
inferno,23,2
inferno,24,3
inferno,25,2
inferno,26,3
inferno,27,4
inferno,28,2
inferno,29,4
inferno,30,3
inferno,31,1
inferno,32,6
inferno,33,5
purgatorio,1,1
purgatorio,2,1
purgatorio,3,2
purgatorio,5,2
purgatorio,7,1
purgatorio,9,4
purgatorio,10,1
purgatorio,11,4
purgatorio,13,3
purgatorio,14,2
purgatorio,16,1
purgatorio,17,1
purgatorio,18,4
purgatorio,19,4
purgatorio,20,4
purgatorio,21,4
purgatorio,22,3
purgatorio,23,4
purgatorio,24,6
purgatorio,25,1
purgatorio,26,2
purgatorio,27,4
purgatorio,28,3
purgatorio,29,1
purgatorio,30,1
purgatorio,31,6
purgatorio,33,1
paradiso,1,3
paradiso,2,3
paradiso,3,2
paradiso,5,1
paradiso,6,3
paradiso,9,2
paradiso,13,5
paradiso,14,8
paradiso,15,6
paradiso,16,3
paradiso,17,5
paradiso,18,5
paradiso,19,1
paradiso,20,3
paradiso,21,5
paradiso,22,4
paradiso,23,1
paradiso,24,5
paradiso,25,2
paradiso,26,2
paradiso,27,4
paradiso,28,3
paradiso,30,3
paradiso,33,4
