inferno,8,1
inferno,9,1
inferno,12,1
inferno,13,1
inferno,24,1
inferno,26,1
inferno,27,1
purgatorio,5,1
purgatorio,6,1
purgatorio,11,1
purgatorio,15,1
purgatorio,19,1
purgatorio,33,1
paradiso,13,1
paradiso,14,1
paradiso,18,1
paradiso,22,1
paradiso,23,1
paradiso,26,1
paradiso,29,1
