inferno,1,2
inferno,3,1
inferno,6,2
inferno,8,1
inferno,9,1
inferno,10,1
inferno,11,1
inferno,13,1
inferno,16,1
inferno,20,2
inferno,27,1
purgatorio,6,1
purgatorio,13,1
purgatorio,24,1
paradiso,9,1
paradiso,16,1
paradiso,30,1
