inferno,4,2
inferno,7,1
inferno,9,2
inferno,11,1
inferno,13,1
inferno,15,1
inferno,16,1
inferno,17,1
inferno,21,1
inferno,26,1
inferno,29,1
inferno,31,1
inferno,33,1
purgatorio,1,1
purgatorio,2,1
purgatorio,3,1
purgatorio,7,1
purgatorio,8,1
purgatorio,9,1
purgatorio,10,1
purgatorio,12,1
purgatorio,16,1
purgatorio,17,1
purgatorio,20,2
purgatorio,21,2
purgatorio,24,1
purgatorio,25,1
purgatorio,26,1
purgatorio,28,1
paradiso,1,2
paradiso,3,1
paradiso,5,1
paradiso,6,1
paradiso,7,1
paradiso,10,1
paradiso,11,1
paradiso,12,2
paradiso,18,1
paradiso,19,2
paradiso,21,1
paradiso,22,2
paradiso,27,1
paradiso,29,2
paradiso,31,1
paradiso,32,2
