inferno,2,1
purgatorio,8,2
purgatorio,11,1
purgatorio,14,1
purgatorio,15,1
purgatorio,19,1
purgatorio,25,1
purgatorio,28,1
paradiso,7,1
paradiso,9,1
paradiso,14,1
paradiso,15,1
paradiso,20,1
paradiso,33,1
