inferno,12,1
inferno,13,1
inferno,15,1
inferno,22,1
inferno,23,1
inferno,24,1
inferno,27,1
inferno,31,1
purgatorio,1,1
purgatorio,2,1
purgatorio,11,1
purgatorio,14,1
purgatorio,17,1
purgatorio,18,1
purgatorio,32,1
purgatorio,33,1
paradiso,7,1
paradiso,14,1
paradiso,15,1
paradiso,19,1
paradiso,27,1
paradiso,32,1
paradiso,33,2
