inferno,2,2
inferno,4,1
inferno,10,1
inferno,11,1
inferno,13,2
inferno,25,1
purgatorio,1,1
purgatorio,2,2
purgatorio,8,1
purgatorio,9,1
purgatorio,10,1
purgatorio,28,1
purgatorio,29,1
purgatorio,33,1
paradiso,2,2
paradiso,6,1
paradiso,9,2
paradiso,16,1
paradiso,17,1
paradiso,25,1
paradiso,27,1
paradiso,28,1
paradiso,30,1
paradiso,31,1
paradiso,32,1
paradiso,33,1
