inferno,1,1
inferno,2,2
inferno,4,2
inferno,5,2
inferno,6,1
inferno,7,2
inferno,9,3
inferno,11,2
inferno,12,1
inferno,13,3
inferno,14,5
inferno,15,3
inferno,16,2
inferno,17,3
inferno,18,1
inferno,19,2
inferno,21,1
inferno,22,1
inferno,23,3
inferno,25,1
inferno,26,1
inferno,27,4
inferno,28,4
inferno,29,2
inferno,31,3
inferno,32,1
inferno,33,3
purgatorio,1,1
purgatorio,2,1
purgatorio,3,2
purgatorio,4,1
purgatorio,6,1
purgatorio,7,2
purgatorio,9,1
purgatorio,10,2
purgatorio,11,1
purgatorio,12,5
purgatorio,14,1
purgatorio,15,2
purgatorio,16,1
purgatorio,17,1
purgatorio,18,1
purgatorio,19,3
purgatorio,20,1
purgatorio,21,3
purgatorio,22,1
purgatorio,24,3
purgatorio,25,2
purgatorio,27,2
purgatorio,28,4
purgatorio,29,3
purgatorio,30,1
purgatorio,31,2
purgatorio,32,2
purgatorio,33,1
paradiso,2,5
paradiso,3,2
paradiso,4,2
paradiso,5,1
paradiso,6,3
paradiso,7,1
paradiso,9,1
paradiso,10,2
paradiso,11,1
paradiso,13,2
paradiso,14,1
paradiso,15,5
paradiso,17,1
paradiso,18,3
paradiso,19,2
paradiso,20,1
paradiso,22,3
paradiso,27,1
paradiso,28,5
paradiso,29,2
paradiso,31,4
paradiso,32,4
