inferno,1,7
inferno,2,12
inferno,3,1
inferno,4,4
inferno,5,5
inferno,7,5
inferno,8,2
inferno,9,6
inferno,10,3
inferno,11,3
inferno,12,7
inferno,13,3
inferno,14,4
inferno,15,4
inferno,16,2
inferno,17,1
inferno,18,5
inferno,19,1
inferno,20,4
inferno,21,6
inferno,22,4
inferno,23,3
inferno,24,4
inferno,25,3
inferno,26,13
inferno,27,2
inferno,28,5
inferno,29,7
inferno,30,12
inferno,31,3
inferno,32,3
inferno,33,7
purgatorio,1,5
purgatorio,2,1
purgatorio,3,7
purgatorio,4,5
purgatorio,5,7
purgatorio,6,5
purgatorio,7,6
purgatorio,8,3
purgatorio,9,3
purgatorio,10,5
purgatorio,11,5
purgatorio,12,11
purgatorio,13,6
purgatorio,14,6
purgatorio,15,5
purgatorio,16,5
purgatorio,17,6
purgatorio,18,6
purgatorio,19,10
purgatorio,20,3
purgatorio,21,5
purgatorio,22,4
purgatorio,23,3
purgatorio,24,5
purgatorio,25,5
purgatorio,26,5
purgatorio,27,4
purgatorio,28,3
purgatorio,29,4
purgatorio,30,7
purgatorio,31,6
purgatorio,32,10
purgatorio,33,2
paradiso,1,14
paradiso,2,6
paradiso,3,5
paradiso,4,5
paradiso,5,5
paradiso,6,8
paradiso,7,4
paradiso,8,2
paradiso,9,7
paradiso,10,8
paradiso,11,10
paradiso,12,9
paradiso,13,7
paradiso,14,7
paradiso,15,7
paradiso,16,7
paradiso,17,7
paradiso,18,10
paradiso,19,6
paradiso,20,11
paradiso,21,8
paradiso,22,5
paradiso,23,14
paradiso,24,6
paradiso,25,8
paradiso,26,9
paradiso,27,10
paradiso,28,4
paradiso,29,6
paradiso,30,8
paradiso,31,3
paradiso,32,6
paradiso,33,5
