inferno,1,1
inferno,4,1
inferno,6,1
inferno,11,1
inferno,12,1
inferno,13,1
inferno,14,1
inferno,15,2
inferno,16,1
inferno,19,1
inferno,20,2
inferno,21,2
inferno,22,1
inferno,23,1
inferno,24,1
inferno,25,1
inferno,26,2
inferno,27,1
inferno,30,1
inferno,31,1
inferno,32,5
inferno,33,3
purgatorio,1,1
purgatorio,3,2
purgatorio,6,1
purgatorio,9,2
purgatorio,11,2
purgatorio,14,1
purgatorio,18,3
purgatorio,22,2
purgatorio,27,1
purgatorio,29,1
purgatorio,32,2
paradiso,5,1
paradiso,6,1
paradiso,10,1
paradiso,11,1
paradiso,12,1
paradiso,16,1
paradiso,19,2
paradiso,20,1
paradiso,22,1
paradiso,23,2
