inferno,1,1
inferno,4,1
inferno,5,1
inferno,9,2
inferno,10,1
inferno,11,1
inferno,13,1
inferno,15,1
inferno,16,1
inferno,18,1
inferno,19,3
inferno,20,1
inferno,22,1
inferno,23,1
inferno,28,1
purgatorio,2,1
purgatorio,4,1
purgatorio,5,1
purgatorio,7,1
purgatorio,10,2
purgatorio,11,1
purgatorio,12,2
purgatorio,13,1
purgatorio,14,2
purgatorio,15,1
purgatorio,16,1
purgatorio,18,1
purgatorio,22,1
purgatorio,23,2
purgatorio,29,1
purgatorio,31,1
paradiso,6,1
paradiso,7,1
paradiso,8,1
paradiso,9,2
paradiso,11,1
paradiso,12,1
paradiso,14,1
paradiso,17,1
paradiso,24,1
paradiso,27,1
paradiso,29,1
paradiso,30,1
paradiso,32,1
