inferno,4,2
inferno,6,1
inferno,8,1
inferno,11,1
inferno,14,1
inferno,18,1
purgatorio,3,2
purgatorio,4,1
purgatorio,6,3
purgatorio,10,1
purgatorio,13,1
purgatorio,16,1
purgatorio,21,1
purgatorio,22,1
purgatorio,23,1
purgatorio,32,2
paradiso,1,1
paradiso,3,1
paradiso,4,1
paradiso,5,1
paradiso,6,1
paradiso,7,1
paradiso,12,1
paradiso,13,1
paradiso,14,1
paradiso,16,2
paradiso,20,1
paradiso,22,1
paradiso,23,1
paradiso,26,1
paradiso,29,1
paradiso,33,1
