inferno,7,1
inferno,8,1
inferno,11,1
inferno,14,1
inferno,19,1
inferno,21,1
inferno,26,1
inferno,29,1
inferno,30,2
inferno,32,3
inferno,33,3
purgatorio,1,2
purgatorio,2,1
purgatorio,3,1
purgatorio,4,3
purgatorio,8,2
purgatorio,9,1
purgatorio,11,2
purgatorio,13,3
purgatorio,15,3
purgatorio,16,2
purgatorio,21,1
purgatorio,24,3
purgatorio,28,2
paradiso,4,1
paradiso,5,1
paradiso,9,1
paradiso,17,1
paradiso,21,1
paradiso,24,1
paradiso,25,1
paradiso,31,1
