inferno,1,2
inferno,3,4
inferno,4,1
inferno,5,1
inferno,6,2
inferno,7,2
inferno,8,3
inferno,10,1
inferno,11,2
inferno,13,2
inferno,14,1
inferno,15,2
inferno,18,2
inferno,19,2
inferno,21,1
inferno,22,1
inferno,24,1
inferno,26,1
inferno,30,1
inferno,31,1
inferno,32,1
inferno,33,1
purgatorio,2,2
purgatorio,4,3
purgatorio,6,1
purgatorio,8,1
purgatorio,9,1
purgatorio,10,1
purgatorio,13,1
purgatorio,15,3
purgatorio,16,1
purgatorio,17,1
purgatorio,18,1
purgatorio,19,1
purgatorio,20,1
purgatorio,21,2
purgatorio,22,1
purgatorio,23,2
purgatorio,26,1
purgatorio,29,1
purgatorio,31,1
purgatorio,32,1
purgatorio,33,1
paradiso,2,1
paradiso,9,1
paradiso,14,1
paradiso,24,1
paradiso,32,1
