inferno,13,1
inferno,15,1
inferno,19,1
inferno,26,1
inferno,31,1
inferno,32,1
purgatorio,2,1
purgatorio,5,1
purgatorio,9,2
purgatorio,10,1
purgatorio,14,2
purgatorio,27,2
purgatorio,33,1
paradiso,8,1
paradiso,16,1
paradiso,20,1
paradiso,24,1
paradiso,29,2
paradiso,30,1
