inferno,2,2
inferno,9,1
inferno,19,1
inferno,26,1
inferno,30,1
inferno,33,1
purgatorio,12,1
purgatorio,19,1
purgatorio,26,1
paradiso,3,1
paradiso,5,1
paradiso,10,1
paradiso,25,1
paradiso,26,1
paradiso,30,1
