inferno,2,1
inferno,4,2
inferno,5,1
inferno,11,1
inferno,13,3
inferno,18,1
inferno,20,1
purgatorio,16,1
purgatorio,18,1
purgatorio,21,1
purgatorio,22,1
purgatorio,28,1
paradiso,2,1
paradiso,4,1
paradiso,6,3
paradiso,8,1
paradiso,11,1
paradiso,12,1
paradiso,15,1
paradiso,17,1
paradiso,19,1
paradiso,20,1
paradiso,24,4
paradiso,25,2
paradiso,29,1
paradiso,32,3
