inferno,2,1
inferno,19,1
inferno,26,6
inferno,27,3
purgatorio,21,1
purgatorio,22,1
purgatorio,25,2
purgatorio,26,1
purgatorio,27,2
purgatorio,30,1
purgatorio,31,1
paradiso,1,2
paradiso,7,1
paradiso,8,1
paradiso,12,1
paradiso,14,1
paradiso,16,1
paradiso,21,1
paradiso,23,1
paradiso,24,1
paradiso,26,1
paradiso,28,2
paradiso,30,1
paradiso,31,2
