inferno,6,1
inferno,16,1
inferno,18,1
inferno,25,1
purgatorio,3,1
purgatorio,9,1
purgatorio,10,2
purgatorio,17,1
purgatorio,25,1
purgatorio,33,1
paradiso,5,1
paradiso,20,1
paradiso,21,1
paradiso,27,1
paradiso,30,1
