inferno,4,1
inferno,6,1
inferno,9,1
inferno,12,1
inferno,14,2
inferno,17,1
inferno,18,3
inferno,19,2
inferno,20,1
inferno,21,1
inferno,23,3
inferno,24,1
inferno,26,1
inferno,27,1
inferno,29,1
inferno,30,1
inferno,31,2
inferno,32,1
inferno,33,1
purgatorio,5,1
purgatorio,18,1
purgatorio,26,1
purgatorio,32,1
paradiso,11,1
paradiso,15,1
paradiso,19,1
paradiso,20,1
paradiso,30,1
paradiso,31,1
