inferno,1,4
inferno,2,2
inferno,6,2
inferno,7,2
inferno,8,4
inferno,9,1
inferno,10,5
inferno,12,2
inferno,13,1
inferno,14,5
inferno,16,1
inferno,17,3
inferno,18,2
inferno,19,3
inferno,20,4
inferno,21,2
inferno,22,4
inferno,23,3
inferno,24,4
inferno,25,2
inferno,26,5
inferno,27,4
inferno,28,1
inferno,29,5
inferno,30,2
inferno,31,5
inferno,32,2
inferno,33,6
purgatorio,1,1
purgatorio,3,2
purgatorio,4,2
purgatorio,5,3
purgatorio,6,3
purgatorio,7,2
purgatorio,8,4
purgatorio,9,4
purgatorio,10,1
purgatorio,11,2
purgatorio,12,4
purgatorio,13,3
purgatorio,14,1
purgatorio,15,5
purgatorio,16,1
purgatorio,17,3
purgatorio,18,4
purgatorio,19,1
purgatorio,20,3
purgatorio,21,1
purgatorio,22,3
purgatorio,23,3
purgatorio,24,5
purgatorio,25,4
purgatorio,26,4
purgatorio,27,5
purgatorio,28,2
purgatorio,29,2
purgatorio,30,4
purgatorio,31,1
purgatorio,32,1
purgatorio,33,2
paradiso,2,2
paradiso,3,1
paradiso,4,3
paradiso,5,3
paradiso,6,2
paradiso,7,1
paradiso,8,4
paradiso,9,5
paradiso,10,1
paradiso,11,1
paradiso,12,2
paradiso,13,3
paradiso,14,1
paradiso,15,1
paradiso,16,9
paradiso,17,2
paradiso,19,2
paradiso,20,1
paradiso,22,4
paradiso,23,2
paradiso,24,3
paradiso,28,1
paradiso,29,2
paradiso,30,3
paradiso,31,2
paradiso,33,2
