inferno,1,1
inferno,12,1
purgatorio,5,1
purgatorio,7,1
purgatorio,16,3
purgatorio,19,1
purgatorio,21,1
purgatorio,26,1
paradiso,3,1
paradiso,5,1
paradiso,11,1
paradiso,18,1
paradiso,22,1
paradiso,23,1
