inferno,1,1
inferno,7,2
inferno,9,1
inferno,11,1
inferno,13,1
inferno,14,2
inferno,15,1
inferno,18,1
inferno,24,1
inferno,33,1
purgatorio,16,1
purgatorio,27,1
purgatorio,32,1
paradiso,9,1
paradiso,12,1
paradiso,18,1
paradiso,21,1
paradiso,25,1
paradiso,27,1
paradiso,28,1
paradiso,31,1
paradiso,33,1
