inferno,3,1
inferno,7,1
inferno,10,2
inferno,18,1
inferno,19,1
inferno,23,1
inferno,24,1
inferno,25,1
inferno,27,1
purgatorio,8,1
purgatorio,11,1
purgatorio,12,1
purgatorio,16,1
purgatorio,18,1
purgatorio,31,1
purgatorio,32,1
paradiso,1,1
paradiso,16,1
paradiso,17,1
paradiso,22,1
paradiso,24,1
paradiso,25,1
paradiso,26,1
paradiso,27,1
paradiso,31,1
