inferno,14,1
inferno,15,1
inferno,17,1
inferno,18,1
inferno,21,1
inferno,25,1
inferno,26,2
inferno,27,1
inferno,28,2
inferno,30,1
inferno,31,1
inferno,32,2
purgatorio,7,1
purgatorio,11,1
purgatorio,19,1
paradiso,6,1
paradiso,11,1
paradiso,26,1
paradiso,27,1
paradiso,33,2
