inferno,3,1
inferno,9,1
inferno,23,1
inferno,32,1
purgatorio,3,1
purgatorio,5,1
purgatorio,11,1
purgatorio,15,2
purgatorio,21,1
purgatorio,22,1
purgatorio,23,1
purgatorio,27,1
purgatorio,29,1
purgatorio,30,1
paradiso,1,1
paradiso,4,1
paradiso,7,1
paradiso,20,1
paradiso,21,2
paradiso,25,1
paradiso,29,2
paradiso,31,1
paradiso,33,1
