inferno,1,1
inferno,13,1
inferno,33,1
purgatorio,1,1
purgatorio,7,1
purgatorio,8,1
purgatorio,9,1
purgatorio,15,1
purgatorio,19,1
purgatorio,22,1
purgatorio,23,1
purgatorio,27,1
paradiso,6,1
paradiso,10,1
paradiso,26,1
paradiso,27,1
paradiso,30,1
