inferno,1,4
inferno,3,2
inferno,4,2
inferno,5,2
inferno,6,1
inferno,7,2
inferno,8,3
inferno,9,3
inferno,10,2
inferno,11,2
inferno,12,2
inferno,13,7
inferno,14,5
inferno,15,3
inferno,16,5
inferno,17,5
inferno,18,3
inferno,19,1
inferno,20,3
inferno,21,5
inferno,22,9
inferno,23,5
inferno,24,7
inferno,25,2
inferno,26,5
inferno,27,4
inferno,28,1
inferno,29,3
inferno,30,3
inferno,31,3
inferno,32,3
inferno,33,2
purgatorio,1,2
purgatorio,2,4
purgatorio,3,3
purgatorio,4,2
purgatorio,5,3
purgatorio,6,7
purgatorio,7,4
purgatorio,8,5
purgatorio,9,5
purgatorio,10,3
purgatorio,11,6
purgatorio,12,4
purgatorio,13,5
purgatorio,14,3
purgatorio,15,4
purgatorio,16,6
purgatorio,17,3
purgatorio,18,3
purgatorio,19,3
purgatorio,20,6
purgatorio,21,8
purgatorio,22,3
purgatorio,23,3
purgatorio,24,3
purgatorio,25,2
purgatorio,26,6
purgatorio,27,4
purgatorio,28,4
purgatorio,29,5
purgatorio,30,4
purgatorio,31,2
purgatorio,32,3
purgatorio,33,4
paradiso,1,5
paradiso,2,2
paradiso,3,5
paradiso,4,7
paradiso,5,2
paradiso,6,3
paradiso,7,5
paradiso,8,7
paradiso,9,6
paradiso,10,5
paradiso,11,3
paradiso,12,4
paradiso,13,2
paradiso,14,3
paradiso,15,3
paradiso,16,4
paradiso,17,5
paradiso,18,3
paradiso,19,3
paradiso,20,5
paradiso,21,3
paradiso,24,4
paradiso,25,2
paradiso,26,2
paradiso,27,4
paradiso,28,1
paradiso,29,5
paradiso,30,5
paradiso,31,4
paradiso,32,3
paradiso,33,5
