inferno,4,1
inferno,10,1
inferno,18,1
inferno,23,1
inferno,27,1
inferno,28,1
inferno,33,1
purgatorio,9,1
purgatorio,11,1
purgatorio,13,1
purgatorio,19,1
purgatorio,22,1
purgatorio,23,1
purgatorio,24,2
purgatorio,26,1
purgatorio,29,1
purgatorio,30,1
purgatorio,32,1
purgatorio,33,1
paradiso,4,1
paradiso,10,1
paradiso,12,1
paradiso,19,1
paradiso,20,1
paradiso,22,1
