inferno,1,1
inferno,2,1
inferno,4,2
inferno,5,2
inferno,11,1
inferno,14,1
inferno,20,1
inferno,30,1
inferno,31,1
purgatorio,4,1
purgatorio,10,1
purgatorio,12,1
purgatorio,24,1
paradiso,1,1
paradiso,10,1
paradiso,14,1
paradiso,16,1
paradiso,19,1
paradiso,20,1
paradiso,25,1
paradiso,33,1
