inferno,1,2
inferno,2,1
inferno,3,2
inferno,5,1
inferno,8,1
inferno,12,1
inferno,13,2
inferno,18,1
inferno,19,1
inferno,20,1
inferno,28,2
inferno,29,1
inferno,31,1
inferno,33,1
purgatorio,1,1
purgatorio,6,1
purgatorio,7,1
purgatorio,14,1
purgatorio,15,1
purgatorio,16,2
purgatorio,20,1
purgatorio,26,1
purgatorio,27,2
purgatorio,31,1
purgatorio,33,1
paradiso,6,1
paradiso,7,1
paradiso,11,1
paradiso,13,1
paradiso,16,1
paradiso,20,2
paradiso,24,1
paradiso,25,1
paradiso,26,1
