inferno,1,1
inferno,8,1
inferno,9,1
inferno,16,1
inferno,22,1
inferno,26,1
inferno,33,1
purgatorio,1,1
purgatorio,5,2
purgatorio,10,1
purgatorio,24,1
purgatorio,30,1
purgatorio,31,1
purgatorio,32,1
paradiso,3,1
paradiso,5,1
paradiso,11,1
paradiso,17,1
paradiso,18,2
paradiso,24,1
paradiso,26,1
