inferno,4,1
inferno,8,1
inferno,11,1
inferno,16,1
inferno,17,1
inferno,19,1
inferno,20,2
inferno,27,1
purgatorio,5,1
purgatorio,7,1
purgatorio,9,1
purgatorio,10,1
purgatorio,11,1
purgatorio,15,1
purgatorio,17,2
purgatorio,19,1
purgatorio,21,1
purgatorio,26,1
purgatorio,32,1
paradiso,1,1
paradiso,7,1
paradiso,12,1
paradiso,13,1
paradiso,14,1
paradiso,15,1
paradiso,18,2
paradiso,19,1
paradiso,20,1
paradiso,21,1
paradiso,23,1
paradiso,27,1
paradiso,28,3
paradiso,30,2
paradiso,32,1
