inferno,4,1
inferno,7,1
inferno,8,1
inferno,10,1
inferno,16,2
inferno,20,2
inferno,22,1
inferno,23,1
inferno,26,1
inferno,27,1
inferno,30,1
inferno,31,1
inferno,32,1
purgatorio,5,2
purgatorio,7,1
purgatorio,11,3
purgatorio,13,1
purgatorio,14,3
purgatorio,15,1
purgatorio,19,2
purgatorio,21,1
purgatorio,26,3
purgatorio,27,3
purgatorio,30,1
paradiso,3,1
paradiso,9,1
paradiso,15,1
paradiso,16,2
paradiso,18,2
paradiso,20,1
paradiso,22,1
paradiso,23,2
paradiso,25,1
paradiso,32,1
