inferno,15,1
inferno,19,2
inferno,24,1
inferno,28,1
purgatorio,14,1
purgatorio,17,1
purgatorio,24,1
purgatorio,26,1
purgatorio,29,1
purgatorio,30,1
paradiso,7,1
paradiso,11,1
paradiso,17,1
paradiso,21,1
paradiso,29,2
paradiso,31,1
