inferno,2,1
inferno,5,1
inferno,7,1
inferno,9,1
inferno,12,1
inferno,23,1
inferno,24,1
inferno,27,1
inferno,28,2
inferno,30,1
inferno,32,1
inferno,33,1
purgatorio,5,1
purgatorio,8,2
purgatorio,11,2
purgatorio,13,2
purgatorio,14,1
paradiso,11,1
paradiso,12,1
paradiso,14,1
paradiso,15,1
paradiso,16,2
paradiso,19,2
paradiso,23,2
paradiso,27,2
paradiso,33,2
