inferno,1,1
inferno,2,1
inferno,8,1
inferno,9,2
inferno,11,3
inferno,12,1
inferno,14,2
inferno,16,1
inferno,17,1
inferno,19,1
inferno,20,2
inferno,22,1
inferno,23,1
inferno,24,2
inferno,25,2
inferno,26,2
inferno,30,1
inferno,32,3
purgatorio,1,2
purgatorio,4,2
purgatorio,6,1
purgatorio,7,1
purgatorio,8,2
purgatorio,9,1
purgatorio,10,2
purgatorio,11,2
purgatorio,12,1
purgatorio,13,1
purgatorio,14,2
purgatorio,15,1
purgatorio,16,2
purgatorio,17,1
purgatorio,18,2
purgatorio,19,1
purgatorio,20,4
purgatorio,21,2
purgatorio,22,3
purgatorio,25,2
purgatorio,27,1
purgatorio,28,1
purgatorio,29,2
purgatorio,30,1
purgatorio,32,2
paradiso,1,1
paradiso,2,2
paradiso,3,1
paradiso,5,1
paradiso,6,4
paradiso,7,1
paradiso,8,2
paradiso,9,2
paradiso,10,2
paradiso,11,3
paradiso,12,2
paradiso,13,1
paradiso,14,3
paradiso,16,4
paradiso,18,1
paradiso,20,2
paradiso,21,3
paradiso,22,1
paradiso,23,3
paradiso,24,4
paradiso,25,1
paradiso,26,4
paradiso,27,3
paradiso,28,3
paradiso,32,2
