inferno,1,1
inferno,2,3
inferno,4,2
inferno,5,1
inferno,7,3
inferno,8,1
inferno,9,1
inferno,10,1
inferno,12,2
inferno,13,1
inferno,14,1
inferno,16,1
inferno,17,3
inferno,22,1
inferno,28,3
inferno,29,1
inferno,30,1
inferno,32,1
purgatorio,1,2
purgatorio,3,3
purgatorio,4,1
purgatorio,6,1
purgatorio,8,2
purgatorio,10,2
purgatorio,12,1
purgatorio,16,1
purgatorio,17,2
purgatorio,18,2
purgatorio,21,2
purgatorio,22,2
purgatorio,24,1
purgatorio,25,1
purgatorio,26,2
purgatorio,27,1
purgatorio,28,1
purgatorio,29,1
paradiso,2,2
paradiso,5,1
paradiso,6,2
paradiso,7,2
paradiso,8,2
paradiso,9,1
paradiso,10,2
paradiso,11,1
paradiso,13,2
paradiso,19,1
paradiso,21,1
paradiso,26,1
paradiso,29,1
paradiso,32,2
paradiso,33,1
