inferno,8,1
inferno,10,1
inferno,12,1
inferno,15,2
inferno,16,1
inferno,18,2
inferno,20,1
inferno,26,1
inferno,28,1
inferno,30,1
inferno,31,1
purgatorio,1,1
purgatorio,2,2
purgatorio,5,1
purgatorio,6,1
purgatorio,8,2
purgatorio,11,4
purgatorio,13,1
purgatorio,16,1
purgatorio,20,2
purgatorio,23,1
purgatorio,27,1
paradiso,1,3
paradiso,14,1
paradiso,15,1
paradiso,20,5
paradiso,21,1
paradiso,22,1
paradiso,24,1
paradiso,26,1
