inferno,1,3
inferno,3,1
inferno,9,2
inferno,10,1
inferno,12,1
inferno,14,1
inferno,18,1
inferno,21,1
inferno,24,1
inferno,25,2
inferno,26,1
inferno,31,1
inferno,33,2
purgatorio,2,1
purgatorio,3,1
purgatorio,4,1
purgatorio,9,6
purgatorio,10,4
purgatorio,12,2
purgatorio,15,1
purgatorio,16,1
purgatorio,18,1
purgatorio,24,1
purgatorio,27,1
purgatorio,29,1
purgatorio,32,1
paradiso,3,2
paradiso,14,1
paradiso,19,1
paradiso,27,1
paradiso,31,1
paradiso,33,2
