inferno,2,3
inferno,3,3
inferno,5,1
inferno,7,1
inferno,8,1
inferno,9,2
inferno,10,2
inferno,11,1
inferno,13,1
inferno,14,1
inferno,16,2
inferno,17,1
inferno,18,1
inferno,19,2
inferno,24,1
inferno,25,1
inferno,27,2
inferno,28,2
inferno,30,1
inferno,33,1
purgatorio,1,1
purgatorio,4,2
purgatorio,7,2
purgatorio,9,1
purgatorio,11,1
purgatorio,13,1
purgatorio,15,1
purgatorio,16,1
purgatorio,18,1
purgatorio,19,1
purgatorio,20,1
purgatorio,21,3
purgatorio,22,1
purgatorio,24,1
purgatorio,25,1
purgatorio,26,1
purgatorio,27,1
purgatorio,29,1
purgatorio,30,1
purgatorio,33,2
paradiso,4,1
paradiso,6,2
paradiso,7,1
paradiso,9,1
paradiso,10,1
paradiso,11,2
paradiso,13,1
paradiso,16,1
paradiso,17,2
paradiso,20,2
paradiso,21,1
paradiso,25,2
paradiso,27,1
paradiso,28,1
paradiso,29,1
paradiso,30,1
paradiso,32,1
