inferno,1,1
inferno,2,1
inferno,5,1
inferno,8,1
inferno,9,1
inferno,12,1
inferno,13,1
inferno,14,1
inferno,18,1
inferno,20,1
inferno,23,1
inferno,25,1
inferno,26,1
inferno,29,1
purgatorio,3,1
purgatorio,4,1
purgatorio,5,1
purgatorio,11,1
purgatorio,13,1
purgatorio,14,1
purgatorio,18,1
purgatorio,20,1
purgatorio,23,1
purgatorio,24,2
purgatorio,26,1
purgatorio,27,2
purgatorio,29,1
purgatorio,30,1
purgatorio,33,1
paradiso,4,1
paradiso,13,1
paradiso,22,1
paradiso,30,1
