inferno,3,1
inferno,6,1
inferno,8,1
inferno,10,1
inferno,11,1
inferno,12,1
inferno,14,1
inferno,17,1
inferno,18,2
inferno,23,2
inferno,32,1
purgatorio,1,1
purgatorio,3,1
purgatorio,8,1
purgatorio,9,2
purgatorio,10,3
purgatorio,11,1
purgatorio,12,1
purgatorio,13,1
purgatorio,17,2
purgatorio,20,1
purgatorio,24,1
purgatorio,25,1
purgatorio,28,2
purgatorio,29,3
purgatorio,30,1
purgatorio,31,2
purgatorio,32,2
purgatorio,33,1
paradiso,20,1
