inferno,1,5
inferno,2,1
inferno,7,1
inferno,9,1
inferno,16,1
inferno,17,1
inferno,21,1
inferno,23,2
inferno,28,1
inferno,31,2
purgatorio,2,1
purgatorio,3,1
purgatorio,9,1
purgatorio,13,1
purgatorio,21,1
purgatorio,22,1
purgatorio,29,1
purgatorio,30,1
purgatorio,31,1
paradiso,11,1
paradiso,15,1
paradiso,26,1
