inferno,20,1
purgatorio,2,1
purgatorio,8,1
purgatorio,9,1
purgatorio,19,1
purgatorio,24,1
purgatorio,27,1
purgatorio,29,2
purgatorio,31,1
purgatorio,33,1
paradiso,6,1
paradiso,25,1
paradiso,27,1
paradiso,31,1
paradiso,32,1
paradiso,33,1
