inferno,6,1
inferno,9,1
inferno,13,1
inferno,19,1
inferno,22,1
inferno,23,1
inferno,32,1
purgatorio,9,1
purgatorio,12,1
purgatorio,21,1
purgatorio,28,1
purgatorio,32,2
purgatorio,33,1
paradiso,7,1
paradiso,10,1
paradiso,12,1
