inferno,3,1
inferno,7,1
inferno,9,1
inferno,12,2
inferno,14,2
inferno,16,1
inferno,18,2
inferno,19,2
inferno,21,1
inferno,22,1
inferno,23,1
inferno,29,1
inferno,32,2
inferno,33,1
purgatorio,3,1
purgatorio,4,1
purgatorio,5,1
purgatorio,9,2
purgatorio,13,1
purgatorio,19,1
purgatorio,21,1
purgatorio,32,1
paradiso,3,1
paradiso,4,1
paradiso,6,1
paradiso,12,1
paradiso,13,1
paradiso,20,1
paradiso,21,1
paradiso,22,3
paradiso,24,1
paradiso,27,1
paradiso,32,1
