inferno,5,1
inferno,6,1
inferno,9,1
inferno,10,1
inferno,13,1
inferno,15,1
inferno,17,1
inferno,19,1
inferno,28,1
purgatorio,19,1
purgatorio,28,2
purgatorio,31,1
paradiso,5,1
paradiso,24,1
paradiso,25,1
paradiso,29,1
paradiso,30,1
