inferno,2,1
inferno,3,1
inferno,5,1
inferno,16,1
inferno,20,1
inferno,21,1
inferno,23,1
inferno,25,2
inferno,27,1
inferno,32,1
inferno,33,2
purgatorio,1,2
purgatorio,3,1
purgatorio,7,1
purgatorio,27,1
purgatorio,29,1
purgatorio,32,2
paradiso,6,1
paradiso,8,1
paradiso,15,1
paradiso,18,2
paradiso,20,1
paradiso,24,1
paradiso,25,1
paradiso,28,2
