inferno,2,1
inferno,4,1
inferno,7,3
inferno,8,1
inferno,20,1
inferno,22,2
inferno,23,2
inferno,24,2
inferno,27,1
inferno,28,1
inferno,31,2
inferno,33,2
purgatorio,3,1
purgatorio,4,1
purgatorio,7,1
purgatorio,8,1
purgatorio,9,1
purgatorio,10,1
purgatorio,15,1
purgatorio,19,2
purgatorio,20,1
purgatorio,21,1
purgatorio,22,1
purgatorio,25,1
purgatorio,26,1
purgatorio,28,1
purgatorio,29,1
purgatorio,31,1
paradiso,7,1
paradiso,8,1
paradiso,19,1
paradiso,21,1
paradiso,22,1
paradiso,23,1
paradiso,26,1
paradiso,27,1
