inferno,1,3
inferno,3,2
inferno,7,1
inferno,12,1
inferno,16,1
inferno,25,1
inferno,27,1
inferno,28,2
inferno,33,1
purgatorio,1,1
purgatorio,14,1
purgatorio,21,1
purgatorio,24,1
purgatorio,29,1
paradiso,1,1
paradiso,2,1
paradiso,10,2
paradiso,22,1
paradiso,25,1
paradiso,28,1
