inferno,30,3
purgatorio,18,1
purgatorio,21,3
purgatorio,22,1
purgatorio,23,1
purgatorio,26,2
purgatorio,28,1
purgatorio,32,1
paradiso,2,1
paradiso,8,1
paradiso,10,2
paradiso,11,1
paradiso,17,1
paradiso,30,1
paradiso,32,1
