inferno,4,2
inferno,8,1
inferno,14,1
inferno,19,1
inferno,22,1
purgatorio,1,1
purgatorio,8,1
purgatorio,10,1
purgatorio,12,2
purgatorio,22,1
purgatorio,29,3
purgatorio,32,2
purgatorio,33,2
paradiso,6,2
paradiso,18,1
paradiso,22,2
