inferno,7,1
inferno,9,1
inferno,10,1
inferno,13,1
inferno,14,1
inferno,16,1
inferno,18,1
inferno,29,1
inferno,31,1
purgatorio,3,1
purgatorio,4,1
purgatorio,5,1
purgatorio,13,1
purgatorio,28,1
purgatorio,29,2
purgatorio,30,2
purgatorio,32,1
paradiso,8,1
paradiso,12,1
paradiso,32,1
