inferno,2,1
inferno,4,1
inferno,6,1
inferno,11,1
inferno,12,1
inferno,26,1
inferno,28,1
purgatorio,5,1
purgatorio,6,2
purgatorio,7,1
purgatorio,8,1
purgatorio,19,2
purgatorio,20,1
purgatorio,21,1
purgatorio,24,1
purgatorio,25,1
purgatorio,29,1
purgatorio,31,2
paradiso,2,1
paradiso,5,1
paradiso,12,1
paradiso,21,2
paradiso,22,1
paradiso,24,1
paradiso,32,1
paradiso,33,3
