inferno,3,1
inferno,10,1
inferno,27,1
inferno,31,1
purgatorio,3,1
purgatorio,4,1
purgatorio,6,2
purgatorio,8,1
purgatorio,9,1
purgatorio,13,1
purgatorio,21,2
purgatorio,28,1
purgatorio,29,1
purgatorio,31,1
paradiso,3,1
paradiso,4,1
paradiso,6,1
paradiso,7,1
paradiso,9,1
paradiso,14,1
paradiso,19,1
paradiso,25,2
paradiso,26,1
paradiso,30,1
paradiso,31,1
paradiso,33,1
