inferno,1,1
inferno,3,2
inferno,5,1
inferno,8,1
inferno,9,1
inferno,24,1
purgatorio,3,1
purgatorio,4,1
purgatorio,6,1
purgatorio,13,1
purgatorio,19,1
purgatorio,21,1
paradiso,20,1
paradiso,25,2
paradiso,31,1
paradiso,33,1
