inferno,1,1
inferno,3,1
inferno,16,1
inferno,20,1
inferno,26,1
purgatorio,1,1
purgatorio,6,1
purgatorio,8,2
purgatorio,17,1
purgatorio,18,1
purgatorio,27,1
purgatorio,30,1
purgatorio,31,1
purgatorio,33,2
paradiso,2,1
paradiso,4,1
paradiso,7,1
paradiso,8,1
paradiso,10,1
paradiso,13,1
paradiso,22,1
paradiso,25,1
paradiso,33,1
