inferno,1,7
inferno,2,3
inferno,3,1
inferno,4,2
inferno,5,3
inferno,6,2
inferno,7,1
inferno,8,2
inferno,10,3
inferno,11,5
inferno,12,1
inferno,13,3
inferno,14,2
inferno,15,3
inferno,16,1
inferno,17,3
inferno,18,2
inferno,19,2
inferno,20,1
inferno,22,1
inferno,23,1
inferno,24,5
inferno,25,1
inferno,26,1
inferno,27,3
inferno,31,4
inferno,32,1
inferno,33,2
purgatorio,1,5
purgatorio,2,1
purgatorio,3,1
purgatorio,4,2
purgatorio,5,4
purgatorio,6,1
purgatorio,7,3
purgatorio,8,1
purgatorio,9,3
purgatorio,10,2
purgatorio,11,1
purgatorio,12,2
purgatorio,13,1
purgatorio,14,4
purgatorio,15,1
purgatorio,16,6
purgatorio,17,5
purgatorio,18,3
purgatorio,19,2
purgatorio,20,4
purgatorio,21,2
purgatorio,22,2
purgatorio,23,5
purgatorio,24,1
purgatorio,25,6
purgatorio,26,3
purgatorio,28,6
purgatorio,30,5
purgatorio,31,3
purgatorio,32,4
purgatorio,33,4
paradiso,1,1
paradiso,2,4
paradiso,3,4
paradiso,4,4
paradiso,5,5
paradiso,6,5
paradiso,7,10
paradiso,8,7
paradiso,9,1
paradiso,10,2
paradiso,11,8
paradiso,12,8
paradiso,13,4
paradiso,14,4
paradiso,15,4
paradiso,16,4
paradiso,17,3
paradiso,18,3
paradiso,19,5
paradiso,20,5
paradiso,22,2
paradiso,23,5
paradiso,24,2
paradiso,25,5
paradiso,26,1
paradiso,27,3
paradiso,28,2
paradiso,29,2
paradiso,30,8
paradiso,31,2
paradiso,32,2
paradiso,33,4
