inferno,1,1
inferno,3,1
inferno,6,1
inferno,7,1
inferno,8,1
inferno,9,1
inferno,10,1
inferno,13,1
inferno,14,1
inferno,16,1
inferno,17,1
inferno,20,2
inferno,22,2
inferno,25,3
inferno,27,1
inferno,28,1
purgatorio,1,1
purgatorio,2,2
purgatorio,4,2
purgatorio,8,1
purgatorio,9,3
purgatorio,11,1
purgatorio,13,1
purgatorio,14,1
purgatorio,15,1
purgatorio,18,1
purgatorio,22,3
purgatorio,23,1
purgatorio,24,2
purgatorio,25,1
purgatorio,26,1
purgatorio,27,2
purgatorio,28,3
purgatorio,29,2
purgatorio,30,2
purgatorio,31,2
purgatorio,32,1
purgatorio,33,1
paradiso,1,1
paradiso,6,2
paradiso,7,2
paradiso,8,1
paradiso,9,1
paradiso,11,3
paradiso,12,1
paradiso,15,1
paradiso,17,2
paradiso,18,2
paradiso,21,1
paradiso,25,1
paradiso,27,4
paradiso,28,1
paradiso,29,3
paradiso,32,2
