inferno,1,1
inferno,2,3
inferno,6,1
inferno,7,1
inferno,8,3
inferno,9,1
inferno,10,1
inferno,11,1
inferno,12,2
inferno,14,2
inferno,15,2
inferno,16,1
inferno,17,1
inferno,18,3
inferno,19,2
inferno,21,2
inferno,23,2
inferno,24,3
inferno,25,1
inferno,26,1
inferno,29,4
inferno,30,3
inferno,31,2
inferno,32,1
inferno,33,3
purgatorio,1,1
purgatorio,2,1
purgatorio,3,1
purgatorio,6,1
purgatorio,7,1
purgatorio,9,1
purgatorio,11,2
purgatorio,14,2
purgatorio,17,2
purgatorio,19,2
purgatorio,20,1
purgatorio,21,1
purgatorio,23,1
purgatorio,24,3
purgatorio,25,3
purgatorio,26,2
purgatorio,27,3
purgatorio,28,2
purgatorio,29,5
purgatorio,30,2
purgatorio,31,3
purgatorio,32,2
paradiso,1,2
paradiso,4,2
paradiso,5,2
paradiso,6,2
paradiso,7,3
paradiso,8,3
paradiso,9,1
paradiso,11,1
paradiso,12,2
paradiso,13,1
paradiso,14,2
paradiso,15,2
paradiso,16,1
paradiso,17,4
paradiso,18,1
paradiso,19,2
paradiso,20,1
paradiso,21,1
paradiso,22,1
paradiso,23,1
paradiso,24,4
paradiso,25,2
paradiso,26,1
paradiso,27,2
paradiso,28,1
paradiso,29,2
paradiso,30,4
paradiso,31,2
paradiso,33,5
