inferno,1,1
inferno,2,9
inferno,3,1
inferno,7,1
inferno,8,1
inferno,10,3
inferno,13,1
inferno,15,2
inferno,16,4
inferno,17,1
inferno,18,2
inferno,19,2
inferno,20,1
inferno,23,1
inferno,25,1
inferno,28,1
inferno,29,1
inferno,30,1
inferno,31,1
inferno,32,2
inferno,33,3
purgatorio,1,2
purgatorio,2,1
purgatorio,3,1
purgatorio,4,2
purgatorio,5,1
purgatorio,6,4
purgatorio,10,1
purgatorio,11,2
purgatorio,12,4
purgatorio,13,1
purgatorio,14,2
purgatorio,15,1
purgatorio,16,1
purgatorio,17,2
purgatorio,20,2
purgatorio,21,1
purgatorio,22,3
purgatorio,23,2
purgatorio,24,2
purgatorio,25,2
purgatorio,26,2
purgatorio,27,4
purgatorio,30,1
purgatorio,31,3
purgatorio,33,4
paradiso,1,1
paradiso,2,4
paradiso,3,1
paradiso,4,1
paradiso,5,1
paradiso,8,2
paradiso,9,2
paradiso,10,2
paradiso,15,2
paradiso,16,1
paradiso,17,4
paradiso,18,1
paradiso,19,1
paradiso,25,3
paradiso,26,3
paradiso,27,2
paradiso,29,1
paradiso,30,1
paradiso,31,1
paradiso,32,1
paradiso,33,10
