inferno,1,3
inferno,3,2
inferno,5,4
inferno,6,1
inferno,7,1
inferno,10,1
inferno,11,1
inferno,14,1
inferno,15,2
inferno,19,1
inferno,20,1
inferno,22,1
inferno,24,1
inferno,26,4
inferno,29,1
inferno,30,1
inferno,31,1
inferno,33,1
purgatorio,1,1
purgatorio,3,2
purgatorio,4,1
purgatorio,6,1
purgatorio,11,3
purgatorio,12,2
purgatorio,13,2
purgatorio,16,1
purgatorio,18,1
purgatorio,21,1
purgatorio,22,1
purgatorio,23,3
purgatorio,24,1
purgatorio,25,1
purgatorio,26,1
purgatorio,28,1
purgatorio,30,2
purgatorio,32,1
purgatorio,33,2
paradiso,2,1
paradiso,6,1
paradiso,8,2
paradiso,10,2
paradiso,12,1
paradiso,15,1
paradiso,16,3
paradiso,17,3
paradiso,18,1
paradiso,20,1
paradiso,23,1
paradiso,24,1
paradiso,27,1
paradiso,29,2
paradiso,31,1
paradiso,32,2
