inferno,1,2
inferno,2,8
inferno,3,3
inferno,5,1
inferno,6,4
inferno,7,2
inferno,8,5
inferno,9,1
inferno,10,1
inferno,11,4
inferno,12,3
inferno,13,3
inferno,15,6
inferno,16,3
inferno,18,1
inferno,19,4
inferno,20,2
inferno,21,1
inferno,22,2
inferno,24,5
inferno,25,1
inferno,27,3
inferno,28,1
inferno,29,4
inferno,30,6
inferno,31,8
inferno,32,9
inferno,33,5
purgatorio,1,5
purgatorio,2,2
purgatorio,3,3
purgatorio,4,3
purgatorio,5,4
purgatorio,6,11
purgatorio,7,3
purgatorio,8,3
purgatorio,9,3
purgatorio,10,3
purgatorio,12,1
purgatorio,13,3
purgatorio,14,2
purgatorio,15,8
purgatorio,16,5
purgatorio,17,3
purgatorio,18,3
purgatorio,19,1
purgatorio,20,3
purgatorio,21,3
purgatorio,22,2
purgatorio,23,3
purgatorio,24,4
purgatorio,25,2
purgatorio,26,3
purgatorio,27,4
purgatorio,28,5
purgatorio,30,1
purgatorio,31,6
purgatorio,33,4
paradiso,1,3
paradiso,2,3
paradiso,3,3
paradiso,4,6
paradiso,5,5
paradiso,6,1
paradiso,7,3
paradiso,8,4
paradiso,10,4
paradiso,11,1
paradiso,12,2
paradiso,13,2
paradiso,15,2
paradiso,16,1
paradiso,17,6
paradiso,20,1
paradiso,21,4
paradiso,22,7
paradiso,23,2
paradiso,24,4
paradiso,25,2
paradiso,26,6
paradiso,27,2
paradiso,28,1
paradiso,31,1
paradiso,32,2
paradiso,33,4
