inferno,2,2
inferno,6,1
inferno,9,1
inferno,10,1
inferno,13,1
purgatorio,1,1
purgatorio,2,1
purgatorio,3,1
purgatorio,6,1
purgatorio,16,1
purgatorio,19,1
purgatorio,24,1
purgatorio,32,1
paradiso,1,1
paradiso,30,1
