inferno,1,1
inferno,2,2
inferno,4,1
inferno,8,1
inferno,12,1
inferno,14,1
inferno,22,1
inferno,29,2
inferno,30,1
inferno,31,2
inferno,33,4
purgatorio,1,1
purgatorio,5,1
purgatorio,9,1
purgatorio,13,2
purgatorio,14,1
purgatorio,16,1
purgatorio,22,2
purgatorio,24,2
purgatorio,26,1
purgatorio,28,1
purgatorio,33,1
paradiso,1,2
paradiso,4,1
paradiso,5,2
paradiso,6,1
paradiso,7,2
paradiso,9,1
paradiso,10,1
paradiso,11,1
paradiso,13,1
paradiso,15,2
paradiso,17,2
paradiso,21,1
paradiso,22,1
paradiso,25,1
paradiso,26,1
paradiso,27,1
paradiso,31,1
