inferno,2,1
inferno,10,1
inferno,13,1
inferno,14,1
inferno,16,1
inferno,28,1
purgatorio,6,1
purgatorio,7,1
purgatorio,12,1
purgatorio,15,1
purgatorio,16,2
purgatorio,18,1
purgatorio,21,1
purgatorio,22,1
purgatorio,25,1
purgatorio,26,1
purgatorio,27,2
purgatorio,29,2
paradiso,1,1
paradiso,9,1
paradiso,13,1
paradiso,15,1
paradiso,21,1
paradiso,22,1
paradiso,27,1
paradiso,31,1
paradiso,32,1
