inferno,1,3
inferno,3,4
inferno,5,1
inferno,7,3
inferno,8,1
inferno,9,1
inferno,10,1
inferno,11,2
inferno,12,1
inferno,14,2
inferno,15,2
inferno,16,4
inferno,17,2
inferno,20,1
inferno,21,1
inferno,22,2
inferno,23,2
inferno,24,1
inferno,25,2
inferno,26,1
inferno,29,1
inferno,30,1
inferno,31,1
inferno,32,2
purgatorio,2,2
purgatorio,3,5
purgatorio,4,3
purgatorio,5,2
purgatorio,6,1
purgatorio,8,2
purgatorio,9,4
purgatorio,10,4
purgatorio,13,1
purgatorio,15,2
purgatorio,16,2
purgatorio,17,3
purgatorio,19,4
purgatorio,21,1
purgatorio,22,1
purgatorio,23,1
purgatorio,26,2
purgatorio,27,3
purgatorio,28,1
purgatorio,29,2
purgatorio,30,1
purgatorio,31,1
purgatorio,32,4
paradiso,1,1
paradiso,2,2
paradiso,6,1
paradiso,7,1
paradiso,8,1
paradiso,9,1
paradiso,12,1
paradiso,13,2
paradiso,14,3
paradiso,15,1
paradiso,16,1
paradiso,20,1
paradiso,21,1
paradiso,23,1
paradiso,24,2
paradiso,30,1
paradiso,31,3
paradiso,33,3
