inferno,1,1
inferno,3,1
inferno,10,1
inferno,11,1
inferno,14,2
inferno,29,1
inferno,31,2
inferno,33,1
purgatorio,2,1
purgatorio,4,1
purgatorio,6,4
purgatorio,13,2
purgatorio,15,1
purgatorio,21,1
paradiso,2,2
paradiso,3,1
paradiso,11,1
paradiso,13,1
paradiso,17,1
paradiso,22,2
paradiso,27,1
paradiso,29,1
paradiso,30,1
