inferno,6,1
inferno,9,1
inferno,15,1
inferno,17,1
inferno,21,1
inferno,23,1
inferno,24,1
inferno,32,1
purgatorio,10,1
purgatorio,14,1
purgatorio,20,3
purgatorio,21,1
purgatorio,24,3
purgatorio,26,1
purgatorio,33,2
paradiso,4,2
paradiso,5,2
paradiso,7,2
paradiso,8,1
paradiso,17,1
paradiso,20,1
paradiso,21,3
paradiso,22,1
paradiso,26,1
paradiso,28,1
