inferno,3,1
inferno,8,1
inferno,16,1
inferno,18,4
inferno,21,2
inferno,22,1
inferno,23,1
inferno,24,1
inferno,25,1
inferno,30,2
inferno,32,1
purgatorio,2,3
purgatorio,3,1
purgatorio,4,2
purgatorio,5,2
purgatorio,6,1
purgatorio,8,1
purgatorio,12,1
purgatorio,13,1
purgatorio,15,2
purgatorio,19,1
purgatorio,20,1
purgatorio,22,1
purgatorio,24,1
purgatorio,26,1
purgatorio,27,2
purgatorio,28,4
paradiso,17,1
paradiso,25,1
paradiso,26,1
paradiso,28,1
paradiso,29,1
paradiso,30,1
paradiso,32,1
paradiso,33,1
