inferno,3,1
inferno,10,1
inferno,16,1
inferno,24,1
inferno,28,1
purgatorio,5,1
purgatorio,6,1
purgatorio,11,1
purgatorio,12,2
purgatorio,20,1
purgatorio,29,1
purgatorio,33,1
paradiso,6,1
paradiso,10,1
paradiso,12,1
paradiso,14,1
paradiso,16,1
paradiso,18,1
