inferno,1,1
inferno,8,1
inferno,10,1
inferno,12,1
inferno,13,1
inferno,15,1
inferno,21,1
inferno,32,1
purgatorio,1,1
purgatorio,3,2
purgatorio,8,1
purgatorio,11,1
purgatorio,13,2
purgatorio,17,1
purgatorio,19,2
purgatorio,23,1
purgatorio,24,1
purgatorio,27,1
purgatorio,30,1
paradiso,15,1
paradiso,18,1
paradiso,22,1
paradiso,24,1
paradiso,25,1
paradiso,27,1
