inferno,1,12
inferno,2,9
inferno,3,9
inferno,4,10
inferno,5,10
inferno,6,7
inferno,7,3
inferno,8,11
inferno,9,12
inferno,10,12
inferno,11,14
inferno,12,11
inferno,13,13
inferno,14,18
inferno,15,13
inferno,16,7
inferno,17,17
inferno,18,9
inferno,19,7
inferno,20,16
inferno,21,9
inferno,22,14
inferno,23,9
inferno,24,13
inferno,25,19
inferno,26,13
inferno,27,16
inferno,28,11
inferno,29,7
inferno,30,14
inferno,31,19
inferno,32,9
inferno,33,27
purgatorio,1,10
purgatorio,2,5
purgatorio,3,15
purgatorio,4,11
purgatorio,5,19
purgatorio,6,11
purgatorio,7,7
purgatorio,8,10
purgatorio,9,14
purgatorio,10,7
purgatorio,11,6
purgatorio,12,3
purgatorio,13,3
purgatorio,14,14
purgatorio,15,6
purgatorio,16,10
purgatorio,17,8
purgatorio,18,9
purgatorio,19,10
purgatorio,20,12
purgatorio,21,10
purgatorio,22,5
purgatorio,23,8
purgatorio,24,8
purgatorio,25,5
purgatorio,26,2
purgatorio,27,9
purgatorio,28,6
purgatorio,29,6
purgatorio,30,6
purgatorio,31,5
purgatorio,32,9
purgatorio,33,7
paradiso,1,5
paradiso,2,5
paradiso,3,4
paradiso,4,5
paradiso,5,11
paradiso,6,8
paradiso,7,6
paradiso,8,7
paradiso,9,7
paradiso,10,13
paradiso,11,5
paradiso,12,5
paradiso,13,10
paradiso,14,3
paradiso,15,11
paradiso,16,8
paradiso,17,4
paradiso,18,13
paradiso,19,7
paradiso,20,6
paradiso,21,8
paradiso,22,16
paradiso,23,8
paradiso,24,11
paradiso,25,10
paradiso,26,2
paradiso,27,10
paradiso,28,18
paradiso,29,6
paradiso,30,5
paradiso,31,6
paradiso,32,7
paradiso,33,9
