A,1
Achille,1
Andate,1
Cenere,1
Chiedi,1
Chirón,1
Da,1
Dallato,1
Deum,1
Dianzi,1
Dio,1
Dite,1
Divoto,1
Donna,1
E,2
Ed,1
Era,1
Fa,1
Fra,1
Ganimede,1
Greci,1
Guardate,1
Intrate,1
Io,1
Ivi,1
I’,1
La,1
Lettor,1
Lo,1
Lucia,1
Là,1
L’una,1
Metello,1
Ne,1
Noi,1
Non,2
P,1
Per,1
Pier,1
Più,1
Poi,2
Quandunque,1
Qui,1
Schiro,1
Sette,1
Sordel,1
Sovra,1
Tale,1
Tarpëa,1
Titone,1
Tu,1
Venite,1
a,14
abbandonati,1
accorta,1
accorti,1
acra,1
ad,3
addorno,1
agghiaccia,1
al,7
alto,1
altrimenti,1
ambo,1
amico,1
animale,1
antico,1
anzi,1
aperta,1
aperte,1
appressammo,1
aprir,1
ardesse,1
arsiccia,1
arte,1
attento,1
avanti,1
avanzi,1
avea,2
aver,1
avëa,1
a’,3
balco,1
balzo,2
belli,1
ben,1
bene,1
bianca,1
bianco,1
braccia,2
buon,1
buona,1
buono,1
calare,1
calla,1
cambia’,1
cantar,1
cara,1
cardini,1
carne,1
cavi,1
che,37
chi,1
chiaro,1
chiavi,2
chiesi,1
chinava,1
chiude,1
ché,1
ch’a,1
ch’ancor,1
ch’el,1
ch’io,4
ch’i’,2
ch’or,1
ci,1
ciel,2
cinque,1
ciò,1
coda,1
col,2
color,2
come,9
comincia,1
cominciò,1
com’,1
con,8
concubina,1
conforto,2
consistoro,1
contento,1
convenne,1
cortese,1
cose,1
cosse,1
costinci,1
costui,1
crepata,1
cura,1
da,5
dal,1
da’,1
de,2
del,3
dentro,2
descrisse,1
de’,2
di,17
diamante,1
dianzi,1
dicendo,2
diedi,1
dietro,1
digiunto,1
digroppa,1
dimostraro,1
dintorno,1
diparte,1
dipartiro,1
dire,1
discendesse,1
discoperta,1
disdegna,1
diserri,1
disse,4
dissemi,1
diss’,1
distorti,1
diventa’,1
diversi,1
divina,1
dolce,2
donna,1
dorme,1
dormendo,1
dormia,1
dove,3
dritta,1
drizzava,1
dubbio,1
duca,2
due,3
dunque,1
dì,1
d’,3
d’Adamo,1
d’altro,1
d’argento,1
d’arte,1
d’este,1
d’ingegno,1
d’oro,1
d’orïente,1
d’una,1
e,40
ed,2
ella,5
elli,2
era,4
eravamo,2
erri,1
er’,1
essa,1
esser,1
esso,1
fa,1
faccia,2
facciovi,1
facea,1
falla,1
fatti,2
fece,1
fesso,1
fiammeggiante,1
fiede,1
figura,1
fiori,1
foco,1
folgor,1
fora,1
forme,1
forse,2
forti,1
fosse,1
freddo,1
fronte,2
fu,3
fuggì,1
fuor,4
fuoro,1
fu’,1
gemme,1
gente,2
genti,1
gialla,1
giorno,1
gire,1
giro,1
gittai,1
giunto,1
giuso,1
già,4
giù,1
gradi,3
grado,1
guai,1
guata,1
guisa,1
i,4
il,9
imaginato,1
imagine,1
in,15
inchinai,1
infino,1
innalzo,1
innanzi,1
intesa,1
intrata,1
inver’,1
io,8
ismorto,1
la,27
lai,1
lasciatemi,1
laudamus‘,1
lavi,1
le,8
li,7
lo,5
loco,2
lucente,1
lui,2
lungo,1
là,9
l’agevolerò,1
l’alba,1
l’ale,1
l’ali,1
l’altra,2
l’altre,1
l’altura,1
l’angel,1
l’anima,1
l’entrata,1
l’erba,1
l’occhio,1
l’ora,1
l’una,2
l’uom,1
l’uscio,1
ma,5
macra,1
madre,1
maestro,1
mano,1
maravigliar,1
marina,1
marmo,1
matera,1
mattina,1
me,3
meco,1
memoria,1
men,1
mente,1
metallo,1
mi,18
mia,1
mio,5
misericordia,1
mista,1
mosse,1
mostrò,1
motto,1
muro,1
muta,1
m’aprisse,1
m’era,2
ne,5
nel,3
ne’,1
no,1
nodo,1
noi,3
non,9
nostra,1
nostri,1
notte,1
nuda,1
né,1
nòi,1
n’andaro,1
o,1
occhi,2
ogne,1
omai,1
onde,1
ond’,1
or,1
ore,1
organi,1
orme,1
oro,1
ov’,2
paio,1
par,1
parea,6
pareami,1
parole,1
parte,1
passi,2
paura,1
penne,1
pensava,1
pensier,1
per,9
perch’,1
percuote,1
peregrina,1
perso,1
però,1
petrina,1
petto,1
piaghe,1
piante,1
piede’,1
piedi,2
pietra,1
pigliar,1
pinse,1
più,6
poco,1
poi,5
porfido,1
porta,4
portarne,1
portier,1
portinaio,1
poscia,1
poste,1
posò,1
prender,1
presa,1
presso,1
pria,3
prima,1
primaio,1
primi,1
primo,1
procede,1
pulito,1
punto,2
punton,1
pur,4
purgatorio,1
qual,2
quando,6
quand’,1
quasi,1
quel,2
quella,3
questa,2
queste,2
questo,1
qui,1
quivi,1
raccerta,1
raggi,1
rallarga,1
rapisse,1
ratto,1
reflettëa,1
regge,1
rendea,1
ricominciò,1
rietro,1
rimase,2
rincalzo,1
riscosse,1
rispuose,1
rivolgendo,1
rivolsi,1
rompesse,1
rondinella,1
rotata,1
rotto,1
rugghiò,1
ruvida,1
sacra,1
sacrata,1
sale,1
sangue,1
santi,1
sanza,1
sappiendo,1
scaglion,1
scioglia,1
scorta,1
scoss’,1
se,1
secca,1
secondo,1
sedavamo,1
sedendo,1
seder,1
segnore,1
sembiava,1
semo,1
sen,1
serrame,1
serrata,1
se’,2
si,11
sicur,1
soffersi,1
soglia,1
sogno,1
sole,1
solo,1
sommo,1
son,2
sonanti,1
sonno,4
sopra,1
sospesa,1
sotto,2
sovra,2
sovrano,1
spada,2
spaventato,1
specchiai,1
spesso,1
spiccia,1
spigoli,1
stea,1
stringer,1
su,3
sua,3
sue,3
suo,2
suoi,2
suole,1
suono,1
suo’,1
suso,3
svegliati,1
sì,10
sù,2
s’ammassiccia,1
s’apre,1
s’atterri,1
s’imbiancava,1
s’intendon,1
s’io,1
tal,1
tegno,1
tema,1
tenerla,1
tenëa,1
terra,1
terribil,1
terso,1
terzo,2
ti,3
tinto,1
tolse,1
tolto,1
toppa,1
torna,1
torto,1
trafuggò,1
trasse,2
traverso,1
tre,3
tristi,1
troppa,1
tu,1
tua,1
tuono,1
tutti,1
udire,1
udiva,1
umilemente,1
un,4
una,4
un’aguglia,1
uom,1
uso,1
vano,1
veder,1
vedi,3
vena,1
venimmo,1
venir,1
venne,2
verità,1
ver’,1
vestimento,1
vi,1
via,1
vide,1
vidi,1
vidil,1
vigore,1
vinto,1
viso,2
visïon,1
voce,1
voglia,1
voi,1
volete,1
volga,1
volte,1
vostri,1
vuol,1
v’apersi,1
è,7
‘Forse,1
‘Te,1
’l,14
’n,2
’ncendio,1
’ve,2
