A,1
Affricano,1
Appresso,1
Augusto,1
Benedicta,1
Cantando,1
Da,1
Delia,1
Di,1
E,4
Ed,1
Elicona,1
Esso,1
Ezechïel,1
Frate,1
Genti,1
Giovanni,1
Giove,1
Indi,1
Io,1
Ipocràte,1
La,1
Lo,1
L’acqua,1
L’un,1
Ma,1
Mentr’,1
Non,2
Né,1
O,1
Ognuno,1
Or,1
Perché,1
Poco,1
Poi,1
Poscia,1
Quand’,1
Questi,1
Roma,1
Sol,2
Sole,1
Sotto,1
Tanto,1
Terra,1
Tre,1
Tutti,1
Uranìe,1
Vergini,1
Virgilio,1
a,17
abito,1
abitüati,1
acceso,1
aguta,1
ai,1
al,4
alberi,1
alcun,3
ale,1
ali,1
allor,2
ammanna,1
anco,1
ancor,2
ancora,1
andando,1
andar,1
animali,2
anzi,1
apprese,1
appresso,2
arcanamente,1
ardesser,1
ardi,1
arguta,1
arnese,1
ascolta,1
aspetto,1
assai,1
atto,2
avea,1
avean,1
aver,1
avrei,1
avria,1
avviso,1
balenar,2
bel,1
bellezze,1
bello,2
benedette,1
bianca,1
bianche,1
bianco,1
brolo,1
buon,2
cagion,1
candelabri,1
candor,1
cantare,1
cantavan,1
canti,1
canto,1
capo,1
carca,1
cari,1
carni,1
carro,3
carte,1
cento,1
che,21
chiami,1
chiaro,1
ch’a,6
ch’al,1
ch’altra,1
ch’avea,1
ch’ell’,1
ch’era,1
ch’io,1
ci,1
ciascun,1
ciel,2
cielo,1
cigli,1
cinto,1
ciò,1
col,3
collo,1
colori,1
combusto,1
come,8
comun,1
com’,2
con,9
contenne,1
continüò,1
contra,1
contraria,1
convien,1
coro,1
coronati,2
correva,1
cosa,1
cose,2
costa,1
così,3
cotali,1
cura,1
da,11
dal,3
danzando,1
davante,1
da’,1
de,3
degne,1
del,4
delizie,1
dentro,2
descriver,1
destra,1
devota,1
de’,1
di,30
dicea,1
dicendo,1
diece,1
diedi,1
dier,1
dietro,3
dinanzi,1
dintorno,1
diparte,1
dipigne,1
dipinto,1
discorso,1
dispari,1
distante,1
distanza,1
distavan,1
distinto,1
disïando,1
disïoso,1
diviso,1
divota,1
dolce,2
donna,3
donne,1
dormendo,1
dove,1
duci,1
due,4
durando,1
d’Adamo,1
d’Argo,1
d’Eva,1
d’altri,1
d’ammirazion,1
d’occhi,1
d’oro,2
d’un,1
d’una,1
e,42
ebbi,1
ecco,1
ed,1
elette,1
elli,1
ello,1
era,4
eran,5
erano,1
erbette,1
esser,1
esso,1
etterno,1
fa,1
faccia,1
facea,2
facean,1
facëan,1
falsava,1
fami,1
famigliari,1
fatte,1
fatto,1
femmina,1
fendendo,1
fermandosi,1
festa,1
fiammeggiava,1
fiammelle,1
fianco,1
figlie,1
fin,1
fior,1
fiordaliso,1
fiori,1
fiume,2
foco,2
fora,1
foran,1
foresta,1
fori,1
formata,1
forme,1
forse,1
forti,1
fosse,1
fosser,1
fossero,1
fredda,1
freddi,1
fresche,1
fronda,1
fu,4
fuci,1
fuggir,1
fui,1
fuor,1
fé,4
fïata,1
genti,2
gigli,1
giro,1
giurato,1
giusto,1
givan,1
già,2
gran,1
grifon,1
guarda,1
guardi,1
ha,1
i,3
igne,1
igualmente,1
il,7
imprendëa,1
in,15
incontr’,1
ineffabili,1
inganna,1
innamorata,1
insegne,1
interdetto,1
inteso,1
io,5
ivi,1
i’,1
la,18
largo,1
lasciando,1
le,14
leggi,1
lei,2
letizie,1
lettor,1
levante,1
li,4
libere,1
liste,2
lo,1
lontano,1
lor,7
loro,1
luce,2
luci,1
lucida,1
lui,1
luminoso,1
luna,1
lunga,1
lungo,1
lustro,1
là,1
lì,1
l’aere,3
l’affetto,1
l’alte,1
l’altra,2
l’altre,3
l’altro,1
l’altr’,1
l’andar,1
l’andare,1
l’arco,1
l’ardimento,1
l’aspetto,1
l’etterno,1
l’obietto,1
l’orazion,1
l’ossa,1
l’una,2
ma,5
maggiori,1
mai,2
male,1
me,5
meco,1
meglio,1
melodia,1
membra,1
meno,1
mercé,1
mese,1
mettere,1
mezza,1
mezzana,1
mezzo,2
mi,10
mia,3
miei,1
mio,3
mise,1
miste,1
modo,2
molta,1
mossa,1
mosse,1
mostrava,2
movieno,1
m’aiuti,1
m’andava,1
natura,1
ne,4
nel,3
neve,1
ninfe,1
nodo,1
noi,3
non,9
nostra,1
nota,1
notte,1
novelle,1
nube,1
nulla,1
o,2
occhi,2
oltre,1
ombre,1
onde,2
onesto,1
or,2
ostendali,1
parea,1
parere,1
pari,2
parole,1
parte,1
parti,1
paruta,1
parvero,1
parëan,1
passi,3
passo,1
paura,1
peccata,1
pena,1
penne,2
pennelli,1
pennuto,1
pensar,1
pensier,1
per,12
perché,1
perdea,1
pertrattato,1
piacer,1
picciol,2
piene,1
pieno,1
più,9
poco,1
porpore,1
posso,1
posta,1
pover,1
presso,1
prima,1
primaio,1
prime,1
primizie,1
pur,2
qua,2
qual,3
quale,1
quali,1
quando,4
quand’,1
quanto,1
quant’,1
quattro,4
quei,2
quel,4
quelle,3
questa,3
questi,1
quivi,1
quorum,1
ragion,1
rallegrasse,1
rami,1
ratte,1
rendea,1
rendei,2
resta,1
retro,2
riguardava,1
rimanea,1
rime,1
rimpetto,2
rio,1
ripe,1
riprender,1
rispuose,1
riva,2
rivolsi,1
rose,1
rossa,2
rota,1
rote,1
sacrosante,1
salivan,1
salvatiche,1
salvo,1
sarebber,1
saria,1
se,4
seconda,1
seguitando,1
sei,1
sembiante,1
seniori,1
senso,1
sentite,1
sereno,1
sette,3
sgridò,1
si,7
sieno,1
sinistra,2
sinistro,1
smeraldo,1
sodo,1
sofferse,1
soffersi,1
sola,1
sole,2
solo,2
sommo,1
sopra,3
sospeso,1
sosta,1
sotto,3
spada,1
spargo,1
spazio,1
specchio,1
spesa,1
splendeva,1
sponda,1
spose,1
sprona,1
star,1
stata,1
state,1
strigne,1
stuolo,1
stupor,1
su,2
sue,2
sunt,1
suo,3
suoi,1
suon,1
svïando,1
sé,1
sì,7
sù,1
sùbito,1
s’io,1
s’udì,1
tal,5
tali,1
tante,1
tanto,2
tarde,1
tardi,1
tecta,1
tendeva,1
terra,1
terza,1
testa,1
testé,2
tirato,1
toglien,1
torse,1
tra,4
trascorse,1
tratte,1
tratti,1
tratto,1
tre,3
troverai,1
trïunfale,1
tue,2
tuon,1
tutta,1
tutte,2
tutti,2
tutto,2
ubidia,1
uccello,1
umile,1
un,5
una,2
vecchi,1
vecchio,1
veder,2
velo,1
venian,1
venien,1
venir,2
venire,1
venne,1
vennero,1
ventiquattro,1
vento,1
verde,1
verdi,1
vermigli,1
vermiglio,1
vero,1
versi,2
vestite,2
vi,1
via,1
vide,1
vidi,3
vid’,1
vien,2
vigilie,1
vinte,1
virtù,1
vista,2
viste,1
vive,1
vivi,1
voci,1
voi,1
volta,1
zelo,1
è,2
‘Beati,1
‘Che,1
‘Osanna’,1
’,4
’l,6
